-50.0	0.000000e+00	0.000000e+00	
-49.0	0.000000e+00	0.000000e+00	
-48.0	0.000000e+00	0.000000e+00	
-47.0	0.000000e+00	0.000000e+00	
-46.0	0.000000e+00	0.000000e+00	
-44.9	0.000000e+00	0.000000e+00	
-43.9	0.000000e+00	0.000000e+00	
-42.9	0.000000e+00	0.000000e+00	
-41.9	0.000000e+00	5.719974e-306	
-40.9	0.000000e+00	1.382182e-285	
-39.9	0.000000e+00	4.340220e-266	
-38.9	0.000000e+00	1.771060e-247	
-37.9	0.000000e+00	9.391395e-230	
-36.9	0.000000e+00	6.471456e-213	
-35.9	0.000000e+00	5.794942e-197	
-34.8	0.000000e+00	6.743283e-182	
-33.8	0.000000e+00	1.019691e-167	
-32.8	0.000000e+00	2.003740e-154	
-31.8	0.000000e+00	5.116690e-142	
-30.8	0.000000e+00	1.697899e-130	
-29.8	0.000000e+00	7.321668e-120	
-28.8	0.000000e+00	4.102827e-110	
-27.8	0.000000e+00	2.987663e-101	
-26.8	0.000000e+00	2.827189e-93	
-25.8	0.000000e+00	3.476573e-86	
-24.7	0.000000e+00	5.555308e-80	
-23.7	0.000000e+00	1.153257e-74	
-22.7	0.000000e+00	3.104826e-70	
-21.7	0.000000e+00	1.068836e-66	
-20.7	0.000000e+00	4.072145e-64	
-19.7	0.000000e+00	-4.642001e-62	
-18.7	0.000000e+00	-1.741197e-59	
-17.7	0.000000e+00	9.170751e-58	
-16.7	0.000000e+00	3.480564e-55	
-15.7	0.000000e+00	-1.087256e-53	
-14.6	0.000000e+00	-4.358034e-51	
-13.6	0.000000e+00	8.524799e-50	
-12.6	0.000000e+00	3.836059e-47	
-11.6	0.000000e+00	-4.516025e-46	
-10.6	0.000000e+00	-2.521648e-43	
-9.6	0.000000e+00	1.497591e-42	
-8.6	8.024472e-312	1.282889e-39	
-7.6	8.548208e-289	-1.584952e-39	
-6.6	1.183338e-266	-5.163740e-36	
-5.6	2.128717e-245	-1.421068e-35	
-4.5	4.976248e-225	1.666388e-32	
-3.5	1.511685e-205	1.042939e-31	
-2.5	5.967545e-187	-4.341247e-29	
-1.5	3.061296e-169	-4.095672e-28	
-0.5	2.040751e-152	9.144205e-26	
0.5	1.767869e-136	1.132771e-24	
1.5	1.990147e-121	-1.551618e-22	
2.5	2.911357e-107	-2.360593e-21	
3.5	5.534531e-94	2.100883e-19	
4.5	1.367229e-81	3.784713e-18	
5.6	4.389117e-70	-2.231105e-16	
6.6	1.830999e-59	-4.670873e-15	
7.6	9.925996e-50	1.805161e-13	
8.6	6.992546e-41	4.374356e-12	
9.6	6.401352e-33	-1.057603e-10	
10.6	7.615235e-26	-3.013822e-09	
11.6	1.177254e-19	4.051454e-08	
12.6	2.365004e-14	1.442172e-06	
13.6	6.174033e-10	-7.524439e-06	
14.6	2.094504e-06	-4.276776e-04	
15.7	9.233545e-04	-5.465089e-04	
16.7	5.289700e-02	5.852822e-02	
17.7	3.937936e-01	3.900177e-01	
18.7	3.809619e-01	3.796953e-01	
19.7	4.789273e-02	4.916155e-02	
20.7	7.824070e-04	8.297910e-04	
21.7	1.661005e-06	1.820821e-06	
22.7	4.582311e-10	5.192356e-10	
23.7	1.642757e-14	1.924154e-14	
24.7	7.653094e-20	9.265966e-20	
25.8	4.633146e-26	5.798516e-26	
26.8	3.644938e-33	4.715395e-33	
27.8	3.726314e-41	4.983042e-41	
28.8	4.950442e-50	6.842995e-50	
29.8	8.546407e-60	1.221161e-59	
30.8	1.917337e-70	2.831880e-70	
31.8	5.589698e-82	8.533988e-82	
32.8	2.117646e-94	3.341983e-94	
33.8	1.042542e-107	1.700716e-107	
34.8	6.669744e-122	1.124694e-121	
35.9	5.544977e-137	9.665227e-137	
36.9	5.990534e-153	1.079357e-152	
37.9	8.410202e-170	1.566365e-169	
38.9	1.534343e-187	2.953903e-187	
39.9	3.637590e-206	7.238935e-206	
40.9	1.120676e-225	2.305304e-225	
41.9	4.486645e-246	9.540189e-246	
42.9	2.334202e-267	5.130514e-267	
43.9	1.578085e-289	3.585419e-289	
44.9	1.386428e-312	3.256073e-312	
46.0	0.000000e+00	0.000000e+00	
47.0	0.000000e+00	0.000000e+00	
48.0	0.000000e+00	0.000000e+00	
49.0	0.000000e+00	0.000000e+00	
50.0	0.000000e+00	0.000000e+00	
