-50.0	0.000000e+00	0.000000e+00	
-49.0	0.000000e+00	-3.299514e-270	
-48.0	0.000000e+00	-7.972992e-250	
-47.0	0.000000e+00	-2.503616e-230	
-46.0	0.000000e+00	-1.021620e-211	
-44.9	0.000000e+00	-5.417340e-194	
-43.9	0.000000e+00	-3.733000e-177	
-42.9	0.000000e+00	-3.342759e-161	
-41.9	0.000000e+00	-3.889801e-146	
-40.9	0.000000e+00	-5.881997e-132	
-39.9	0.000000e+00	-1.155839e-118	
-38.9	0.000000e+00	-2.951516e-106	
-37.9	0.000000e+00	-9.794178e-95	
-36.9	0.000000e+00	-4.223437e-84	
-35.9	0.000000e+00	-2.366678e-74	
-34.8	0.000000e+00	-1.723406e-65	
-33.8	0.000000e+00	-1.630837e-57	
-32.8	0.000000e+00	-2.005421e-50	
-31.8	0.000000e+00	-3.204430e-44	
-30.8	0.000000e+00	-6.650875e-39	
-29.8	0.000000e+00	-1.787718e-34	
-28.8	0.000000e+00	-6.079741e-31	
-27.8	0.000000e+00	-2.117469e-28	
-26.8	0.000000e+00	1.352758e-26	
-25.8	0.000000e+00	9.691663e-26	
-24.7	0.000000e+00	-3.506199e-23	
-23.7	0.000000e+00	1.618340e-21	
-22.7	0.000000e+00	-4.159431e-20	
-21.7	0.000000e+00	6.982218e-19	
-20.7	0.000000e+00	-7.821855e-18	
-19.7	0.000000e+00	5.249023e-17	
-18.7	0.000000e+00	-6.295790e-17	
-17.7	0.000000e+00	-2.911764e-15	
-16.7	0.000000e+00	3.551808e-14	
-15.7	0.000000e+00	-2.121704e-13	
-14.6	0.000000e+00	5.471549e-13	
-13.6	0.000000e+00	1.563117e-12	
-12.6	0.000000e+00	-1.810716e-11	
-11.6	0.000000e+00	4.647097e-11	
-10.6	0.000000e+00	1.203096e-10	
-9.6	4.940656e-324	-9.935955e-10	
-8.6	1.304538e-300	8.712428e-10	
-7.6	5.196488e-278	9.729643e-09	
-6.6	2.689914e-256	-2.505107e-08	
-5.6	1.809430e-235	-6.184405e-08	
-4.5	1.581687e-215	2.858589e-07	
-3.5	1.796696e-196	2.987594e-07	
-2.5	2.652184e-178	-2.321383e-06	
-1.5	5.087539e-161	-1.475289e-06	
-0.5	1.268198e-144	1.520214e-05	
0.5	4.108107e-129	1.078238e-05	
1.5	1.729304e-114	-8.162645e-05	
2.5	9.459676e-101	-9.343472e-05	
3.5	6.724443e-88	3.337068e-04	
4.5	6.211715e-76	6.658308e-04	
5.6	7.456617e-65	-7.798713e-04	
6.6	1.163181e-54	-3.313078e-03	
7.6	2.357914e-45	-9.951384e-04	
8.6	6.211320e-37	9.476971e-03	
9.6	2.126253e-29	1.563654e-02	
10.6	9.458473e-23	-3.461816e-03	
11.6	5.467671e-17	-4.445194e-02	
12.6	4.107323e-12	-6.385228e-02	
13.6	4.009503e-08	-1.574785e-02	
14.6	5.086245e-05	9.273646e-02	
15.7	8.384541e-03	1.986096e-01	
16.7	1.796124e-01	2.400002e-01	
17.7	4.999985e-01	2.069238e-01	
18.7	1.808740e-01	1.360602e-01	
19.7	8.502738e-03	6.989914e-02	
20.7	5.194175e-05	2.820892e-02	
21.7	4.123343e-08	8.881192e-03	
22.7	4.253609e-12	2.141444e-03	
23.7	5.702179e-17	3.826576e-04	
24.7	9.933431e-23	4.794923e-05	
25.8	2.248707e-29	3.823224e-06	
26.8	6.615180e-37	1.596015e-07	
27.8	2.528864e-45	2.060392e-09	
28.8	1.256275e-54	4.344252e-12	
29.8	8.109963e-65	1.232294e-15	
30.8	6.803435e-76	4.563419e-20	
31.8	7.416736e-88	2.197366e-25	
32.8	1.050685e-100	1.375066e-31	
33.8	1.934227e-114	1.118212e-38	
34.8	4.627192e-129	1.181681e-46	
35.9	1.438476e-144	1.622752e-55	
36.9	5.811163e-161	2.895868e-65	
37.9	3.050694e-178	6.715537e-76	
38.9	2.081178e-196	2.023755e-87	
39.9	1.844995e-215	7.925198e-100	
40.9	2.125476e-235	4.033087e-113	
41.9	3.181943e-256	2.667105e-127	
42.9	6.190186e-278	2.292017e-142	
43.9	1.564913e-300	2.559592e-158	
44.9	4.940656e-324	3.714487e-175	
46.0	0.000000e+00	7.004903e-193	
47.0	0.000000e+00	1.716645e-211	
48.0	0.000000e+00	5.466811e-231	
49.0	0.000000e+00	2.262366e-251	
50.0	0.000000e+00	0.000000e+00	
