-50.0	0.000000e+00	0.000000e+00	
-49.0	0.000000e+00	0.000000e+00	
-48.0	0.000000e+00	0.000000e+00	
-47.0	0.000000e+00	0.000000e+00	
-46.0	0.000000e+00	4.195154e-316	
-44.9	0.000000e+00	6.003007e-294	
-43.9	0.000000e+00	1.116259e-272	
-42.9	0.000000e+00	2.697344e-252	
-41.9	0.000000e+00	8.469986e-233	
-40.9	0.000000e+00	3.456243e-214	
-39.9	0.000000e+00	1.832741e-196	
-38.9	0.000000e+00	1.262912e-179	
-37.9	0.000000e+00	1.130889e-163	
-36.9	0.000000e+00	1.315959e-148	
-35.9	0.000000e+00	1.989939e-134	
-34.8	0.000000e+00	3.910320e-121	
-33.8	0.000000e+00	9.985275e-109	
-32.8	0.000000e+00	3.313469e-97	
-31.8	0.000000e+00	1.428831e-86	
-30.8	0.000000e+00	8.006712e-77	
-29.8	0.000000e+00	5.830456e-68	
-28.8	0.000000e+00	5.517289e-60	
-27.8	0.000000e+00	6.784562e-53	
-26.8	0.000000e+00	1.084116e-46	
-25.8	0.000000e+00	2.250459e-41	
-24.7	0.000000e+00	6.056351e-37	
-23.7	0.000000e+00	2.079217e-33	
-22.7	0.000000e+00	7.927655e-31	
-21.7	0.000000e+00	-1.811559e-29	
-20.7	0.000000e+00	-1.610810e-27	
-19.7	0.000000e+00	8.321417e-26	
-18.7	0.000000e+00	-1.446191e-24	
-17.7	0.000000e+00	4.189715e-24	
-16.7	0.000000e+00	2.065338e-22	
-15.7	0.000000e+00	-2.615409e-21	
-14.6	0.000000e+00	-3.079045e-21	
-13.6	0.000000e+00	2.685334e-19	
-12.6	0.000000e+00	-1.142088e-18	
-11.6	0.000000e+00	-1.393784e-17	
-10.6	0.000000e+00	1.185538e-16	
-9.6	0.000000e+00	4.121955e-16	
-8.6	3.040937e-312	-6.630937e-15	
-7.6	3.360259e-289	-5.283375e-15	
-6.6	4.825175e-267	2.619926e-13	
-5.6	9.003858e-246	-1.074013e-13	
-4.5	2.183330e-225	-8.091590e-12	
-3.5	6.879949e-206	7.228796e-12	
-2.5	2.817255e-187	2.056589e-10	
-1.5	1.499141e-169	-1.779294e-10	
-0.5	1.036654e-152	-4.390941e-09	
0.5	9.315374e-137	1.931009e-09	
1.5	1.087782e-121	7.818136e-08	
2.5	1.650665e-107	2.130205e-08	
3.5	3.254999e-94	-1.120505e-06	
4.5	8.340998e-82	-1.339369e-06	
5.6	2.777540e-70	1.201036e-05	
6.6	1.201926e-59	2.874125e-05	
7.6	6.758813e-50	-8.069402e-05	
8.6	4.938991e-41	-3.657832e-04	
9.6	4.690091e-33	9.530534e-05	
10.6	5.787612e-26	2.731271e-03	
11.6	9.280955e-20	3.931462e-03	
12.6	1.934021e-14	-8.217178e-03	
13.6	5.237268e-10	-3.380234e-02	
14.6	1.842992e-06	-2.967578e-02	
15.7	8.427864e-04	6.118223e-02	
16.7	5.008257e-02	2.111081e-01	
17.7	3.867505e-01	2.942134e-01	
18.7	3.881060e-01	2.359686e-01	
19.7	5.061100e-02	1.107106e-01	
20.7	8.576590e-04	2.701294e-02	
21.7	1.888685e-06	2.366105e-03	
22.7	5.404800e-10	3.752082e-05	
23.7	2.009902e-14	8.164582e-08	
24.7	9.712819e-20	2.325715e-11	
25.8	6.099453e-26	8.617278e-16	
26.8	4.977504e-33	4.149664e-21	
27.8	5.278463e-41	2.596797e-27	
28.8	7.274088e-50	2.111734e-34	
29.8	1.302641e-59	2.231596e-42	
30.8	3.031420e-70	3.064554e-51	
31.8	9.167326e-82	5.468825e-61	
32.8	3.602586e-94	1.268224e-71	
33.8	1.839760e-107	3.821845e-83	
34.8	1.220909e-121	1.496668e-95	
35.9	1.052884e-136	7.616454e-109	
36.9	1.179921e-152	5.036808e-123	
37.9	1.718305e-169	4.328457e-138	
38.9	3.251794e-187	4.833771e-154	
39.9	7.996884e-206	7.014781e-171	
40.9	2.555605e-225	1.322871e-188	
41.9	1.061309e-245	3.241871e-207	
42.9	5.727502e-267	1.032403e-226	
43.9	4.016648e-289	4.272461e-247	
44.9	3.660475e-312	2.297640e-268	
46.0	0.000000e+00	1.605687e-290	
47.0	0.000000e+00	1.458194e-313	
48.0	0.000000e+00	0.000000e+00	
49.0	0.000000e+00	0.000000e+00	
50.0	0.000000e+00	0.000000e+00	
