-50.0	0.000000e+00	0.000000e+00	
-49.0	0.000000e+00	0.000000e+00	
-48.0	0.000000e+00	0.000000e+00	
-47.0	0.000000e+00	0.000000e+00	
-46.0	0.000000e+00	0.000000e+00	
-44.9	0.000000e+00	0.000000e+00	
-43.9	0.000000e+00	0.000000e+00	
-42.9	0.000000e+00	0.000000e+00	
-41.9	0.000000e+00	0.000000e+00	
-40.9	0.000000e+00	0.000000e+00	
-39.9	0.000000e+00	0.000000e+00	
-38.9	0.000000e+00	0.000000e+00	
-37.9	0.000000e+00	0.000000e+00	
-36.9	0.000000e+00	0.000000e+00	
-35.9	0.000000e+00	0.000000e+00	
-34.8	0.000000e+00	0.000000e+00	
-33.8	0.000000e+00	0.000000e+00	
-32.8	0.000000e+00	0.000000e+00	
-31.8	0.000000e+00	0.000000e+00	
-30.8	0.000000e+00	0.000000e+00	
-29.8	0.000000e+00	0.000000e+00	
-28.8	0.000000e+00	0.000000e+00	
-27.8	0.000000e+00	0.000000e+00	
-26.8	0.000000e+00	0.000000e+00	
-25.8	0.000000e+00	0.000000e+00	
-24.7	0.000000e+00	0.000000e+00	
-23.7	0.000000e+00	0.000000e+00	
-22.7	0.000000e+00	0.000000e+00	
-21.7	0.000000e+00	0.000000e+00	
-20.7	0.000000e+00	0.000000e+00	
-19.7	0.000000e+00	0.000000e+00	
-18.7	0.000000e+00	0.000000e+00	
-17.7	0.000000e+00	0.000000e+00	
-16.7	0.000000e+00	0.000000e+00	
-15.7	0.000000e+00	0.000000e+00	
-14.6	0.000000e+00	0.000000e+00	
-13.6	0.000000e+00	0.000000e+00	
-12.6	0.000000e+00	1.213916e-23	
-11.6	0.000000e+00	9.184396e-23	
-10.6	0.000000e+00	6.882244e-22	
-9.6	0.000000e+00	5.105089e-21	
-8.6	0.000000e+00	3.746518e-20	
-7.6	0.000000e+00	2.718567e-19	
-6.6	0.000000e+00	1.949186e-18	
-5.6	0.000000e+00	1.379922e-17	
-4.5	0.000000e+00	9.638323e-17	
-3.5	0.000000e+00	6.636180e-16	
-2.5	0.000000e+00	4.499774e-15	
-1.5	0.000000e+00	3.001664e-14	
-0.5	0.000000e+00	1.967549e-13	
0.5	0.000000e+00	1.265659e-12	
1.5	0.000000e+00	7.978211e-12	
2.5	0.000000e+00	4.920212e-11	
3.5	0.000000e+00	2.963145e-10	
4.5	0.000000e+00	1.739029e-09	
5.6	0.000000e+00	9.922273e-09	
6.6	0.000000e+00	5.488808e-08	
7.6	0.000000e+00	2.934490e-07	
8.6	0.000000e+00	1.510675e-06	
9.6	0.000000e+00	7.456002e-06	
10.6	0.000000e+00	3.509880e-05	
11.6	0.000000e+00	1.566135e-04	
12.6	0.000000e+00	6.573934e-04	
13.6	0.000000e+00	2.571631e-03	
14.6	0.000000e+00	9.265205e-03	
15.7	0.000000e+00	3.028250e-02	
16.7	0.000000e+00	8.802609e-02	
17.7	0.000000e+00	2.216232e-01	
18.7	1.000000e+00	4.663224e-01	
19.7	1.000000e+00	7.826962e-01	
20.7	1.000000e+00	1.000000e+00	
21.7	1.000000e+00	1.000000e+00	
22.7	1.000000e+00	1.000000e+00	
23.7	1.000000e+00	1.000000e+00	
24.7	1.000000e+00	1.000000e+00	
25.8	1.000000e+00	1.000000e+00	
26.8	1.000000e+00	1.000000e+00	
27.8	1.000000e+00	1.000000e+00	
28.8	1.000000e+00	1.000000e+00	
29.8	1.000000e+00	1.000000e+00	
30.8	1.000000e+00	1.000000e+00	
31.8	1.000000e+00	1.000000e+00	
32.8	1.000000e+00	1.000000e+00	
33.8	1.000000e+00	1.000000e+00	
34.8	1.000000e+00	1.000000e+00	
35.9	1.000000e+00	1.000000e+00	
36.9	1.000000e+00	1.000000e+00	
37.9	1.000000e+00	1.000000e+00	
38.9	1.000000e+00	1.000000e+00	
39.9	1.000000e+00	1.000000e+00	
40.9	1.000000e+00	1.000000e+00	
41.9	1.000000e+00	1.000000e+00	
42.9	1.000000e+00	1.000000e+00	
43.9	1.000000e+00	1.000000e+00	
44.9	1.000000e+00	1.000000e+00	
46.0	1.000000e+00	1.000000e+00	
47.0	1.000000e+00	1.000000e+00	
48.0	1.000000e+00	1.000000e+00	
49.0	1.000000e+00	1.000000e+00	
50.0	1.000000e+00	1.000000e+00	
