-50.0	0.000000e+00	0.000000e+00	
-49.0	0.000000e+00	0.000000e+00	
-48.0	0.000000e+00	0.000000e+00	
-47.0	0.000000e+00	0.000000e+00	
-46.0	0.000000e+00	0.000000e+00	
-44.9	0.000000e+00	0.000000e+00	
-43.9	0.000000e+00	0.000000e+00	
-42.9	0.000000e+00	0.000000e+00	
-41.9	0.000000e+00	0.000000e+00	
-40.9	0.000000e+00	0.000000e+00	
-39.9	0.000000e+00	0.000000e+00	
-38.9	0.000000e+00	0.000000e+00	
-37.9	0.000000e+00	0.000000e+00	
-36.9	0.000000e+00	0.000000e+00	
-35.9	0.000000e+00	0.000000e+00	
-34.8	0.000000e+00	0.000000e+00	
-33.8	0.000000e+00	0.000000e+00	
-32.8	0.000000e+00	0.000000e+00	
-31.8	0.000000e+00	0.000000e+00	
-30.8	0.000000e+00	0.000000e+00	
-29.8	0.000000e+00	0.000000e+00	
-28.8	0.000000e+00	0.000000e+00	
-27.8	0.000000e+00	0.000000e+00	
-26.8	0.000000e+00	0.000000e+00	
-25.8	0.000000e+00	0.000000e+00	
-24.7	0.000000e+00	0.000000e+00	
-23.7	0.000000e+00	0.000000e+00	
-22.7	0.000000e+00	0.000000e+00	
-21.7	0.000000e+00	0.000000e+00	
-20.7	0.000000e+00	0.000000e+00	
-19.7	0.000000e+00	0.000000e+00	
-18.7	0.000000e+00	0.000000e+00	
-17.7	0.000000e+00	0.000000e+00	
-16.7	0.000000e+00	0.000000e+00	
-15.7	0.000000e+00	0.000000e+00	
-14.6	0.000000e+00	0.000000e+00	
-13.6	0.000000e+00	0.000000e+00	
-12.6	0.000000e+00	0.000000e+00	
-11.6	0.000000e+00	0.000000e+00	
-10.6	0.000000e+00	0.000000e+00	
-9.6	0.000000e+00	0.000000e+00	
-8.6	0.000000e+00	0.000000e+00	
-7.6	0.000000e+00	0.000000e+00	
-6.6	0.000000e+00	0.000000e+00	
-5.6	0.000000e+00	0.000000e+00	
-4.5	0.000000e+00	0.000000e+00	
-3.5	0.000000e+00	0.000000e+00	
-2.5	0.000000e+00	0.000000e+00	
-1.5	0.000000e+00	0.000000e+00	
-0.5	0.000000e+00	0.000000e+00	
0.5	0.000000e+00	1.559017e-55	
1.5	0.000000e+00	3.108816e-51	
2.5	0.000000e+00	2.927440e-47	
3.5	0.000000e+00	1.729672e-43	
4.5	0.000000e+00	7.185813e-40	
5.6	0.000000e+00	2.229047e-36	
6.6	0.000000e+00	5.350594e-33	
7.6	0.000000e+00	1.016208e-29	
8.6	0.000000e+00	1.548074e-26	
9.6	0.000000e+00	1.905753e-23	
10.6	0.000000e+00	1.900385e-20	
11.6	0.000000e+00	1.531413e-17	
12.6	0.000000e+00	9.899012e-15	
13.6	0.000000e+00	5.063223e-12	
14.6	0.000000e+00	2.004321e-09	
15.7	0.000000e+00	5.925960e-07	
16.7	0.000000e+00	1.232626e-04	
17.7	0.000000e+00	1.611034e-02	
18.7	1.000000e+00	1.000000e+00	
19.7	1.000000e+00	1.000000e+00	
20.7	1.000000e+00	1.000000e+00	
21.7	1.000000e+00	1.000000e+00	
22.7	1.000000e+00	1.000000e+00	
23.7	1.000000e+00	1.000000e+00	
24.7	1.000000e+00	1.000000e+00	
25.8	1.000000e+00	1.000000e+00	
26.8	1.000000e+00	1.000000e+00	
27.8	1.000000e+00	1.000000e+00	
28.8	1.000000e+00	1.000000e+00	
29.8	1.000000e+00	1.000000e+00	
30.8	1.000000e+00	1.000000e+00	
31.8	1.000000e+00	1.000000e+00	
32.8	1.000000e+00	1.000000e+00	
33.8	1.000000e+00	1.000000e+00	
34.8	1.000000e+00	1.000000e+00	
35.9	1.000000e+00	1.000000e+00	
36.9	1.000000e+00	1.000000e+00	
37.9	1.000000e+00	1.000000e+00	
38.9	1.000000e+00	1.000000e+00	
39.9	1.000000e+00	1.000000e+00	
40.9	1.000000e+00	1.000000e+00	
41.9	1.000000e+00	1.000000e+00	
42.9	1.000000e+00	1.000000e+00	
43.9	1.000000e+00	1.000000e+00	
44.9	1.000000e+00	1.000000e+00	
46.0	1.000000e+00	1.000000e+00	
47.0	1.000000e+00	1.000000e+00	
48.0	1.000000e+00	1.000000e+00	
49.0	1.000000e+00	1.000000e+00	
50.0	1.000000e+00	1.000000e+00	
