-50.0	0.000000e+00	0.000000e+00	
-49.0	0.000000e+00	0.000000e+00	
-48.0	0.000000e+00	0.000000e+00	
-47.0	0.000000e+00	0.000000e+00	
-46.0	0.000000e+00	0.000000e+00	
-44.9	0.000000e+00	0.000000e+00	
-43.9	0.000000e+00	0.000000e+00	
-42.9	0.000000e+00	0.000000e+00	
-41.9	0.000000e+00	0.000000e+00	
-40.9	0.000000e+00	0.000000e+00	
-39.9	0.000000e+00	0.000000e+00	
-38.9	0.000000e+00	0.000000e+00	
-37.9	0.000000e+00	0.000000e+00	
-36.9	0.000000e+00	0.000000e+00	
-35.9	0.000000e+00	0.000000e+00	
-34.8	0.000000e+00	0.000000e+00	
-33.8	0.000000e+00	0.000000e+00	
-32.8	0.000000e+00	0.000000e+00	
-31.8	0.000000e+00	0.000000e+00	
-30.8	0.000000e+00	0.000000e+00	
-29.8	0.000000e+00	0.000000e+00	
-28.8	0.000000e+00	0.000000e+00	
-27.8	0.000000e+00	0.000000e+00	
-26.8	0.000000e+00	0.000000e+00	
-25.8	0.000000e+00	0.000000e+00	
-24.7	0.000000e+00	0.000000e+00	
-23.7	0.000000e+00	0.000000e+00	
-22.7	0.000000e+00	0.000000e+00	
-21.7	0.000000e+00	0.000000e+00	
-20.7	0.000000e+00	0.000000e+00	
-19.7	0.000000e+00	0.000000e+00	
-18.7	0.000000e+00	0.000000e+00	
-17.7	0.000000e+00	0.000000e+00	
-16.7	0.000000e+00	0.000000e+00	
-15.7	0.000000e+00	0.000000e+00	
-14.6	0.000000e+00	0.000000e+00	
-13.6	0.000000e+00	0.000000e+00	
-12.6	0.000000e+00	0.000000e+00	
-11.6	0.000000e+00	1.040191e-111	
-10.6	0.000000e+00	6.526085e-108	
-9.6	0.000000e+00	4.046647e-104	
-8.6	0.000000e+00	2.478305e-100	
-7.6	0.000000e+00	1.498027e-96	
-6.6	0.000000e+00	8.929969e-93	
-5.6	0.000000e+00	5.245348e-89	
-4.5	0.000000e+00	3.033085e-85	
-3.5	0.000000e+00	1.724771e-81	
-2.5	0.000000e+00	9.634277e-78	
-1.5	0.000000e+00	5.279552e-74	
-0.5	0.000000e+00	2.834345e-70	
0.5	0.000000e+00	1.488337e-66	
1.5	0.000000e+00	7.630845e-63	
2.5	0.000000e+00	3.812393e-59	
3.5	0.000000e+00	1.851776e-55	
4.5	0.000000e+00	8.721993e-52	
5.6	0.000000e+00	3.971719e-48	
6.6	0.000000e+00	1.742476e-44	
7.6	0.000000e+00	7.335192e-41	
8.6	0.000000e+00	2.948614e-37	
9.6	0.000000e+00	1.125322e-33	
10.6	0.000000e+00	4.048911e-30	
11.6	0.000000e+00	1.361552e-26	
12.6	0.000000e+00	4.232657e-23	
13.6	0.000000e+00	1.199311e-19	
14.6	0.000000e+00	3.039427e-16	
15.7	0.000000e+00	6.710930e-13	
16.7	0.000000e+00	1.241880e-09	
17.7	0.000000e+00	1.809892e-06	
18.7	0.000000e+00	1.851289e-03	
19.7	1.000000e+00	1.000000e+00	
20.7	1.000000e+00	1.000000e+00	
21.7	1.000000e+00	1.000000e+00	
22.7	1.000000e+00	1.000000e+00	
23.7	1.000000e+00	1.000000e+00	
24.7	1.000000e+00	1.000000e+00	
25.8	1.000000e+00	1.000000e+00	
26.8	1.000000e+00	1.000000e+00	
27.8	1.000000e+00	1.000000e+00	
28.8	1.000000e+00	1.000000e+00	
29.8	1.000000e+00	1.000000e+00	
30.8	1.000000e+00	1.000000e+00	
31.8	1.000000e+00	1.000000e+00	
32.8	1.000000e+00	1.000000e+00	
33.8	1.000000e+00	1.000000e+00	
34.8	1.000000e+00	1.000000e+00	
35.9	1.000000e+00	1.000000e+00	
36.9	1.000000e+00	1.000000e+00	
37.9	1.000000e+00	1.000000e+00	
38.9	1.000000e+00	1.000000e+00	
39.9	1.000000e+00	1.000000e+00	
40.9	1.000000e+00	1.000000e+00	
41.9	1.000000e+00	1.000000e+00	
42.9	1.000000e+00	1.000000e+00	
43.9	1.000000e+00	1.000000e+00	
44.9	1.000000e+00	1.000000e+00	
46.0	1.000000e+00	1.000000e+00	
47.0	1.000000e+00	1.000000e+00	
48.0	1.000000e+00	1.000000e+00	
49.0	1.000000e+00	1.000000e+00	
50.0	1.000000e+00	1.000000e+00	
