-50.0	0.000000e+00	0.000000e+00	
-49.0	0.000000e+00	0.000000e+00	
-48.0	0.000000e+00	0.000000e+00	
-47.0	0.000000e+00	0.000000e+00	
-46.0	0.000000e+00	0.000000e+00	
-44.9	0.000000e+00	0.000000e+00	
-43.9	0.000000e+00	0.000000e+00	
-42.9	0.000000e+00	0.000000e+00	
-41.9	0.000000e+00	0.000000e+00	
-40.9	0.000000e+00	0.000000e+00	
-39.9	0.000000e+00	0.000000e+00	
-38.9	0.000000e+00	0.000000e+00	
-37.9	0.000000e+00	0.000000e+00	
-36.9	0.000000e+00	0.000000e+00	
-35.9	0.000000e+00	0.000000e+00	
-34.8	0.000000e+00	0.000000e+00	
-33.8	0.000000e+00	0.000000e+00	
-32.8	0.000000e+00	0.000000e+00	
-31.8	0.000000e+00	0.000000e+00	
-30.8	0.000000e+00	0.000000e+00	
-29.8	0.000000e+00	0.000000e+00	
-28.8	0.000000e+00	0.000000e+00	
-27.8	0.000000e+00	0.000000e+00	
-26.8	0.000000e+00	0.000000e+00	
-25.8	0.000000e+00	0.000000e+00	
-24.7	0.000000e+00	-3.375308e-25	
-23.7	0.000000e+00	4.064599e-23	
-22.7	0.000000e+00	-2.300141e-21	
-21.7	0.000000e+00	8.106699e-20	
-20.7	0.000000e+00	-1.986682e-18	
-19.7	0.000000e+00	3.575108e-17	
-18.7	0.000000e+00	-4.853496e-16	
-17.7	0.000000e+00	5.009173e-15	
-16.7	0.000000e+00	-3.878931e-14	
-15.7	0.000000e+00	2.142221e-13	
-14.6	0.000000e+00	-7.092401e-13	
-13.6	0.000000e+00	6.150021e-14	
-12.6	0.000000e+00	1.314209e-11	
-11.6	0.000000e+00	-6.349466e-11	
-10.6	0.000000e+00	5.429998e-11	
-9.6	0.000000e+00	7.062506e-10	
-8.6	0.000000e+00	-2.775057e-09	
-7.6	0.000000e+00	-1.431776e-09	
-6.6	0.000000e+00	3.294152e-08	
-5.6	0.000000e+00	-4.178931e-08	
-4.5	0.000000e+00	-2.446372e-07	
-3.5	0.000000e+00	6.152328e-07	
-2.5	0.000000e+00	1.423794e-06	
-1.5	0.000000e+00	-5.233795e-06	
-0.5	0.000000e+00	-7.886135e-06	
0.5	0.000000e+00	3.338455e-05	
1.5	0.000000e+00	4.841852e-05	
2.5	0.000000e+00	-1.654791e-04	
3.5	0.000000e+00	-3.127260e-04	
4.5	0.000000e+00	5.748608e-04	
5.6	0.000000e+00	1.761703e-03	
6.6	0.000000e+00	-7.166711e-04	
7.6	0.000000e+00	-7.178163e-03	
8.6	0.000000e+00	-5.746889e-03	
9.6	0.000000e+00	1.527845e-02	
10.6	0.000000e+00	3.759668e-02	
11.6	0.000000e+00	1.473990e-02	
12.6	0.000000e+00	-6.954917e-02	
13.6	0.000000e+00	-1.510958e-01	
14.6	0.000000e+00	-1.238606e-01	
15.7	0.000000e+00	6.110327e-02	
16.7	0.000000e+00	3.483481e-01	
17.7	0.000000e+00	6.301966e-01	
18.7	1.000000e+00	8.306121e-01	
19.7	1.000000e+00	9.383497e-01	
20.7	1.000000e+00	9.825746e-01	
21.7	1.000000e+00	9.963097e-01	
22.7	1.000000e+00	9.994486e-01	
23.7	1.000000e+00	9.999481e-01	
24.7	1.000000e+00	9.999977e-01	
25.8	1.000000e+00	1.000000e+00	
26.8	1.000000e+00	1.000000e+00	
27.8	1.000000e+00	1.000000e+00	
28.8	1.000000e+00	1.000000e+00	
29.8	1.000000e+00	1.000000e+00	
30.8	1.000000e+00	1.000000e+00	
31.8	1.000000e+00	1.000000e+00	
32.8	1.000000e+00	1.000000e+00	
33.8	1.000000e+00	1.000000e+00	
34.8	1.000000e+00	1.000000e+00	
35.9	1.000000e+00	1.000000e+00	
36.9	1.000000e+00	1.000000e+00	
37.9	1.000000e+00	1.000000e+00	
38.9	1.000000e+00	1.000000e+00	
39.9	1.000000e+00	1.000000e+00	
40.9	1.000000e+00	1.000000e+00	
41.9	1.000000e+00	1.000000e+00	
42.9	1.000000e+00	1.000000e+00	
43.9	1.000000e+00	1.000000e+00	
44.9	1.000000e+00	1.000000e+00	
46.0	1.000000e+00	1.000000e+00	
47.0	1.000000e+00	1.000000e+00	
48.0	1.000000e+00	1.000000e+00	
49.0	1.000000e+00	1.000000e+00	
50.0	1.000000e+00	1.000000e+00	
