-50.0	0.000000e+00	0.000000e+00	
-49.0	0.000000e+00	0.000000e+00	
-48.0	0.000000e+00	0.000000e+00	
-47.0	0.000000e+00	0.000000e+00	
-46.0	0.000000e+00	0.000000e+00	
-44.9	0.000000e+00	0.000000e+00	
-43.9	0.000000e+00	0.000000e+00	
-42.9	0.000000e+00	0.000000e+00	
-41.9	0.000000e+00	0.000000e+00	
-40.9	0.000000e+00	0.000000e+00	
-39.9	0.000000e+00	0.000000e+00	
-38.9	0.000000e+00	0.000000e+00	
-37.9	0.000000e+00	0.000000e+00	
-36.9	0.000000e+00	0.000000e+00	
-35.9	0.000000e+00	0.000000e+00	
-34.8	0.000000e+00	0.000000e+00	
-33.8	0.000000e+00	0.000000e+00	
-32.8	0.000000e+00	0.000000e+00	
-31.8	0.000000e+00	0.000000e+00	
-30.8	0.000000e+00	0.000000e+00	
-29.8	0.000000e+00	0.000000e+00	
-28.8	0.000000e+00	0.000000e+00	
-27.8	0.000000e+00	0.000000e+00	
-26.8	0.000000e+00	0.000000e+00	
-25.8	0.000000e+00	0.000000e+00	
-24.7	0.000000e+00	0.000000e+00	
-23.7	0.000000e+00	0.000000e+00	
-22.7	0.000000e+00	0.000000e+00	
-21.7	0.000000e+00	0.000000e+00	
-20.7	0.000000e+00	0.000000e+00	
-19.7	0.000000e+00	0.000000e+00	
-18.7	0.000000e+00	0.000000e+00	
-17.7	0.000000e+00	5.851368e-61	
-16.7	0.000000e+00	-4.156373e-59	
-15.7	0.000000e+00	-2.195349e-56	
-14.6	0.000000e+00	1.535667e-54	
-13.6	0.000000e+00	3.909946e-52	
-12.6	0.000000e+00	-2.675960e-50	
-11.6	0.000000e+00	-4.395356e-48	
-10.6	0.000000e+00	2.920875e-46	
-9.6	0.000000e+00	3.497259e-44	
-8.6	0.000000e+00	-2.236768e-42	
-7.6	0.000000e+00	-2.092929e-40	
-6.6	0.000000e+00	1.275296e-38	
-5.6	0.000000e+00	9.768822e-37	
-4.5	0.000000e+00	-5.605646e-35	
-3.5	0.000000e+00	-3.638027e-33	
-2.5	0.000000e+00	1.940234e-31	
-1.5	0.000000e+00	1.096264e-29	
-0.5	0.000000e+00	-5.353201e-28	
0.5	0.000000e+00	-2.693506e-26	
1.5	0.000000e+00	1.183923e-24	
2.5	0.000000e+00	5.409069e-23	
3.5	0.000000e+00	-2.098439e-21	
4.5	0.000000e+00	-8.856035e-20	
5.6	0.000000e+00	2.962898e-18	
6.6	0.000000e+00	1.173006e-16	
7.6	0.000000e+00	-3.290000e-15	
8.6	0.000000e+00	-1.239307e-13	
9.6	0.000000e+00	2.809935e-12	
10.6	0.000000e+00	1.020856e-10	
11.6	0.000000e+00	-1.779103e-09	
12.6	0.000000e+00	-6.321901e-08	
13.6	0.000000e+00	7.831577e-07	
14.6	0.000000e+00	2.769365e-05	
15.7	0.000000e+00	-2.108662e-04	
16.7	0.000000e+00	-7.649481e-03	
17.7	0.000000e+00	2.406613e-02	
18.7	1.000000e+00	1.000000e+00	
19.7	1.000000e+00	1.000000e+00	
20.7	1.000000e+00	1.000000e+00	
21.7	1.000000e+00	1.000000e+00	
22.7	1.000000e+00	1.000000e+00	
23.7	1.000000e+00	1.000000e+00	
24.7	1.000000e+00	1.000000e+00	
25.8	1.000000e+00	1.000000e+00	
26.8	1.000000e+00	1.000000e+00	
27.8	1.000000e+00	1.000000e+00	
28.8	1.000000e+00	1.000000e+00	
29.8	1.000000e+00	1.000000e+00	
30.8	1.000000e+00	1.000000e+00	
31.8	1.000000e+00	1.000000e+00	
32.8	1.000000e+00	1.000000e+00	
33.8	1.000000e+00	1.000000e+00	
34.8	1.000000e+00	1.000000e+00	
35.9	1.000000e+00	1.000000e+00	
36.9	1.000000e+00	1.000000e+00	
37.9	1.000000e+00	1.000000e+00	
38.9	1.000000e+00	1.000000e+00	
39.9	1.000000e+00	1.000000e+00	
40.9	1.000000e+00	1.000000e+00	
41.9	1.000000e+00	1.000000e+00	
42.9	1.000000e+00	1.000000e+00	
43.9	1.000000e+00	1.000000e+00	
44.9	1.000000e+00	1.000000e+00	
46.0	1.000000e+00	1.000000e+00	
47.0	1.000000e+00	1.000000e+00	
48.0	1.000000e+00	1.000000e+00	
49.0	1.000000e+00	1.000000e+00	
50.0	1.000000e+00	1.000000e+00	
