-50.0	0.000000e+00	0.000000e+00	
-49.0	0.000000e+00	-1.761525e-30	
-48.0	0.000000e+00	2.572292e-29	
-47.0	0.000000e+00	-3.603757e-28	
-46.0	0.000000e+00	4.814764e-27	
-44.9	0.000000e+00	-6.134868e-26	
-43.9	0.000000e+00	7.454707e-25	
-42.9	0.000000e+00	-8.637925e-24	
-41.9	0.000000e+00	9.542743e-23	
-40.9	0.000000e+00	-1.004907e-21	
-39.9	0.000000e+00	1.008421e-20	
-38.9	0.000000e+00	-9.639753e-20	
-37.9	0.000000e+00	8.774259e-19	
-36.9	0.000000e+00	-7.600695e-18	
-35.9	0.000000e+00	6.262320e-17	
-34.8	0.000000e+00	-4.904070e-16	
-33.8	0.000000e+00	3.647316e-15	
-32.8	0.000000e+00	-2.573903e-14	
-31.8	0.000000e+00	1.721726e-13	
-30.8	0.000000e+00	-1.090379e-12	
-29.8	0.000000e+00	6.529047e-12	
-28.8	0.000000e+00	-3.690747e-11	
-27.8	0.000000e+00	1.966107e-10	
-26.8	0.000000e+00	-9.850274e-10	
-25.8	0.000000e+00	4.630384e-09	
-24.7	0.000000e+00	-2.036665e-08	
-23.7	0.000000e+00	8.354968e-08	
-22.7	0.000000e+00	-3.184209e-07	
-21.7	0.000000e+00	1.122091e-06	
-20.7	0.000000e+00	-3.634583e-06	
-19.7	0.000000e+00	1.073951e-05	
-18.7	0.000000e+00	-2.865649e-05	
-17.7	0.000000e+00	6.807572e-05	
-16.7	0.000000e+00	-1.409025e-04	
-15.7	0.000000e+00	2.449095e-04	
-14.6	0.000000e+00	-3.310469e-04	
-13.6	0.000000e+00	2.724417e-04	
-12.6	0.000000e+00	9.332857e-05	
-11.6	0.000000e+00	-7.532331e-04	
-10.6	0.000000e+00	1.204189e-03	
-9.6	0.000000e+00	-5.184397e-04	
-8.6	0.000000e+00	-1.557550e-03	
-7.6	0.000000e+00	3.035708e-03	
-6.6	0.000000e+00	-6.053429e-04	
-5.6	0.000000e+00	-4.910728e-03	
-4.5	0.000000e+00	5.130395e-03	
-3.5	0.000000e+00	5.108688e-03	
-2.5	0.000000e+00	-1.137563e-02	
-1.5	0.000000e+00	-4.359673e-03	
-0.5	0.000000e+00	1.955999e-02	
0.5	0.000000e+00	5.494716e-03	
1.5	0.000000e+00	-3.038606e-02	
2.5	0.000000e+00	-1.459904e-02	
3.5	0.000000e+00	4.104149e-02	
4.5	0.000000e+00	4.093158e-02	
5.6	0.000000e+00	-3.533181e-02	
6.6	0.000000e+00	-8.438334e-02	
7.6	0.000000e+00	-2.215703e-02	
8.6	0.000000e+00	9.559677e-02	
9.6	0.000000e+00	1.355565e-01	
10.6	0.000000e+00	3.618558e-02	
11.6	0.000000e+00	-1.331932e-01	
12.6	0.000000e+00	-2.430785e-01	
13.6	0.000000e+00	-2.082034e-01	
14.6	0.000000e+00	-3.193940e-02	
15.7	0.000000e+00	2.204034e-01	
16.7	0.000000e+00	4.739652e-01	
17.7	1.000000e+00	6.799883e-01	
18.7	1.000000e+00	8.230399e-01	
19.7	1.000000e+00	9.104336e-01	
20.7	1.000000e+00	9.582653e-01	
21.7	1.000000e+00	9.820088e-01	
22.7	1.000000e+00	9.927950e-01	
23.7	1.000000e+00	9.973099e-01	
24.7	1.000000e+00	9.990607e-01	
25.8	1.000000e+00	9.996925e-01	
26.8	1.000000e+00	9.999054e-01	
27.8	1.000000e+00	9.999726e-01	
28.8	1.000000e+00	9.999925e-01	
29.8	1.000000e+00	9.999981e-01	
30.8	1.000000e+00	9.999995e-01	
31.8	1.000000e+00	9.999999e-01	
32.8	1.000000e+00	1.000000e+00	
33.8	1.000000e+00	1.000000e+00	
34.8	1.000000e+00	1.000000e+00	
35.9	1.000000e+00	1.000000e+00	
36.9	1.000000e+00	1.000000e+00	
37.9	1.000000e+00	1.000000e+00	
38.9	1.000000e+00	1.000000e+00	
39.9	1.000000e+00	1.000000e+00	
40.9	1.000000e+00	1.000000e+00	
41.9	1.000000e+00	1.000000e+00	
42.9	1.000000e+00	1.000000e+00	
43.9	1.000000e+00	1.000000e+00	
44.9	1.000000e+00	1.000000e+00	
46.0	1.000000e+00	1.000000e+00	
47.0	1.000000e+00	1.000000e+00	
48.0	1.000000e+00	1.000000e+00	
49.0	1.000000e+00	1.000000e+00	
50.0	1.000000e+00	1.000000e+00	
