-50.0	0.000000e+00	0.000000e+00	
-49.0	0.000000e+00	0.000000e+00	
-48.0	0.000000e+00	0.000000e+00	
-47.0	0.000000e+00	0.000000e+00	
-46.0	0.000000e+00	0.000000e+00	
-44.9	0.000000e+00	0.000000e+00	
-43.9	0.000000e+00	0.000000e+00	
-42.9	0.000000e+00	0.000000e+00	
-41.9	0.000000e+00	0.000000e+00	
-40.9	0.000000e+00	0.000000e+00	
-39.9	0.000000e+00	0.000000e+00	
-38.9	0.000000e+00	0.000000e+00	
-37.9	0.000000e+00	0.000000e+00	
-36.9	0.000000e+00	0.000000e+00	
-35.9	0.000000e+00	0.000000e+00	
-34.8	0.000000e+00	0.000000e+00	
-33.8	0.000000e+00	0.000000e+00	
-32.8	0.000000e+00	0.000000e+00	
-31.8	0.000000e+00	0.000000e+00	
-30.8	0.000000e+00	0.000000e+00	
-29.8	0.000000e+00	3.762203e-141	
-28.8	0.000000e+00	2.976213e-137	
-27.8	0.000000e+00	2.341706e-133	
-26.8	0.000000e+00	1.831975e-129	
-25.8	0.000000e+00	1.424582e-125	
-24.7	0.000000e+00	1.100741e-121	
-23.7	0.000000e+00	8.447910e-118	
-22.7	0.000000e+00	6.437261e-114	
-21.7	0.000000e+00	4.867938e-110	
-20.7	0.000000e+00	3.651459e-106	
-19.7	0.000000e+00	2.715370e-102	
-18.7	0.000000e+00	2.000653e-98	
-17.7	0.000000e+00	1.459505e-94	
-16.7	3.507788e-312	1.053438e-90	
-15.7	3.855298e-289	7.516622e-87	
-14.6	5.506274e-267	5.297172e-83	
-13.6	1.021957e-245	3.683151e-79	
-12.6	2.464807e-225	2.523686e-75	
-11.6	7.725174e-206	1.701794e-71	
-10.6	3.146362e-187	1.127624e-67	
-9.6	1.665269e-169	7.328859e-64	
-8.6	1.145342e-152	4.662582e-60	
-7.6	1.023673e-136	2.896584e-56	
-6.6	1.188946e-121	1.752173e-52	
-5.6	1.794479e-107	1.028543e-48	
-4.5	3.519573e-94	5.835004e-45	
-3.5	8.970498e-82	3.183147e-41	
-2.5	2.971107e-70	1.659471e-37	
-1.5	1.278778e-59	8.203029e-34	
-0.5	7.152326e-50	3.806127e-30	
0.5	5.198458e-41	1.635706e-26	
1.5	4.909949e-33	6.393805e-23	
2.5	6.026353e-26	2.215682e-19	
3.5	9.611856e-20	6.552515e-16	
4.5	1.992210e-14	1.556656e-12	
5.6	5.365846e-10	2.672544e-09	
6.6	1.878090e-06	2.674967e-06	
7.6	8.542202e-04	8.961903e-04	
8.6	5.048919e-02	5.065841e-02	
9.6	3.877949e-01	3.874286e-01	
10.6	3.870624e-01	3.871166e-01	
11.6	5.020361e-02	5.030040e-02	
12.6	8.461828e-04	8.494071e-04	
13.6	1.853397e-06	1.863977e-06	
14.6	5.275311e-10	5.315464e-10	
15.7	1.951204e-14	1.969777e-14	
16.7	9.378482e-20	9.485668e-20	
17.7	5.857841e-26	5.936002e-26	
18.7	4.754641e-33	4.827201e-33	
19.7	5.015024e-41	5.101194e-41	
20.7	6.873905e-50	7.005247e-50	
21.7	1.224360e-59	1.250116e-59	
22.7	2.833936e-70	2.899026e-70	
23.7	8.524050e-82	8.736335e-82	
24.7	3.331786e-94	3.421224e-94	
25.8	1.692324e-107	1.741041e-107	
26.8	1.117030e-121	1.151361e-121	
27.8	9.581235e-137	9.894396e-137	
28.8	1.067956e-152	1.104949e-152	
29.8	1.546893e-169	1.603505e-169	
30.8	2.911671e-187	3.023942e-187	
31.8	7.121961e-206	7.410575e-206	
32.8	2.263769e-225	2.359965e-225	
33.8	9.350603e-246	9.766393e-246	
34.8	5.019060e-267	5.252162e-267	
35.9	3.500905e-289	3.670432e-289	
36.9	3.173316e-312	3.333277e-312	
37.9	0.000000e+00	0.000000e+00	
38.9	0.000000e+00	0.000000e+00	
39.9	0.000000e+00	0.000000e+00	
40.9	0.000000e+00	0.000000e+00	
41.9	0.000000e+00	0.000000e+00	
42.9	0.000000e+00	0.000000e+00	
43.9	0.000000e+00	0.000000e+00	
44.9	0.000000e+00	0.000000e+00	
46.0	0.000000e+00	0.000000e+00	
47.0	0.000000e+00	0.000000e+00	
48.0	0.000000e+00	0.000000e+00	
49.0	0.000000e+00	0.000000e+00	
50.0	0.000000e+00	0.000000e+00	
