-50.0	0.000000e+00	0.000000e+00	
-49.9	0.000000e+00	0.000000e+00	
-49.8	0.000000e+00	0.000000e+00	
-49.7	0.000000e+00	0.000000e+00	
-49.6	0.000000e+00	0.000000e+00	
-49.5	0.000000e+00	0.000000e+00	
-49.4	0.000000e+00	0.000000e+00	
-49.3	0.000000e+00	0.000000e+00	
-49.2	0.000000e+00	0.000000e+00	
-49.1	0.000000e+00	0.000000e+00	
-49.0	0.000000e+00	0.000000e+00	
-48.9	0.000000e+00	0.000000e+00	
-48.8	0.000000e+00	0.000000e+00	
-48.7	0.000000e+00	0.000000e+00	
-48.6	0.000000e+00	0.000000e+00	
-48.5	0.000000e+00	0.000000e+00	
-48.4	0.000000e+00	0.000000e+00	
-48.3	0.000000e+00	0.000000e+00	
-48.2	0.000000e+00	0.000000e+00	
-48.1	0.000000e+00	0.000000e+00	
-48.0	0.000000e+00	0.000000e+00	
-47.9	0.000000e+00	0.000000e+00	
-47.8	0.000000e+00	0.000000e+00	
-47.7	0.000000e+00	0.000000e+00	
-47.6	0.000000e+00	0.000000e+00	
-47.5	0.000000e+00	0.000000e+00	
-47.4	0.000000e+00	0.000000e+00	
-47.3	0.000000e+00	0.000000e+00	
-47.2	0.000000e+00	0.000000e+00	
-47.1	0.000000e+00	0.000000e+00	
-47.0	0.000000e+00	0.000000e+00	
-46.9	0.000000e+00	0.000000e+00	
-46.8	0.000000e+00	0.000000e+00	
-46.7	0.000000e+00	0.000000e+00	
-46.6	0.000000e+00	0.000000e+00	
-46.5	0.000000e+00	0.000000e+00	
-46.4	0.000000e+00	0.000000e+00	
-46.3	0.000000e+00	0.000000e+00	
-46.2	0.000000e+00	0.000000e+00	
-46.1	0.000000e+00	0.000000e+00	
-46.0	0.000000e+00	0.000000e+00	
-45.9	0.000000e+00	0.000000e+00	
-45.8	0.000000e+00	0.000000e+00	
-45.7	0.000000e+00	0.000000e+00	
-45.6	0.000000e+00	0.000000e+00	
-45.5	0.000000e+00	0.000000e+00	
-45.4	0.000000e+00	0.000000e+00	
-45.3	0.000000e+00	0.000000e+00	
-45.2	0.000000e+00	0.000000e+00	
-45.1	0.000000e+00	0.000000e+00	
-45.0	0.000000e+00	0.000000e+00	
-44.9	0.000000e+00	0.000000e+00	
-44.8	0.000000e+00	0.000000e+00	
-44.7	0.000000e+00	0.000000e+00	
-44.6	0.000000e+00	0.000000e+00	
-44.5	0.000000e+00	0.000000e+00	
-44.4	0.000000e+00	0.000000e+00	
-44.3	0.000000e+00	0.000000e+00	
-44.2	0.000000e+00	0.000000e+00	
-44.1	0.000000e+00	0.000000e+00	
-44.0	0.000000e+00	0.000000e+00	
-43.9	0.000000e+00	0.000000e+00	
-43.8	0.000000e+00	0.000000e+00	
-43.7	0.000000e+00	0.000000e+00	
-43.6	0.000000e+00	0.000000e+00	
-43.5	0.000000e+00	0.000000e+00	
-43.4	0.000000e+00	0.000000e+00	
-43.3	0.000000e+00	0.000000e+00	
-43.2	0.000000e+00	0.000000e+00	
-43.1	0.000000e+00	0.000000e+00	
-43.0	0.000000e+00	0.000000e+00	
-42.9	0.000000e+00	0.000000e+00	
-42.8	0.000000e+00	0.000000e+00	
-42.7	0.000000e+00	0.000000e+00	
-42.6	0.000000e+00	0.000000e+00	
-42.5	0.000000e+00	0.000000e+00	
-42.4	0.000000e+00	0.000000e+00	
-42.3	0.000000e+00	0.000000e+00	
-42.2	0.000000e+00	0.000000e+00	
-42.1	0.000000e+00	0.000000e+00	
-42.0	0.000000e+00	0.000000e+00	
-41.9	0.000000e+00	0.000000e+00	
-41.8	0.000000e+00	0.000000e+00	
-41.7	0.000000e+00	0.000000e+00	
-41.6	0.000000e+00	0.000000e+00	
-41.5	0.000000e+00	0.000000e+00	
-41.4	0.000000e+00	0.000000e+00	
-41.3	0.000000e+00	0.000000e+00	
-41.2	0.000000e+00	0.000000e+00	
-41.1	0.000000e+00	0.000000e+00	
-41.0	0.000000e+00	0.000000e+00	
-40.9	0.000000e+00	0.000000e+00	
-40.8	0.000000e+00	0.000000e+00	
-40.7	0.000000e+00	0.000000e+00	
-40.6	0.000000e+00	0.000000e+00	
-40.5	0.000000e+00	0.000000e+00	
-40.4	0.000000e+00	0.000000e+00	
-40.3	0.000000e+00	0.000000e+00	
-40.2	0.000000e+00	0.000000e+00	
-40.1	0.000000e+00	0.000000e+00	
-40.0	0.000000e+00	0.000000e+00	
-39.9	0.000000e+00	0.000000e+00	
-39.8	0.000000e+00	0.000000e+00	
-39.7	0.000000e+00	0.000000e+00	
-39.6	0.000000e+00	0.000000e+00	
-39.5	0.000000e+00	0.000000e+00	
-39.4	0.000000e+00	0.000000e+00	
-39.3	0.000000e+00	0.000000e+00	
-39.2	0.000000e+00	0.000000e+00	
-39.1	0.000000e+00	0.000000e+00	
-39.0	0.000000e+00	0.000000e+00	
-38.9	0.000000e+00	0.000000e+00	
-38.8	0.000000e+00	0.000000e+00	
-38.7	0.000000e+00	0.000000e+00	
-38.6	0.000000e+00	0.000000e+00	
-38.5	0.000000e+00	0.000000e+00	
-38.4	0.000000e+00	0.000000e+00	
-38.3	0.000000e+00	0.000000e+00	
-38.2	0.000000e+00	0.000000e+00	
-38.1	0.000000e+00	0.000000e+00	
-38.0	0.000000e+00	0.000000e+00	
-37.9	0.000000e+00	0.000000e+00	
-37.8	0.000000e+00	0.000000e+00	
-37.7	0.000000e+00	0.000000e+00	
-37.6	0.000000e+00	0.000000e+00	
-37.5	0.000000e+00	0.000000e+00	
-37.4	0.000000e+00	0.000000e+00	
-37.3	0.000000e+00	0.000000e+00	
-37.2	0.000000e+00	0.000000e+00	
-37.1	0.000000e+00	0.000000e+00	
-37.0	0.000000e+00	0.000000e+00	
-36.9	0.000000e+00	0.000000e+00	
-36.8	0.000000e+00	0.000000e+00	
-36.7	0.000000e+00	0.000000e+00	
-36.6	0.000000e+00	0.000000e+00	
-36.5	0.000000e+00	0.000000e+00	
-36.4	0.000000e+00	0.000000e+00	
-36.3	0.000000e+00	0.000000e+00	
-36.2	0.000000e+00	0.000000e+00	
-36.1	0.000000e+00	0.000000e+00	
-36.0	0.000000e+00	0.000000e+00	
-35.9	0.000000e+00	0.000000e+00	
-35.8	0.000000e+00	0.000000e+00	
-35.7	0.000000e+00	0.000000e+00	
-35.6	0.000000e+00	0.000000e+00	
-35.5	0.000000e+00	0.000000e+00	
-35.4	0.000000e+00	0.000000e+00	
-35.3	0.000000e+00	0.000000e+00	
-35.2	0.000000e+00	0.000000e+00	
-35.1	0.000000e+00	0.000000e+00	
-35.0	0.000000e+00	0.000000e+00	
-34.9	0.000000e+00	0.000000e+00	
-34.8	0.000000e+00	0.000000e+00	
-34.7	0.000000e+00	0.000000e+00	
-34.6	0.000000e+00	0.000000e+00	
-34.5	0.000000e+00	0.000000e+00	
-34.4	0.000000e+00	0.000000e+00	
-34.3	0.000000e+00	0.000000e+00	
-34.2	0.000000e+00	0.000000e+00	
-34.1	0.000000e+00	0.000000e+00	
-34.0	0.000000e+00	0.000000e+00	
-33.9	0.000000e+00	0.000000e+00	
-33.8	0.000000e+00	0.000000e+00	
-33.7	0.000000e+00	0.000000e+00	
-33.6	0.000000e+00	0.000000e+00	
-33.5	0.000000e+00	0.000000e+00	
-33.4	0.000000e+00	0.000000e+00	
-33.3	0.000000e+00	0.000000e+00	
-33.2	0.000000e+00	0.000000e+00	
-33.1	0.000000e+00	0.000000e+00	
-33.0	0.000000e+00	0.000000e+00	
-32.9	0.000000e+00	0.000000e+00	
-32.8	0.000000e+00	0.000000e+00	
-32.7	0.000000e+00	0.000000e+00	
-32.6	0.000000e+00	0.000000e+00	
-32.5	0.000000e+00	0.000000e+00	
-32.4	0.000000e+00	0.000000e+00	
-32.3	0.000000e+00	0.000000e+00	
-32.2	0.000000e+00	0.000000e+00	
-32.1	0.000000e+00	0.000000e+00	
-32.0	0.000000e+00	0.000000e+00	
-31.9	0.000000e+00	0.000000e+00	
-31.8	0.000000e+00	0.000000e+00	
-31.7	0.000000e+00	0.000000e+00	
-31.6	0.000000e+00	0.000000e+00	
-31.5	0.000000e+00	0.000000e+00	
-31.4	0.000000e+00	0.000000e+00	
-31.3	0.000000e+00	0.000000e+00	
-31.2	0.000000e+00	0.000000e+00	
-31.1	0.000000e+00	0.000000e+00	
-31.0	0.000000e+00	0.000000e+00	
-30.9	0.000000e+00	0.000000e+00	
-30.8	0.000000e+00	0.000000e+00	
-30.7	0.000000e+00	0.000000e+00	
-30.6	0.000000e+00	0.000000e+00	
-30.5	0.000000e+00	0.000000e+00	
-30.4	0.000000e+00	0.000000e+00	
-30.3	0.000000e+00	0.000000e+00	
-30.2	0.000000e+00	0.000000e+00	
-30.1	0.000000e+00	0.000000e+00	
-30.0	0.000000e+00	0.000000e+00	
-29.9	0.000000e+00	0.000000e+00	
-29.8	0.000000e+00	0.000000e+00	
-29.7	0.000000e+00	0.000000e+00	
-29.6	0.000000e+00	0.000000e+00	
-29.5	0.000000e+00	0.000000e+00	
-29.4	0.000000e+00	0.000000e+00	
-29.3	0.000000e+00	0.000000e+00	
-29.2	0.000000e+00	0.000000e+00	
-29.1	0.000000e+00	0.000000e+00	
-29.0	0.000000e+00	0.000000e+00	
-28.9	0.000000e+00	0.000000e+00	
-28.8	0.000000e+00	0.000000e+00	
-28.7	0.000000e+00	0.000000e+00	
-28.6	0.000000e+00	0.000000e+00	
-28.5	0.000000e+00	0.000000e+00	
-28.4	0.000000e+00	0.000000e+00	
-28.3	0.000000e+00	0.000000e+00	
-28.2	0.000000e+00	0.000000e+00	
-28.1	0.000000e+00	0.000000e+00	
-28.0	0.000000e+00	0.000000e+00	
-27.9	0.000000e+00	0.000000e+00	
-27.8	0.000000e+00	0.000000e+00	
-27.7	0.000000e+00	0.000000e+00	
-27.6	0.000000e+00	0.000000e+00	
-27.5	0.000000e+00	0.000000e+00	
-27.4	0.000000e+00	0.000000e+00	
-27.3	0.000000e+00	0.000000e+00	
-27.2	0.000000e+00	0.000000e+00	
-27.1	0.000000e+00	0.000000e+00	
-27.0	0.000000e+00	0.000000e+00	
-26.9	0.000000e+00	0.000000e+00	
-26.8	0.000000e+00	0.000000e+00	
-26.7	0.000000e+00	0.000000e+00	
-26.6	0.000000e+00	0.000000e+00	
-26.5	0.000000e+00	0.000000e+00	
-26.4	0.000000e+00	0.000000e+00	
-26.3	0.000000e+00	0.000000e+00	
-26.2	0.000000e+00	0.000000e+00	
-26.1	0.000000e+00	0.000000e+00	
-26.0	0.000000e+00	0.000000e+00	
-25.9	0.000000e+00	0.000000e+00	
-25.8	0.000000e+00	0.000000e+00	
-25.7	0.000000e+00	0.000000e+00	
-25.6	0.000000e+00	0.000000e+00	
-25.5	0.000000e+00	0.000000e+00	
-25.4	0.000000e+00	0.000000e+00	
-25.3	0.000000e+00	0.000000e+00	
-25.2	0.000000e+00	0.000000e+00	
-25.1	0.000000e+00	0.000000e+00	
-25.0	0.000000e+00	0.000000e+00	
-24.9	0.000000e+00	0.000000e+00	
-24.8	0.000000e+00	0.000000e+00	
-24.7	0.000000e+00	0.000000e+00	
-24.6	0.000000e+00	0.000000e+00	
-24.5	0.000000e+00	0.000000e+00	
-24.4	0.000000e+00	0.000000e+00	
-24.3	0.000000e+00	0.000000e+00	
-24.2	0.000000e+00	0.000000e+00	
-24.1	0.000000e+00	0.000000e+00	
-24.0	0.000000e+00	0.000000e+00	
-23.9	0.000000e+00	0.000000e+00	
-23.8	0.000000e+00	0.000000e+00	
-23.7	0.000000e+00	0.000000e+00	
-23.6	0.000000e+00	0.000000e+00	
-23.5	0.000000e+00	0.000000e+00	
-23.4	0.000000e+00	0.000000e+00	
-23.3	0.000000e+00	0.000000e+00	
-23.2	0.000000e+00	0.000000e+00	
-23.1	0.000000e+00	0.000000e+00	
-23.0	0.000000e+00	0.000000e+00	
-22.9	0.000000e+00	0.000000e+00	
-22.8	0.000000e+00	0.000000e+00	
-22.7	0.000000e+00	0.000000e+00	
-22.6	0.000000e+00	0.000000e+00	
-22.5	0.000000e+00	0.000000e+00	
-22.4	0.000000e+00	0.000000e+00	
-22.3	0.000000e+00	0.000000e+00	
-22.2	0.000000e+00	0.000000e+00	
-22.1	0.000000e+00	0.000000e+00	
-22.0	0.000000e+00	0.000000e+00	
-21.9	0.000000e+00	0.000000e+00	
-21.8	0.000000e+00	0.000000e+00	
-21.7	0.000000e+00	0.000000e+00	
-21.6	0.000000e+00	0.000000e+00	
-21.5	0.000000e+00	0.000000e+00	
-21.4	0.000000e+00	0.000000e+00	
-21.3	0.000000e+00	6.422853e-323	
-21.2	0.000000e+00	3.443638e-321	
-21.1	0.000000e+00	1.880760e-319	
-21.0	0.000000e+00	1.023740e-317	
-20.9	0.000000e+00	5.551099e-316	
-20.8	0.000000e+00	2.998505e-314	
-20.7	0.000000e+00	1.613426e-312	
-20.6	0.000000e+00	8.647575e-311	
-20.5	0.000000e+00	4.616611e-309	
-20.4	0.000000e+00	2.454812e-307	
-20.3	0.000000e+00	1.300053e-305	
-20.2	0.000000e+00	6.856991e-304	
-20.1	0.000000e+00	3.601782e-302	
-20.0	0.000000e+00	1.884057e-300	
-19.9	0.000000e+00	9.813965e-299	
-19.8	0.000000e+00	5.090374e-297	
-19.7	0.000000e+00	2.628999e-295	
-19.6	0.000000e+00	1.351907e-293	
-19.5	0.000000e+00	6.921490e-292	
-19.4	0.000000e+00	3.527998e-290	
-19.3	0.000000e+00	1.790247e-288	
-19.2	0.000000e+00	9.043419e-287	
-19.1	0.000000e+00	4.547440e-285	
-19.0	0.000000e+00	2.276118e-283	
-18.9	0.000000e+00	1.133953e-281	
-18.8	0.000000e+00	5.622711e-280	
-18.7	0.000000e+00	2.774761e-278	
-18.6	0.000000e+00	1.362738e-276	
-18.5	0.000000e+00	6.660147e-275	
-18.4	4.150151e-322	3.239048e-273	
-18.3	9.432207e-320	1.567438e-271	
-18.2	2.116695e-317	7.547087e-270	
-18.1	4.655874e-315	3.615442e-268	
-18.0	1.003786e-312	1.723109e-266	
-17.9	2.121179e-310	8.169763e-265	
-17.8	4.393499e-308	3.853253e-263	
-17.7	8.919498e-306	1.807767e-261	
-17.6	1.774872e-303	8.435862e-260	
-17.5	3.461707e-301	3.915288e-258	
-17.4	6.617749e-299	1.807257e-256	
-17.3	1.240015e-296	8.296069e-255	
-17.2	2.277406e-294	3.787002e-253	
-17.1	4.099685e-292	1.718950e-251	
-17.0	7.233648e-290	7.757984e-250	
-16.9	1.251010e-287	3.481177e-248	
-16.8	2.120612e-285	1.552987e-246	
-16.7	3.523369e-283	6.887263e-245	
-16.6	5.737885e-281	3.036235e-243	
-16.5	9.158878e-279	1.330473e-241	
-16.4	1.432945e-276	5.794693e-240	
-16.3	2.197421e-274	2.508305e-238	
-16.2	3.302887e-272	1.079014e-236	
-16.1	4.865988e-270	4.612554e-235	
-16.0	7.026596e-268	1.959271e-233	
-15.9	9.945249e-266	8.269069e-232	
-15.8	1.379695e-263	3.467352e-230	
-15.7	1.876062e-261	1.444402e-228	
-15.6	2.500391e-259	5.977192e-227	
-15.5	3.266371e-257	2.456938e-225	
-15.4	4.182344e-255	1.003109e-223	
-15.3	5.248929e-253	4.067501e-222	
-15.2	6.456816e-251	1.637953e-220	
-15.1	7.785075e-249	6.549945e-219	
-15.0	9.200340e-247	2.600782e-217	
-14.9	1.065716e-244	1.025341e-215	
-14.8	1.209974e-242	4.013261e-214	
-14.7	1.346503e-240	1.559405e-212	
-14.6	1.468708e-238	6.014775e-211	
-14.5	1.570218e-236	2.302742e-209	
-14.4	1.645438e-234	8.749894e-208	
-14.3	1.690050e-232	3.299575e-206	
-14.2	1.701431e-230	1.234743e-204	
-14.1	1.678904e-228	4.584836e-203	
-14.0	1.623806e-226	1.689138e-201	
-13.9	1.539356e-224	6.173980e-200	
-13.8	1.430344e-222	2.238664e-198	
-13.7	1.302684e-220	8.051939e-197	
-13.6	1.162878e-218	2.872528e-195	
-13.5	1.017480e-216	1.016352e-193	
-13.4	8.725982e-215	3.566184e-192	
-13.3	7.334990e-213	1.240814e-190	
-13.2	6.043401e-211	4.280712e-189	
-13.1	4.880452e-209	1.464181e-187	
-13.0	3.863095e-207	4.964850e-186	
-12.9	2.997143e-205	1.668831e-184	
-12.8	2.279167e-203	5.560014e-183	
-12.7	1.698798e-201	1.835942e-181	
-12.6	1.241092e-199	6.007912e-180	
-12.5	8.887156e-198	1.948191e-178	
-12.4	6.237613e-196	6.259569e-177	
-12.3	4.291121e-194	1.992617e-175	
-12.2	2.893475e-192	6.283924e-174	
-12.1	1.912342e-190	1.963030e-172	
-12.0	1.238819e-188	6.073971e-171	
-11.9	7.865878e-187	1.861355e-169	
-11.8	4.895343e-185	5.648812e-168	
-11.7	2.986178e-183	1.697528e-166	
-11.6	1.785439e-181	5.050905e-165	
-11.5	1.046336e-179	1.487901e-163	
-11.4	6.010267e-178	4.339022e-162	
-11.3	3.383867e-176	1.252514e-160	
-11.2	1.867366e-174	3.578545e-159	
-11.1	1.010049e-172	1.011867e-157	
-11.0	5.354907e-171	2.831345e-156	
-10.9	2.782648e-169	7.839260e-155	
-10.8	1.417298e-167	2.147482e-153	
-10.7	7.075562e-166	5.819909e-152	
-10.6	3.462242e-164	1.560251e-150	
-10.5	1.660545e-162	4.137366e-149	
-10.4	7.806214e-161	1.085086e-147	
-10.3	3.596889e-159	2.814330e-146	
-10.2	1.624465e-157	7.217981e-145	
-10.1	7.191017e-156	1.830400e-143	
-10.0	3.120089e-154	4.589077e-142	
-9.9	1.326907e-152	1.137401e-140	
-9.8	5.531088e-151	2.786570e-139	
-9.7	2.259839e-149	6.747678e-138	
-9.6	9.049843e-148	1.614829e-136	
-9.5	3.552232e-146	3.818970e-135	
-9.4	1.366653e-144	8.924280e-134	
-9.3	5.153615e-143	2.060475e-132	
-9.2	1.904857e-141	4.699903e-131	
-9.1	6.900961e-140	1.059004e-129	
-9.0	2.450493e-138	2.356970e-128	
-8.9	8.528918e-137	5.181054e-127	
-8.8	2.909586e-135	1.124736e-125	
-8.7	9.728933e-134	2.411080e-124	
-8.6	3.188570e-132	5.103430e-123	
-8.5	1.024291e-130	1.066505e-121	
-8.4	3.225132e-129	2.200265e-120	
-8.3	9.953327e-128	4.480841e-119	
-8.2	3.010827e-126	9.006948e-118	
-8.1	8.926888e-125	1.786861e-116	
-8.0	2.594245e-123	3.498331e-115	
-7.9	7.389562e-122	6.758489e-114	
-7.8	2.063113e-120	1.288306e-112	
-7.7	5.645783e-119	2.422877e-111	
-7.6	1.514335e-117	4.495200e-110	
-7.5	3.981224e-116	8.226874e-109	
-7.4	1.025907e-114	1.485086e-107	
-7.3	2.591169e-113	2.644006e-106	
-7.2	6.414760e-112	4.642274e-105	
-7.1	1.556545e-110	8.037485e-104	
-7.0	3.702030e-109	1.372128e-102	
-6.9	8.630078e-108	2.309500e-101	
-6.8	1.971906e-106	3.832258e-100	
-6.7	4.416258e-105	6.268587e-99	
-6.6	9.694366e-104	1.010712e-97	
-6.5	2.085840e-102	1.606178e-96	
-6.4	4.398853e-101	2.515551e-95	
-6.3	9.092735e-100	3.882507e-94	
-6.2	1.842240e-98	5.904684e-93	
-6.1	3.658431e-97	8.848158e-92	
-6.0	7.120984e-96	1.306313e-90	
-5.9	1.358570e-94	1.899972e-89	
-5.8	2.540508e-93	2.722197e-88	
-5.7	4.656461e-92	3.841774e-87	
-5.6	8.365425e-91	5.340132e-86	
-5.5	1.473048e-89	7.310520e-85	
-5.4	2.542391e-88	9.855734e-84	
-5.3	4.300951e-87	1.308407e-82	
-5.2	7.131542e-86	1.710328e-81	
-5.1	1.159042e-84	2.201240e-80	
-5.0	1.846339e-83	2.789183e-79	
-4.9	2.882839e-82	3.479191e-78	
-4.8	4.411906e-81	4.272101e-77	
-4.7	6.618030e-80	5.163419e-76	
-4.6	9.730337e-79	6.142385e-75	
-4.5	1.402245e-77	7.191372e-74	
-4.4	1.980690e-76	8.285778e-73	
-4.3	2.742242e-75	9.394500e-72	
-4.2	3.721275e-74	1.048106e-70	
-4.1	4.949651e-73	1.150537e-69	
-4.0	6.452887e-72	1.242605e-68	
-3.9	8.245751e-71	1.320309e-67	
-3.8	1.032769e-69	1.380073e-66	
-3.7	1.267864e-68	1.419013e-65	
-3.6	1.525594e-67	1.435169e-64	
-3.5	1.799294e-66	1.427666e-63	
-3.4	2.079993e-65	1.396793e-62	
-3.3	2.356776e-64	1.343986e-61	
-3.2	2.617408e-63	1.271716e-60	
-3.1	2.849189e-62	1.183299e-59	
-3.0	3.039960e-61	1.082639e-58	
-2.9	3.179151e-60	9.739459e-58	
-2.8	3.258751e-59	8.614389e-57	
-2.7	3.274070e-58	7.490831e-56	
-2.6	3.224196e-57	6.403669e-55	
-2.5	3.112086e-56	5.381447e-54	
-2.4	2.944275e-55	4.445480e-53	
-2.3	2.730247e-54	3.609660e-52	
-2.2	2.481546e-53	2.880849e-51	
-2.1	2.210748e-52	2.259752e-50	
-2.0	1.930425e-51	1.742072e-49	
-1.9	1.652203e-50	1.319825e-48	
-1.8	1.386023e-49	9.826339e-48	
-1.7	1.139658e-48	7.189063e-47	
-1.6	9.184912e-48	5.168193e-46	
-1.5	7.255583e-47	3.650665e-45	
-1.4	5.617800e-46	2.533687e-44	
-1.3	4.263409e-45	1.727681e-43	
-1.2	3.171352e-44	1.157405e-42	
-1.1	2.312217e-43	7.617282e-42	
-1.0	1.652378e-42	4.924820e-41	
-0.9	1.157409e-41	3.127798e-40	
-0.8	7.946231e-41	1.951318e-39	
-0.7	5.347271e-40	1.195752e-38	
-0.6	3.526955e-39	7.197173e-38	
-0.5	2.280155e-38	4.254747e-37	
-0.4	1.444859e-37	2.470362e-36	
-0.3	8.973942e-37	1.408661e-35	
-0.2	5.463083e-36	7.888529e-35	
-0.1	3.259786e-35	4.338243e-34	
0.1	1.906501e-34	2.342852e-33	
0.2	1.092903e-33	1.242437e-32	
0.3	6.140773e-33	6.469749e-32	
0.4	3.381903e-32	3.308035e-31	
0.5	1.825560e-31	1.660764e-30	
0.6	9.658897e-31	8.186296e-30	
0.7	5.009055e-30	3.961820e-29	
0.8	2.546131e-29	1.882419e-28	
0.9	1.268535e-28	8.780906e-28	
1.0	6.194707e-28	4.021152e-27	
1.1	2.965076e-27	1.807745e-26	
1.2	1.391066e-26	7.977870e-26	
1.3	6.396703e-26	3.456108e-25	
1.4	2.883111e-25	1.469692e-24	
1.5	1.273689e-24	6.134681e-24	
1.6	5.515210e-24	2.513464e-23	
1.7	2.340763e-23	1.010780e-22	
1.8	9.737545e-23	3.989634e-22	
1.9	3.970437e-22	1.545576e-21	
2.0	1.586806e-21	5.876491e-21	
2.1	6.215928e-21	2.192831e-20	
2.2	2.386629e-20	8.030474e-20	
2.3	8.981742e-20	2.886130e-19	
2.4	3.313088e-19	1.017932e-18	
2.5	1.197849e-18	3.523226e-18	
2.6	4.244903e-18	1.196660e-17	
2.7	1.474451e-17	3.988413e-17	
2.8	5.019835e-17	1.304425e-16	
2.9	1.675118e-16	4.186182e-16	
3.0	5.478958e-16	1.318222e-15	
3.1	1.756497e-15	4.073061e-15	
3.2	5.519420e-15	1.234829e-14	
3.3	1.699950e-14	3.673140e-14	
3.4	5.131870e-14	1.072024e-13	
3.5	1.518490e-13	3.069723e-13	
3.6	4.403974e-13	8.624099e-13	
3.7	1.251914e-12	2.377059e-12	
3.8	3.488195e-12	6.427915e-12	
3.9	9.526289e-12	1.705282e-11	
4.0	2.550019e-11	4.438241e-11	
4.1	6.690521e-11	1.133200e-10	
4.2	1.720573e-10	2.838414e-10	
4.3	4.336936e-10	6.974474e-10	
4.4	1.071494e-09	1.681151e-09	
4.5	2.594735e-09	3.975156e-09	
4.6	6.158756e-09	9.220351e-09	
4.7	1.432814e-08	2.097875e-08	
4.8	3.267256e-08	4.682139e-08	
4.9	7.302530e-08	1.025026e-07	
5.0	1.599780e-07	2.201127e-07	
5.1	3.435135e-07	4.636272e-07	
5.2	7.229764e-07	9.578555e-07	
5.3	1.491424e-06	1.941031e-06	
5.4	3.015608e-06	3.857985e-06	
5.5	5.976478e-06	7.521048e-06	
5.6	1.160947e-05	1.438071e-05	
5.7	2.210428e-05	2.696875e-05	
5.8	4.125123e-05	4.960375e-05	
5.9	7.545608e-05	8.948208e-05	
6.0	1.352846e-04	1.583143e-04	
6.1	2.377382e-04	2.747020e-04	
6.2	4.094929e-04	4.674721e-04	
6.3	6.913381e-04	7.801843e-04	
6.4	1.144014e-03	1.276972e-03	
6.5	1.855534e-03	2.049761e-03	
6.6	2.949872e-03	3.226698e-03	
6.7	4.596573e-03	4.981292e-03	
6.8	7.020401e-03	7.541363e-03	
6.9	1.050960e-02	1.119637e-02	
7.0	1.542082e-02	1.630122e-02	
7.1	2.217815e-02	2.327417e-02	
7.2	3.126366e-02	3.258631e-02	
7.3	4.319676e-02	4.474032e-02	
7.4	5.850044e-02	6.023679e-02	
7.5	7.765399e-02	7.952789e-02	
7.6	1.010335e-01	1.029599e-01	
7.7	1.288437e-01	1.307086e-01	
7.8	1.610490e-01	1.627136e-01	
7.9	1.973103e-01	1.986202e-01	
8.0	2.369398e-01	2.377384e-01	
8.1	2.788836e-01	2.790283e-01	
8.2	3.217397e-01	3.211194e-01	
8.3	3.638170e-01	3.623689e-01	
8.4	4.032349e-01	4.009572e-01	
8.5	4.380563e-01	4.350154e-01	
8.6	4.664428e-01	4.627726e-01	
8.7	4.868147e-01	4.827073e-01	
8.8	4.979957e-01	4.936853e-01	
8.9	4.993261e-01	4.950668e-01	
9.0	4.907267e-01	4.867675e-01	
9.1	4.727067e-01	4.692678e-01	
9.2	4.463141e-01	4.435662e-01	
9.3	4.130343e-01	4.110852e-01	
9.4	3.746522e-01	3.735410e-01	
9.5	3.330943e-01	3.327937e-01	
9.6	2.902705e-01	2.906964e-01	
9.7	2.479335e-01	2.489598e-01	
9.8	2.075699e-01	2.090459e-01	
9.9	1.703296e-01	1.720974e-01	
10.0	1.369975e-01	1.389071e-01	
10.1	1.080020e-01	1.099234e-01	
10.2	8.345413e-02	8.528428e-02	
10.3	6.320631e-02	6.487218e-02	
10.4	4.692128e-02	4.837897e-02	
10.5	3.414097e-02	3.537212e-02	
10.6	2.434886e-02	2.535536e-02	
10.7	1.702073e-02	1.781888e-02	
10.8	1.166204e-02	1.227697e-02	
10.9	7.831902e-03	8.292776e-03	
11.0	5.155335e-03	5.491673e-03	
11.1	3.326161e-03	3.565361e-03	
11.2	2.103421e-03	2.269313e-03	
11.3	1.303785e-03	1.416040e-03	
11.4	7.921046e-04	8.662539e-04	
11.5	4.716890e-04	5.195190e-04	
11.6	2.753123e-04	3.054517e-04	
11.7	1.575042e-04	1.760624e-04	
11.8	8.831929e-05	9.948838e-05	
11.9	4.854177e-05	5.511346e-05	
12.0	2.615004e-05	2.993100e-05	
12.1	1.380784e-05	1.593533e-05	
12.2	7.146214e-06	8.317180e-06	
12.3	3.625124e-06	4.255636e-06	
12.4	1.802464e-06	2.134640e-06	
12.5	8.784293e-07	1.049676e-06	
12.6	4.196081e-07	5.060051e-07	
12.7	1.964616e-07	2.391234e-07	
12.8	9.015879e-08	1.107785e-07	
12.9	4.055414e-08	5.030989e-08	
13.0	1.787965e-08	2.239829e-08	
13.1	7.726445e-09	9.775489e-09	
13.2	3.272631e-09	4.182374e-09	
13.3	1.358661e-09	1.754151e-09	
13.4	5.528684e-10	7.212224e-10	
13.5	2.205105e-10	2.906890e-10	
13.6	8.620518e-11	1.148534e-10	
13.7	3.303195e-11	4.448504e-11	
13.8	1.240600e-11	1.689031e-11	
13.9	4.566948e-12	6.286572e-12	
14.0	1.647848e-12	2.293725e-12	
14.1	5.827802e-13	8.203879e-13	
14.2	2.020176e-13	2.876381e-13	
14.3	6.863891e-14	9.886024e-14	
14.4	2.285853e-14	3.330766e-14	
14.5	7.461442e-15	1.100051e-14	
14.6	2.387229e-15	3.561449e-15	
14.7	7.486211e-16	1.130277e-15	
14.8	2.301054e-16	3.516303e-16	
14.9	6.932473e-17	1.072334e-16	
15.0	2.047134e-17	3.205646e-17	
15.1	5.925175e-18	9.393806e-18	
15.2	1.680942e-18	2.698406e-18	
15.3	4.674132e-19	7.598221e-19	
15.4	1.273931e-19	2.097271e-19	
15.5	3.403201e-20	5.674591e-20	
15.6	8.910992e-21	1.505050e-20	
15.7	2.286974e-21	3.912938e-21	
15.8	5.752982e-22	9.972175e-22	
15.9	1.418475e-22	2.491213e-22	
16.0	3.428047e-23	6.100499e-23	
16.1	8.120238e-24	1.464376e-23	
16.2	1.885330e-24	3.445653e-24	
16.3	4.290450e-25	7.947342e-25	
16.4	9.570066e-26	1.796813e-25	
16.5	2.092299e-26	3.982113e-26	
16.6	4.483625e-27	8.650749e-27	
16.7	9.417411e-28	1.842139e-27	
16.8	1.938789e-28	3.845201e-28	
16.9	3.912246e-29	7.867614e-29	
17.0	7.737818e-30	1.577952e-29	
17.1	1.500056e-30	3.102207e-30	
17.2	2.850319e-31	5.978238e-31	
17.3	5.308550e-32	1.129278e-31	
17.4	9.690700e-33	2.090993e-32	
17.5	1.733928e-33	3.795146e-33	
17.6	3.040911e-34	6.751927e-34	
17.7	5.227248e-35	1.177470e-34	
17.8	8.807227e-36	2.012770e-35	
17.9	1.454461e-36	3.372564e-36	
18.0	2.354298e-37	5.539208e-37	
18.1	3.735233e-38	8.917764e-38	
18.2	5.808589e-39	1.407293e-38	
18.3	8.853608e-40	2.176873e-39	
18.4	1.322716e-40	3.300662e-40	
18.5	1.936911e-41	4.905553e-41	
18.6	2.780030e-42	7.146500e-42	
18.7	3.910983e-43	1.020509e-42	
18.8	5.392860e-44	1.428427e-43	
18.9	7.288683e-45	1.959822e-44	
19.0	9.655521e-46	2.635675e-45	
19.1	1.253716e-46	3.474431e-46	
19.2	1.595582e-47	4.489433e-47	
19.3	1.990379e-48	5.686107e-48	
19.4	2.433601e-49	7.059173e-49	
19.5	2.916484e-50	8.590285e-50	
19.6	3.425835e-51	1.024651e-50	
19.7	3.944301e-52	1.198004e-51	
19.8	4.451131e-53	1.372950e-52	
19.9	4.923426e-54	1.542286e-53	
20.0	5.337786e-55	1.698196e-54	
20.1	5.672202e-56	1.832837e-55	
20.2	5.907978e-57	1.938976e-56	
20.3	6.031464e-58	2.010636e-57	
20.4	6.035362e-59	2.043648e-58	
20.5	5.919440e-60	2.036060e-59	
20.6	5.690556e-61	1.988320e-60	
20.7	5.361983e-62	1.903237e-61	
20.8	4.952140e-63	1.785708e-62	
20.9	4.482879e-64	1.642247e-63	
21.0	3.977571e-65	1.480392e-64	
21.1	3.459199e-66	1.308052e-65	
21.2	2.948695e-67	1.132877e-66	
21.3	2.463660e-68	9.617230e-68	
21.4	2.017570e-69	8.002514e-69	
21.5	1.619470e-70	6.526973e-70	
21.6	1.274131e-71	5.218021e-71	
21.7	9.825440e-73	4.088918e-72	
21.8	7.426541e-74	3.140647e-73	
21.9	5.501966e-75	2.364492e-74	
22.0	3.995268e-76	1.744875e-75	
22.1	2.843614e-77	1.262113e-76	
22.2	1.983773e-78	8.948280e-78	
22.3	1.356470e-79	6.218534e-79	
22.4	9.091280e-81	4.235877e-80	
22.5	5.972231e-82	2.828169e-81	
22.6	3.845430e-83	1.850862e-82	
22.7	2.426889e-84	1.187268e-83	
22.8	1.501245e-85	7.465002e-85	
22.9	9.102276e-87	4.600625e-86	
23.0	5.409350e-88	2.779135e-87	
23.1	3.150917e-89	1.645538e-88	
23.2	1.798977e-90	9.550181e-90	
23.3	1.006725e-91	5.432760e-91	
23.4	5.521953e-93	3.029246e-92	
23.5	2.968735e-94	1.655592e-93	
23.6	1.564397e-95	8.869048e-95	
23.7	8.080141e-97	4.656989e-96	
23.8	4.090607e-98	2.396833e-97	
23.9	2.029800e-99	1.209135e-98	
24.0	9.872237e-101	5.978823e-100	
24.1	4.706245e-102	2.897748e-101	
24.2	2.199025e-103	1.376605e-102	
24.3	1.007123e-104	6.410057e-104	
24.4	4.520971e-106	2.925620e-105	
24.5	1.989196e-107	1.308812e-106	
24.6	8.578672e-109	5.739051e-108	
24.7	3.626263e-110	2.466641e-109	
24.8	1.502433e-111	1.039142e-110	
24.9	6.101378e-113	4.290882e-112	
25.0	2.428607e-114	1.736685e-113	
25.1	9.475091e-116	6.889668e-115	
25.2	3.623316e-117	2.679033e-116	
25.3	1.358081e-118	1.021081e-117	
25.4	4.989327e-120	3.814562e-119	
25.5	1.796614e-121	1.396791e-120	
25.6	6.341099e-123	5.013258e-122	
25.7	2.193668e-124	1.763643e-123	
25.8	7.438305e-126	6.081397e-125	
25.9	2.472144e-127	2.055406e-126	
26.0	8.053233e-129	6.809163e-128	
26.1	2.571364e-130	2.211013e-129	
26.2	8.047360e-132	7.037047e-131	
26.3	2.468539e-133	2.195285e-132	
26.4	7.422042e-135	6.712629e-134	
26.5	2.187275e-136	2.011850e-135	
26.6	6.318009e-138	5.910166e-137	
26.7	1.788767e-139	1.701785e-138	
26.8	4.963910e-141	4.802980e-140	
26.9	1.350177e-142	1.328672e-141	
27.0	3.599602e-144	3.602677e-143	
27.1	9.406213e-146	9.574888e-145	
27.2	2.409195e-147	2.494265e-146	
27.3	6.048193e-149	6.368720e-148	
27.4	1.488251e-150	1.593904e-149	
27.5	3.589412e-152	3.909961e-151	
27.6	8.485300e-154	9.401196e-153	
27.7	1.966110e-155	2.215614e-154	
27.8	4.465244e-157	5.118057e-156	
27.9	9.939835e-159	1.158821e-157	
28.0	2.168752e-160	2.571742e-159	
28.1	4.638071e-162	5.594208e-161	
28.2	9.722134e-164	1.192751e-162	
28.3	1.997480e-165	2.492646e-164	
28.4	4.022537e-167	5.105888e-166	
28.5	7.939888e-169	1.025137e-167	
28.6	1.536121e-170	2.017399e-169	
28.7	2.912951e-172	3.891361e-171	
28.8	5.414241e-174	7.357169e-173	
28.9	9.863676e-176	1.363388e-174	
29.0	1.761313e-177	2.476439e-176	
29.1	3.082700e-179	4.408949e-178	
29.2	5.288379e-181	7.693818e-180	
29.3	8.892228e-183	1.315976e-181	
29.4	1.465532e-184	2.206243e-183	
29.5	2.367428e-186	3.625416e-185	
29.6	3.748477e-188	5.839310e-187	
29.7	5.817411e-190	9.218584e-189	
29.8	8.849145e-192	1.426481e-190	
29.9	1.319379e-193	2.163549e-192	
30.0	1.928123e-195	3.216372e-194	
30.1	2.761826e-197	4.686675e-196	
30.2	3.877526e-199	6.693639e-198	
30.3	5.335927e-201	9.370408e-200	
30.4	7.197170e-203	1.285741e-201	
30.5	9.515034e-205	1.729208e-203	
30.6	1.232979e-206	2.279500e-205	
30.7	1.566021e-208	2.945307e-207	
30.8	1.949559e-210	3.730098e-209	
30.9	2.378875e-212	4.630293e-211	
31.0	2.845141e-214	5.633720e-213	
31.1	3.335283e-216	6.718626e-215	
31.2	3.832289e-218	7.853517e-217	
31.3	4.315991e-220	8.998007e-219	
31.4	4.764304e-222	1.010478e-220	
31.5	5.154840e-224	1.112259e-222	
31.6	5.466729e-226	1.200005e-224	
31.7	5.682464e-228	1.268991e-226	
31.8	5.789519e-230	1.315323e-228	
31.9	5.781560e-232	1.336301e-230	
32.0	5.659060e-234	1.330683e-232	
32.1	5.429255e-236	1.298802e-234	
32.2	5.105437e-238	1.242537e-236	
32.3	4.705679e-240	1.165129e-238	
32.4	4.251170e-242	1.070870e-240	
32.5	3.764361e-244	9.647119e-243	
32.6	3.267163e-246	8.518369e-245	
32.7	2.779374e-248	7.372475e-247	
32.8	2.317501e-250	6.254148e-249	
32.9	1.894042e-252	5.200210e-251	
33.0	1.517246e-254	4.238104e-253	
33.1	1.191294e-256	3.385480e-255	
33.2	9.168091e-259	2.650738e-257	
33.3	6.915688e-261	2.034282e-259	
33.4	5.113151e-263	1.530218e-261	
33.5	3.705430e-265	1.128219e-263	
33.6	2.631996e-267	8.153258e-266	
33.7	1.832435e-269	5.775197e-268	
33.8	1.250457e-271	4.009592e-270	
33.9	8.363835e-274	2.728546e-272	
34.0	5.483262e-276	1.819952e-274	
34.1	3.523459e-278	1.189834e-276	
34.2	2.219198e-280	7.624487e-279	
34.3	1.369997e-282	4.788863e-281	
34.4	8.289725e-285	2.948166e-283	
34.5	4.916513e-287	1.778971e-285	
34.6	2.858057e-289	1.052164e-287	
34.7	1.628476e-291	6.099522e-290	
34.8	9.094705e-294	3.465817e-292	
34.9	4.978432e-296	1.930247e-294	
35.0	2.671119e-298	1.053702e-296	
35.1	1.404722e-300	5.637937e-299	
35.2	7.240767e-303	2.956788e-301	
35.3	3.658266e-305	1.519909e-303	
35.4	1.811602e-307	7.657946e-306	
35.5	8.793201e-310	3.781853e-308	
35.6	4.183386e-312	1.830604e-310	
35.7	1.950768e-314	8.685233e-313	
35.8	8.916201e-317	4.038927e-315	
35.9	3.994422e-319	1.840976e-317	
36.0	1.753933e-321	8.225205e-320	
36.1	9.881313e-324	3.705492e-322	
36.2	0.000000e+00	0.000000e+00	
36.3	0.000000e+00	0.000000e+00	
36.4	0.000000e+00	0.000000e+00	
36.5	0.000000e+00	0.000000e+00	
36.6	0.000000e+00	0.000000e+00	
36.7	0.000000e+00	0.000000e+00	
36.8	0.000000e+00	0.000000e+00	
36.9	0.000000e+00	0.000000e+00	
37.0	0.000000e+00	0.000000e+00	
37.1	0.000000e+00	0.000000e+00	
37.2	0.000000e+00	0.000000e+00	
37.3	0.000000e+00	0.000000e+00	
37.4	0.000000e+00	0.000000e+00	
37.5	0.000000e+00	0.000000e+00	
37.6	0.000000e+00	0.000000e+00	
37.7	0.000000e+00	0.000000e+00	
37.8	0.000000e+00	0.000000e+00	
37.9	0.000000e+00	0.000000e+00	
38.0	0.000000e+00	0.000000e+00	
38.1	0.000000e+00	0.000000e+00	
38.2	0.000000e+00	0.000000e+00	
38.3	0.000000e+00	0.000000e+00	
38.4	0.000000e+00	0.000000e+00	
38.5	0.000000e+00	0.000000e+00	
38.6	0.000000e+00	0.000000e+00	
38.7	0.000000e+00	0.000000e+00	
38.8	0.000000e+00	0.000000e+00	
38.9	0.000000e+00	0.000000e+00	
39.0	0.000000e+00	0.000000e+00	
39.1	0.000000e+00	0.000000e+00	
39.2	0.000000e+00	0.000000e+00	
39.3	0.000000e+00	0.000000e+00	
39.4	0.000000e+00	0.000000e+00	
39.5	0.000000e+00	0.000000e+00	
39.6	0.000000e+00	0.000000e+00	
39.7	0.000000e+00	0.000000e+00	
39.8	0.000000e+00	0.000000e+00	
39.9	0.000000e+00	0.000000e+00	
40.0	0.000000e+00	0.000000e+00	
40.1	0.000000e+00	0.000000e+00	
40.2	0.000000e+00	0.000000e+00	
40.3	0.000000e+00	0.000000e+00	
40.4	0.000000e+00	0.000000e+00	
40.5	0.000000e+00	0.000000e+00	
40.6	0.000000e+00	0.000000e+00	
40.7	0.000000e+00	0.000000e+00	
40.8	0.000000e+00	0.000000e+00	
40.9	0.000000e+00	0.000000e+00	
41.0	0.000000e+00	0.000000e+00	
41.1	0.000000e+00	0.000000e+00	
41.2	0.000000e+00	0.000000e+00	
41.3	0.000000e+00	0.000000e+00	
41.4	0.000000e+00	0.000000e+00	
41.5	0.000000e+00	0.000000e+00	
41.6	0.000000e+00	0.000000e+00	
41.7	0.000000e+00	0.000000e+00	
41.8	0.000000e+00	0.000000e+00	
41.9	0.000000e+00	0.000000e+00	
42.0	0.000000e+00	0.000000e+00	
42.1	0.000000e+00	0.000000e+00	
42.2	0.000000e+00	0.000000e+00	
42.3	0.000000e+00	0.000000e+00	
42.4	0.000000e+00	0.000000e+00	
42.5	0.000000e+00	0.000000e+00	
42.6	0.000000e+00	0.000000e+00	
42.7	0.000000e+00	0.000000e+00	
42.8	0.000000e+00	0.000000e+00	
42.9	0.000000e+00	0.000000e+00	
43.0	0.000000e+00	0.000000e+00	
43.1	0.000000e+00	0.000000e+00	
43.2	0.000000e+00	0.000000e+00	
43.3	0.000000e+00	0.000000e+00	
43.4	0.000000e+00	0.000000e+00	
43.5	0.000000e+00	0.000000e+00	
43.6	0.000000e+00	0.000000e+00	
43.7	0.000000e+00	0.000000e+00	
43.8	0.000000e+00	0.000000e+00	
43.9	0.000000e+00	0.000000e+00	
44.0	0.000000e+00	0.000000e+00	
44.1	0.000000e+00	0.000000e+00	
44.2	0.000000e+00	0.000000e+00	
44.3	0.000000e+00	0.000000e+00	
44.4	0.000000e+00	0.000000e+00	
44.5	0.000000e+00	0.000000e+00	
44.6	0.000000e+00	0.000000e+00	
44.7	0.000000e+00	0.000000e+00	
44.8	0.000000e+00	0.000000e+00	
44.9	0.000000e+00	0.000000e+00	
45.0	0.000000e+00	0.000000e+00	
45.1	0.000000e+00	0.000000e+00	
45.2	0.000000e+00	0.000000e+00	
45.3	0.000000e+00	0.000000e+00	
45.4	0.000000e+00	0.000000e+00	
45.5	0.000000e+00	0.000000e+00	
45.6	0.000000e+00	0.000000e+00	
45.7	0.000000e+00	0.000000e+00	
45.8	0.000000e+00	0.000000e+00	
45.9	0.000000e+00	0.000000e+00	
46.0	0.000000e+00	0.000000e+00	
46.1	0.000000e+00	0.000000e+00	
46.2	0.000000e+00	0.000000e+00	
46.3	0.000000e+00	0.000000e+00	
46.4	0.000000e+00	0.000000e+00	
46.5	0.000000e+00	0.000000e+00	
46.6	0.000000e+00	0.000000e+00	
46.7	0.000000e+00	0.000000e+00	
46.8	0.000000e+00	0.000000e+00	
46.9	0.000000e+00	0.000000e+00	
47.0	0.000000e+00	0.000000e+00	
47.1	0.000000e+00	0.000000e+00	
47.2	0.000000e+00	0.000000e+00	
47.3	0.000000e+00	0.000000e+00	
47.4	0.000000e+00	0.000000e+00	
47.5	0.000000e+00	0.000000e+00	
47.6	0.000000e+00	0.000000e+00	
47.7	0.000000e+00	0.000000e+00	
47.8	0.000000e+00	0.000000e+00	
47.9	0.000000e+00	0.000000e+00	
48.0	0.000000e+00	0.000000e+00	
48.1	0.000000e+00	0.000000e+00	
48.2	0.000000e+00	0.000000e+00	
48.3	0.000000e+00	0.000000e+00	
48.4	0.000000e+00	0.000000e+00	
48.5	0.000000e+00	0.000000e+00	
48.6	0.000000e+00	0.000000e+00	
48.7	0.000000e+00	0.000000e+00	
48.8	0.000000e+00	0.000000e+00	
48.9	0.000000e+00	0.000000e+00	
49.0	0.000000e+00	0.000000e+00	
49.1	0.000000e+00	0.000000e+00	
49.2	0.000000e+00	0.000000e+00	
49.3	0.000000e+00	0.000000e+00	
49.4	0.000000e+00	0.000000e+00	
49.5	0.000000e+00	0.000000e+00	
49.6	0.000000e+00	0.000000e+00	
49.7	0.000000e+00	0.000000e+00	
49.8	0.000000e+00	0.000000e+00	
49.9	0.000000e+00	0.000000e+00	
50.0	0.000000e+00	0.000000e+00	
