-50.0	0.000000e+00	0.000000e+00	
-49.7	0.000000e+00	0.000000e+00	
-49.5	0.000000e+00	0.000000e+00	
-49.2	0.000000e+00	0.000000e+00	
-49.0	0.000000e+00	0.000000e+00	
-48.7	0.000000e+00	0.000000e+00	
-48.5	0.000000e+00	0.000000e+00	
-48.2	0.000000e+00	0.000000e+00	
-48.0	0.000000e+00	0.000000e+00	
-47.7	0.000000e+00	0.000000e+00	
-47.5	0.000000e+00	0.000000e+00	
-47.2	0.000000e+00	0.000000e+00	
-47.0	0.000000e+00	0.000000e+00	
-46.7	0.000000e+00	0.000000e+00	
-46.5	0.000000e+00	0.000000e+00	
-46.2	0.000000e+00	0.000000e+00	
-46.0	0.000000e+00	0.000000e+00	
-45.7	0.000000e+00	0.000000e+00	
-45.5	0.000000e+00	0.000000e+00	
-45.2	0.000000e+00	0.000000e+00	
-45.0	0.000000e+00	0.000000e+00	
-44.7	0.000000e+00	0.000000e+00	
-44.5	0.000000e+00	0.000000e+00	
-44.2	0.000000e+00	0.000000e+00	
-44.0	0.000000e+00	0.000000e+00	
-43.7	0.000000e+00	0.000000e+00	
-43.5	0.000000e+00	0.000000e+00	
-43.2	0.000000e+00	0.000000e+00	
-43.0	0.000000e+00	0.000000e+00	
-42.7	0.000000e+00	0.000000e+00	
-42.5	0.000000e+00	0.000000e+00	
-42.2	0.000000e+00	0.000000e+00	
-42.0	0.000000e+00	0.000000e+00	
-41.7	0.000000e+00	0.000000e+00	
-41.5	0.000000e+00	0.000000e+00	
-41.2	0.000000e+00	0.000000e+00	
-41.0	0.000000e+00	0.000000e+00	
-40.7	0.000000e+00	0.000000e+00	
-40.5	0.000000e+00	0.000000e+00	
-40.2	0.000000e+00	0.000000e+00	
-40.0	0.000000e+00	0.000000e+00	
-39.7	0.000000e+00	0.000000e+00	
-39.5	0.000000e+00	0.000000e+00	
-39.2	0.000000e+00	0.000000e+00	
-39.0	0.000000e+00	0.000000e+00	
-38.7	0.000000e+00	0.000000e+00	
-38.5	0.000000e+00	0.000000e+00	
-38.2	0.000000e+00	0.000000e+00	
-38.0	0.000000e+00	0.000000e+00	
-37.7	0.000000e+00	0.000000e+00	
-37.5	0.000000e+00	0.000000e+00	
-37.2	0.000000e+00	0.000000e+00	
-37.0	0.000000e+00	0.000000e+00	
-36.7	0.000000e+00	0.000000e+00	
-36.5	0.000000e+00	0.000000e+00	
-36.2	0.000000e+00	0.000000e+00	
-36.0	0.000000e+00	0.000000e+00	
-35.7	0.000000e+00	0.000000e+00	
-35.5	0.000000e+00	0.000000e+00	
-35.2	0.000000e+00	0.000000e+00	
-35.0	0.000000e+00	0.000000e+00	
-34.7	0.000000e+00	0.000000e+00	
-34.5	0.000000e+00	0.000000e+00	
-34.2	0.000000e+00	0.000000e+00	
-34.0	0.000000e+00	0.000000e+00	
-33.7	0.000000e+00	0.000000e+00	
-33.5	0.000000e+00	4.940656e-324	
-33.2	0.000000e+00	4.633842e-320	
-33.0	0.000000e+00	8.010417e-315	
-32.7	0.000000e+00	1.221196e-309	
-32.5	0.000000e+00	1.641936e-304	
-32.2	0.000000e+00	1.947009e-299	
-32.0	0.000000e+00	2.036200e-294	
-31.7	0.000000e+00	1.878078e-289	
-31.5	0.000000e+00	1.527733e-284	
-31.2	0.000000e+00	1.096029e-279	
-31.0	0.000000e+00	6.934857e-275	
-30.7	0.000000e+00	3.869846e-270	
-30.5	0.000000e+00	1.904542e-265	
-30.2	0.000000e+00	8.266621e-261	
-29.9	0.000000e+00	3.164509e-256	
-29.7	0.000000e+00	1.068379e-251	
-29.4	0.000000e+00	3.181157e-247	
-29.2	0.000000e+00	8.353830e-243	
-28.9	0.000000e+00	1.934759e-238	
-28.7	0.000000e+00	3.951926e-234	
-28.4	0.000000e+00	7.119206e-230	
-28.2	0.000000e+00	1.131084e-225	
-27.9	0.000000e+00	1.584890e-221	
-27.7	0.000000e+00	1.958592e-217	
-27.4	0.000000e+00	2.134664e-213	
-27.2	0.000000e+00	2.051899e-209	
-26.9	0.000000e+00	1.739494e-205	
-26.7	0.000000e+00	1.300561e-201	
-26.4	0.000000e+00	8.575889e-198	
-26.2	0.000000e+00	4.987332e-194	
-25.9	0.000000e+00	2.557986e-190	
-25.7	0.000000e+00	1.157094e-186	
-25.4	0.000000e+00	4.616148e-183	
-25.2	0.000000e+00	1.624170e-179	
-24.9	0.000000e+00	5.039923e-176	
-24.7	0.000000e+00	1.379294e-172	
-24.4	0.000000e+00	3.329126e-169	
-24.2	0.000000e+00	7.086700e-166	
-23.9	0.000000e+00	1.330449e-162	
-23.7	0.000000e+00	2.202889e-159	
-23.4	0.000000e+00	3.216823e-156	
-23.2	0.000000e+00	4.142873e-153	
-22.9	0.000000e+00	4.705608e-150	
-22.7	0.000000e+00	4.713780e-147	
-22.4	0.000000e+00	4.164489e-144	
-22.2	0.000000e+00	3.244836e-141	
-21.9	0.000000e+00	2.229777e-138	
-21.7	0.000000e+00	1.351348e-135	
-21.4	0.000000e+00	7.222858e-133	
-21.2	0.000000e+00	3.404751e-130	
-20.9	0.000000e+00	1.415450e-127	
-20.7	0.000000e+00	5.189602e-125	
-20.4	0.000000e+00	1.678035e-122	
-20.2	0.000000e+00	4.785109e-120	
-19.9	0.000000e+00	1.203375e-117	
-19.7	0.000000e+00	2.668840e-115	
-19.4	0.000000e+00	5.219722e-113	
-19.2	0.000000e+00	9.002530e-111	
-18.9	0.000000e+00	1.369176e-108	
-18.7	0.000000e+00	1.836165e-106	
-18.4	0.000000e+00	2.171177e-104	
-18.2	4.545404e-322	2.263468e-102	
-17.9	3.565938e-316	2.080175e-100	
-17.7	2.449361e-310	1.685015e-98	
-17.4	1.483790e-304	1.202791e-96	
-17.2	7.927436e-299	7.563483e-95	
-16.9	3.735372e-293	4.187928e-93	
-16.7	1.552300e-287	2.040448e-91	
-16.4	5.689293e-282	8.738775e-90	
-16.2	1.839000e-276	3.284560e-88	
-15.9	5.242588e-271	1.080677e-86	
-15.7	1.318106e-265	3.099467e-85	
-15.4	2.922779e-260	7.693802e-84	
-15.2	5.715869e-255	1.631628e-82	
-14.9	9.858464e-250	2.880671e-81	
-14.7	1.499605e-244	3.983125e-80	
-14.4	2.011803e-239	3.496440e-79	
-14.2	2.380316e-234	-8.784516e-79	
-13.9	2.483846e-229	-1.111334e-76	
-13.7	2.285890e-224	-2.627929e-75	
-13.4	1.855353e-219	-3.968482e-74	
-13.2	1.328125e-214	-3.851895e-73	
-12.9	8.384780e-210	-9.108100e-73	
-12.7	4.668585e-205	5.193543e-71	
-12.4	2.292554e-200	1.260992e-69	
-12.2	9.928753e-196	1.711715e-68	
-11.9	3.792368e-191	1.379156e-67	
-11.7	1.277518e-186	2.980760e-68	
-11.4	3.795459e-182	-1.996405e-65	
-11.2	9.944944e-178	-3.745415e-64	
-10.9	2.298164e-173	-4.041913e-63	
-10.7	4.683824e-169	-2.199229e-62	
-10.4	8.419005e-165	1.360273e-61	
-10.2	1.334633e-160	5.049754e-60	
-9.9	1.865965e-156	6.825986e-59	
-9.6	2.300837e-152	5.359357e-58	
-9.4	2.502125e-148	9.721041e-58	
-9.1	2.399788e-144	-4.315599e-56	
-8.9	2.029913e-140	-7.785302e-55	
-8.6	1.514338e-136	-7.539877e-54	
-8.4	9.963432e-133	-3.629387e-53	
-8.1	5.781437e-129	1.931988e-52	
-7.9	2.958716e-125	6.292817e-51	
-7.6	1.335401e-121	7.354232e-50	
-7.4	5.315702e-118	4.867740e-49	
-7.1	1.866167e-114	4.247742e-49	
-6.9	5.778045e-111	-3.572541e-47	
-6.6	1.577801e-107	-5.272440e-46	
-6.4	3.799829e-104	-4.258207e-45	
-6.1	8.070804e-101	-1.528185e-44	
-5.9	1.511855e-97	1.274088e-43	
-5.6	2.497724e-94	2.823994e-42	
-5.4	3.639312e-91	2.712136e-41	
-5.1	4.676651e-88	1.430474e-40	
-4.9	5.300189e-85	-1.026081e-40	
-4.6	5.297713e-82	-1.111584e-38	
-4.4	4.670101e-79	-1.302603e-37	
-4.1	3.630821e-76	-8.596564e-37	
-3.9	2.489569e-73	-2.020210e-36	
-3.6	1.505512e-70	2.970953e-35	
-3.4	8.029435e-68	4.735900e-34	
-3.1	3.776822e-65	3.744839e-33	
-2.9	1.566783e-62	1.553510e-32	
-2.6	5.732337e-60	-3.622237e-32	
-2.4	1.849675e-57	-1.271538e-30	
-2.1	5.263806e-55	-1.219534e-29	
-1.9	1.321129e-52	-6.693358e-29	
-1.6	2.924361e-50	-9.824728e-29	
-1.4	5.708969e-48	2.318993e-27	
-1.1	9.829356e-46	2.951544e-26	
-0.9	1.492565e-43	1.992520e-25	
-0.6	1.998858e-41	6.913725e-25	
-0.4	2.360868e-39	-1.978450e-24	
-0.1	2.459246e-37	-5.082169e-23	
0.1	2.259295e-35	-4.247873e-22	
0.4	1.830564e-33	-2.075144e-21	
0.6	1.308089e-31	-2.941283e-21	
0.9	8.243860e-30	5.419515e-20	
1.1	4.582100e-28	6.324824e-19	
1.4	2.246153e-26	3.938913e-18	
1.6	9.710795e-25	1.367047e-17	
1.9	3.702636e-23	-1.348557e-17	
2.1	1.245111e-21	-5.915059e-16	
2.4	3.692714e-20	-4.860146e-15	
2.6	9.658819e-19	-2.403435e-14	
2.9	2.228144e-17	-5.911502e-14	
3.1	4.533181e-16	2.103054e-13	
3.4	8.133990e-15	3.489756e-12	
3.6	1.287197e-13	2.335419e-11	
3.9	1.796499e-12	9.942475e-11	
4.1	2.211311e-11	2.099253e-10	
4.4	2.400565e-10	-7.547948e-10	
4.6	2.298358e-09	-1.083608e-08	
4.9	1.940719e-08	-6.699632e-08	
5.1	1.445268e-07	-2.803378e-07	
5.4	9.492377e-07	-7.535356e-07	
5.6	5.498474e-06	-2.325732e-07	
5.9	2.808990e-05	1.173170e-05	
6.1	1.265607e-04	8.701066e-05	
6.4	5.029076e-04	4.227916e-04	
6.6	1.762456e-03	1.629913e-03	
6.9	5.447400e-03	5.278745e-03	
7.1	1.484913e-02	1.471338e-02	
7.4	3.569877e-02	3.571464e-02	
7.6	7.569137e-02	7.596802e-02	
7.9	1.415403e-01	1.420769e-01	
8.1	2.334290e-01	2.340515e-01	
8.4	3.395237e-01	3.399458e-01	
8.6	4.355380e-01	4.355367e-01	
8.9	4.927457e-01	4.923199e-01	
9.1	4.916549e-01	4.910278e-01	
9.4	4.326519e-01	4.321129e-01	
9.6	3.357821e-01	3.355078e-01	
9.9	2.298356e-01	2.298256e-01	
10.2	1.387451e-01	1.388865e-01	
10.4	7.386843e-02	7.403988e-02	
10.7	3.468493e-02	3.481732e-02	
10.9	1.436360e-02	1.444217e-02	
11.2	5.245982e-03	5.284011e-03	
11.4	1.689783e-03	1.705210e-03	
11.7	4.800382e-04	4.853620e-04	
11.9	1.202711e-04	1.218486e-04	
12.2	2.657588e-05	2.697967e-05	
12.4	5.179105e-06	5.268772e-06	
12.7	8.901485e-07	9.074766e-07	
12.9	1.349308e-07	1.378516e-07	
13.2	1.803849e-08	1.846872e-08	
13.4	2.126818e-09	2.182270e-09	
13.7	2.211571e-10	2.274183e-10	
13.9	2.028208e-11	2.090194e-11	
14.2	1.640456e-12	1.694305e-12	
14.4	1.170193e-13	1.211265e-13	
14.7	7.361922e-15	7.637118e-15	
14.9	4.084751e-16	4.246799e-16	
15.2	1.998852e-17	2.082743e-17	
15.4	8.626539e-19	9.008475e-19	
15.7	3.283471e-20	3.436436e-20	
15.9	1.102226e-21	1.156129e-21	
16.2	3.263237e-23	3.430406e-23	
16.4	8.520545e-25	8.976889e-25	
16.7	1.962126e-26	2.071796e-26	
16.9	3.984989e-28	4.217055e-28	
17.2	7.137862e-30	7.570285e-30	
17.4	1.127587e-31	1.198550e-31	
17.7	1.570986e-33	1.673558e-33	
17.9	1.930348e-35	2.060944e-35	
18.2	2.091893e-37	2.238373e-37	
18.4	1.999329e-39	2.144073e-39	
18.7	1.685270e-41	1.811287e-41	
18.9	1.252840e-43	1.349509e-43	
19.2	8.214150e-46	8.867582e-46	
19.4	4.749744e-48	5.138961e-48	
19.7	2.422248e-50	2.626553e-50	
19.9	1.089451e-52	1.183962e-52	
20.2	4.321529e-55	4.706845e-55	
20.4	1.511848e-57	1.650300e-57	
20.7	4.664653e-60	5.103131e-60	
20.9	1.269321e-62	1.391718e-62	
21.2	3.046240e-65	3.347391e-65	
21.4	6.447592e-68	7.100721e-68	
21.7	1.203571e-70	1.328432e-70	
21.9	1.981467e-73	2.191879e-73	
22.2	2.877017e-76	3.189590e-76	
22.4	3.684163e-79	4.093490e-79	
22.7	4.160792e-82	4.633332e-82	
22.9	4.144326e-85	4.625235e-85	
23.2	3.640597e-88	4.072067e-88	
23.4	2.820538e-91	3.161817e-91	
23.7	1.927223e-94	2.165207e-94	
23.9	1.161376e-97	1.307684e-97	
24.2	6.172405e-101	6.965411e-101	
24.4	2.893188e-104	3.272138e-104	
24.7	1.196024e-107	1.355680e-107	
24.9	4.360573e-111	4.953628e-111	
25.2	1.402129e-114	1.596358e-114	
25.4	3.976246e-118	4.537098e-118	
25.7	9.944873e-122	1.137278e-121	
25.9	2.193643e-125	2.514177e-125	
26.2	4.267499e-129	4.901915e-129	
26.4	7.321862e-133	8.429007e-133	
26.7	1.107925e-136	1.278285e-136	
26.9	1.478564e-140	1.709700e-140	
27.2	1.740245e-144	2.016754e-144	
27.4	1.806432e-148	2.098101e-148	
27.7	1.653764e-152	1.925045e-152	
27.9	1.335261e-156	1.557743e-156	
28.2	9.508223e-161	1.111711e-160	
28.4	5.971362e-165	6.997264e-165	
28.7	3.307411e-169	3.884235e-169	
28.9	1.615637e-173	1.901619e-173	
29.2	6.960493e-178	8.210740e-178	
29.4	2.644703e-182	3.126668e-182	
29.7	8.862468e-187	1.050079e-186	
29.9	2.619227e-191	3.110305e-191	
30.2	6.827038e-196	8.125025e-196	
30.5	1.569395e-200	1.871919e-200	
30.7	3.181800e-205	3.803560e-205	
31.0	5.689241e-210	6.816072e-210	
31.2	8.971736e-215	1.077256e-214	
31.5	1.247784e-219	1.501565e-219	
31.7	1.530534e-224	1.845909e-224	
32.0	1.655721e-229	2.001323e-229	
32.2	1.579692e-234	1.913659e-234	
32.5	1.329224e-239	1.613812e-239	
32.7	9.864264e-245	1.200278e-244	
33.0	6.456125e-250	7.873209e-250	
33.2	3.726662e-255	4.554726e-255	
33.5	1.897181e-260	2.323879e-260	
33.7	8.518010e-266	1.045696e-265	
34.0	3.372938e-271	4.149905e-271	
34.2	1.177930e-276	1.452485e-276	
34.5	3.628031e-282	4.483589e-282	
34.7	9.855154e-288	1.220621e-287	
35.0	2.361003e-293	2.930734e-293	
35.2	4.988505e-299	6.206014e-299	
35.5	9.295763e-305	1.159017e-304	
35.7	1.527708e-310	1.909008e-310	
36.0	2.214300e-316	2.773105e-316	
36.2	2.865581e-322	3.557273e-322	
36.5	0.000000e+00	0.000000e+00	
36.7	0.000000e+00	0.000000e+00	
37.0	0.000000e+00	0.000000e+00	
37.2	0.000000e+00	0.000000e+00	
37.5	0.000000e+00	0.000000e+00	
37.7	0.000000e+00	0.000000e+00	
38.0	0.000000e+00	0.000000e+00	
38.2	0.000000e+00	0.000000e+00	
38.5	0.000000e+00	0.000000e+00	
38.7	0.000000e+00	0.000000e+00	
39.0	0.000000e+00	0.000000e+00	
39.2	0.000000e+00	0.000000e+00	
39.5	0.000000e+00	0.000000e+00	
39.7	0.000000e+00	0.000000e+00	
40.0	0.000000e+00	0.000000e+00	
40.2	0.000000e+00	0.000000e+00	
40.5	0.000000e+00	0.000000e+00	
40.7	0.000000e+00	0.000000e+00	
41.0	0.000000e+00	0.000000e+00	
41.2	0.000000e+00	0.000000e+00	
41.5	0.000000e+00	0.000000e+00	
41.7	0.000000e+00	0.000000e+00	
42.0	0.000000e+00	0.000000e+00	
42.2	0.000000e+00	0.000000e+00	
42.5	0.000000e+00	0.000000e+00	
42.7	0.000000e+00	0.000000e+00	
43.0	0.000000e+00	0.000000e+00	
43.2	0.000000e+00	0.000000e+00	
43.5	0.000000e+00	0.000000e+00	
43.7	0.000000e+00	0.000000e+00	
44.0	0.000000e+00	0.000000e+00	
44.2	0.000000e+00	0.000000e+00	
44.5	0.000000e+00	0.000000e+00	
44.7	0.000000e+00	0.000000e+00	
45.0	0.000000e+00	0.000000e+00	
45.2	0.000000e+00	0.000000e+00	
45.5	0.000000e+00	0.000000e+00	
45.7	0.000000e+00	0.000000e+00	
46.0	0.000000e+00	0.000000e+00	
46.2	0.000000e+00	0.000000e+00	
46.5	0.000000e+00	0.000000e+00	
46.7	0.000000e+00	0.000000e+00	
47.0	0.000000e+00	0.000000e+00	
47.2	0.000000e+00	0.000000e+00	
47.5	0.000000e+00	0.000000e+00	
47.7	0.000000e+00	0.000000e+00	
48.0	0.000000e+00	0.000000e+00	
48.2	0.000000e+00	0.000000e+00	
48.5	0.000000e+00	0.000000e+00	
48.7	0.000000e+00	0.000000e+00	
49.0	0.000000e+00	0.000000e+00	
49.2	0.000000e+00	0.000000e+00	
49.5	0.000000e+00	0.000000e+00	
49.7	0.000000e+00	0.000000e+00	
50.0	0.000000e+00	0.000000e+00	
