-50.0	0.000000e+00	0.000000e+00	
-49.5	0.000000e+00	0.000000e+00	
-49.0	0.000000e+00	0.000000e+00	
-48.5	0.000000e+00	0.000000e+00	
-48.0	0.000000e+00	0.000000e+00	
-47.5	0.000000e+00	0.000000e+00	
-47.0	0.000000e+00	0.000000e+00	
-46.5	0.000000e+00	0.000000e+00	
-46.0	0.000000e+00	0.000000e+00	
-45.5	0.000000e+00	0.000000e+00	
-45.0	0.000000e+00	0.000000e+00	
-44.5	0.000000e+00	0.000000e+00	
-44.0	0.000000e+00	0.000000e+00	
-43.5	0.000000e+00	0.000000e+00	
-43.0	0.000000e+00	0.000000e+00	
-42.5	0.000000e+00	0.000000e+00	
-42.0	0.000000e+00	0.000000e+00	
-41.5	0.000000e+00	0.000000e+00	
-41.0	0.000000e+00	0.000000e+00	
-40.5	0.000000e+00	0.000000e+00	
-39.9	0.000000e+00	0.000000e+00	
-39.4	0.000000e+00	0.000000e+00	
-38.9	0.000000e+00	0.000000e+00	
-38.4	0.000000e+00	0.000000e+00	
-37.9	0.000000e+00	0.000000e+00	
-37.4	0.000000e+00	0.000000e+00	
-36.9	0.000000e+00	0.000000e+00	
-36.4	0.000000e+00	0.000000e+00	
-35.9	0.000000e+00	0.000000e+00	
-35.4	0.000000e+00	0.000000e+00	
-34.9	0.000000e+00	0.000000e+00	
-34.4	0.000000e+00	0.000000e+00	
-33.9	0.000000e+00	0.000000e+00	
-33.4	0.000000e+00	2.427710e-318	
-32.9	0.000000e+00	8.189973e-308	
-32.4	0.000000e+00	1.667372e-297	
-31.9	0.000000e+00	2.048555e-287	
-31.4	0.000000e+00	1.518894e-277	
-30.9	0.000000e+00	6.796295e-268	
-30.4	0.000000e+00	1.835194e-258	
-29.9	0.000000e+00	2.990587e-249	
-29.4	0.000000e+00	2.941006e-240	
-28.9	0.000000e+00	1.745421e-231	
-28.4	0.000000e+00	6.251287e-223	
-27.9	0.000000e+00	1.351150e-214	
-27.4	0.000000e+00	1.762392e-206	
-26.9	0.000000e+00	1.387287e-198	
-26.4	0.000000e+00	6.590142e-191	
-25.9	0.000000e+00	1.889244e-183	
-25.4	0.000000e+00	3.268480e-176	
-24.9	0.000000e+00	3.412465e-169	
-24.4	0.000000e+00	2.150080e-162	
-23.9	0.000000e+00	8.175316e-156	
-23.4	0.000000e+00	1.875933e-149	
-22.9	0.000000e+00	2.597714e-143	
-22.4	0.000000e+00	2.170823e-137	
-21.9	0.000000e+00	1.094744e-131	
-21.4	0.000000e+00	3.331575e-126	
-20.9	0.000000e+00	6.118211e-121	
-20.4	0.000000e+00	6.779841e-116	
-19.8	0.000000e+00	4.533202e-111	
-19.3	0.000000e+00	1.828653e-106	
-18.8	0.000000e+00	4.449525e-102	
-18.3	0.000000e+00	6.528417e-98	
-17.8	1.038290e-314	5.772472e-94	
-17.3	4.336026e-303	3.072710e-90	
-16.8	1.092773e-291	9.827310e-87	
-16.3	1.662006e-280	1.881060e-83	
-15.8	1.525458e-269	2.136843e-80	
-15.3	8.449539e-259	1.412074e-77	
-14.8	2.824428e-248	5.136315e-75	
-14.3	5.697612e-238	8.326776e-73	
-13.8	6.936177e-228	-3.022074e-71	
-13.3	5.095800e-218	-2.975090e-68	
-12.8	2.259277e-208	-2.553757e-66	
-12.3	6.044932e-199	3.438356e-64	
-11.8	9.760639e-190	6.179353e-62	
-11.3	9.511084e-181	-1.063094e-60	
-10.8	5.593023e-172	-7.138769e-58	
-10.3	1.984852e-163	-1.735792e-56	
-9.8	4.250838e-155	5.151628e-54	
-9.3	5.493965e-147	2.715843e-52	
-8.8	4.285111e-139	-2.483497e-50	
-8.3	2.016987e-131	-2.073789e-48	
-7.8	5.729400e-124	7.735838e-47	
-7.3	9.821551e-117	1.063370e-44	
-6.8	1.016052e-109	-1.111985e-43	
-6.3	6.343318e-103	-3.982826e-41	
-5.8	2.389913e-96	-2.827059e-40	
-5.3	5.433910e-90	1.122089e-37	
-4.8	7.456033e-84	2.380488e-36	
-4.3	6.174020e-78	-2.379473e-34	
-3.8	3.085270e-72	-8.407804e-33	
-3.3	9.304288e-67	3.676876e-31	
-2.8	1.693316e-61	1.989740e-29	
-2.3	1.859764e-56	-3.680130e-28	
-1.8	1.232658e-51	-3.433802e-26	
-1.3	4.930513e-47	1.064826e-25	
-0.8	1.190163e-42	4.385337e-23	
-0.3	1.733748e-38	3.704405e-22	
0.3	1.524159e-34	-4.045156e-20	
0.8	8.086104e-31	-7.806634e-19	
1.3	2.588888e-27	2.474227e-17	
1.8	5.002099e-24	8.398193e-16	
2.3	5.832518e-21	-7.086919e-15	
2.8	4.104165e-18	-5.607443e-13	
3.3	1.742843e-15	-2.499397e-12	
3.8	4.466392e-13	2.195012e-10	
4.3	6.907489e-11	3.379876e-09	
4.8	6.446864e-09	-3.269300e-08	
5.3	3.631129e-07	-1.289435e-06	
5.8	1.234240e-05	-7.981630e-06	
6.3	2.531761e-04	1.330879e-04	
6.8	3.134083e-03	2.811146e-03	
7.3	2.341333e-02	2.326010e-02	
7.8	1.055555e-01	1.064266e-01	
8.3	2.871860e-01	2.883336e-01	
8.8	4.715315e-01	4.710385e-01	
9.3	4.672217e-01	4.659537e-01	
9.8	2.793831e-01	2.791235e-01	
10.3	1.008190e-01	1.011702e-01	
10.8	2.195580e-02	2.216901e-02	
11.3	2.885500e-03	2.934962e-03	
11.8	2.288536e-04	2.346580e-04	
12.3	1.095367e-05	1.132728e-05	
12.8	3.163924e-07	3.300643e-07	
13.3	5.515151e-09	5.805077e-09	
13.8	5.801680e-11	6.162056e-11	
14.3	3.683112e-13	3.947612e-13	
14.8	1.411046e-15	1.526244e-15	
15.3	3.262361e-18	3.561132e-18	
15.8	4.551850e-21	5.014445e-21	
16.3	3.832734e-24	4.261142e-24	
16.8	1.947576e-27	2.185225e-27	
17.3	5.972345e-31	6.762893e-31	
17.8	1.105249e-34	1.263091e-34	
18.3	1.234357e-38	1.423645e-38	
18.8	8.319283e-43	9.683544e-43	
19.3	3.383732e-47	3.974952e-47	
19.8	8.305600e-52	9.846785e-52	
20.4	1.230300e-56	1.472048e-56	
20.9	1.099805e-61	1.328050e-61	
21.4	5.933151e-67	7.230558e-67	
21.9	1.931612e-72	2.375713e-72	
22.4	3.795067e-78	4.710654e-78	
22.9	4.499702e-84	5.636808e-84	
23.4	3.219682e-90	4.070523e-90	
23.9	1.390296e-96	1.773912e-96	
24.4	3.622982e-103	4.665292e-103	
24.9	5.697576e-110	7.404410e-110	
25.4	5.407281e-117	7.091971e-117	
25.9	3.096939e-124	4.099287e-124	
26.4	1.070413e-131	1.429930e-131	
26.9	2.232722e-139	3.010134e-139	
27.4	2.810497e-147	3.824036e-147	
27.9	2.134993e-155	2.931723e-155	
28.4	9.787562e-164	1.356403e-163	
28.9	2.707806e-172	3.787212e-172	
29.4	4.520906e-181	6.381389e-181	
29.9	4.555105e-190	6.488970e-190	
30.4	2.769721e-199	3.982000e-199	
30.9	1.016339e-208	1.474659e-208	
31.4	2.250641e-218	3.295693e-218	
31.9	3.007728e-228	4.444950e-228	
32.4	2.425693e-238	3.617861e-238	
32.9	1.180587e-248	1.777059e-248	
33.4	3.467569e-259	5.267646e-259	
33.9	6.146348e-270	9.423153e-270	
34.4	6.574670e-281	1.017281e-280	
34.9	4.244199e-292	6.627508e-292	
35.4	1.653417e-303	2.605701e-303	
35.9	3.887173e-315	6.182496e-315	
36.4	0.000000e+00	0.000000e+00	
36.9	0.000000e+00	0.000000e+00	
37.4	0.000000e+00	0.000000e+00	
37.9	0.000000e+00	0.000000e+00	
38.4	0.000000e+00	0.000000e+00	
38.9	0.000000e+00	0.000000e+00	
39.4	0.000000e+00	0.000000e+00	
39.9	0.000000e+00	0.000000e+00	
40.5	0.000000e+00	0.000000e+00	
41.0	0.000000e+00	0.000000e+00	
41.5	0.000000e+00	0.000000e+00	
42.0	0.000000e+00	0.000000e+00	
42.5	0.000000e+00	0.000000e+00	
43.0	0.000000e+00	0.000000e+00	
43.5	0.000000e+00	0.000000e+00	
44.0	0.000000e+00	0.000000e+00	
44.5	0.000000e+00	0.000000e+00	
45.0	0.000000e+00	0.000000e+00	
45.5	0.000000e+00	0.000000e+00	
46.0	0.000000e+00	0.000000e+00	
46.5	0.000000e+00	0.000000e+00	
47.0	0.000000e+00	0.000000e+00	
47.5	0.000000e+00	0.000000e+00	
48.0	0.000000e+00	0.000000e+00	
48.5	0.000000e+00	0.000000e+00	
49.0	0.000000e+00	0.000000e+00	
49.5	0.000000e+00	0.000000e+00	
50.0	0.000000e+00	0.000000e+00	
