-50.0	0.000000e+00	0.000000e+00	
-49.0	0.000000e+00	0.000000e+00	
-48.0	0.000000e+00	0.000000e+00	
-47.0	0.000000e+00	0.000000e+00	
-46.0	0.000000e+00	0.000000e+00	
-44.9	0.000000e+00	0.000000e+00	
-43.9	0.000000e+00	0.000000e+00	
-42.9	0.000000e+00	0.000000e+00	
-41.9	0.000000e+00	0.000000e+00	
-40.9	0.000000e+00	0.000000e+00	
-39.9	0.000000e+00	0.000000e+00	
-38.9	0.000000e+00	0.000000e+00	
-37.9	0.000000e+00	0.000000e+00	
-36.9	0.000000e+00	0.000000e+00	
-35.9	0.000000e+00	0.000000e+00	
-34.8	0.000000e+00	0.000000e+00	
-33.8	0.000000e+00	0.000000e+00	
-32.8	0.000000e+00	0.000000e+00	
-31.8	0.000000e+00	0.000000e+00	
-30.8	0.000000e+00	0.000000e+00	
-29.8	0.000000e+00	0.000000e+00	
-28.8	0.000000e+00	0.000000e+00	
-27.8	0.000000e+00	0.000000e+00	
-26.8	0.000000e+00	0.000000e+00	
-25.8	0.000000e+00	0.000000e+00	
-24.7	0.000000e+00	0.000000e+00	
-23.7	0.000000e+00	0.000000e+00	
-22.7	0.000000e+00	0.000000e+00	
-21.7	0.000000e+00	0.000000e+00	
-20.7	0.000000e+00	0.000000e+00	
-19.7	0.000000e+00	0.000000e+00	
-18.7	0.000000e+00	0.000000e+00	
-17.7	0.000000e+00	0.000000e+00	
-16.7	0.000000e+00	0.000000e+00	
-15.7	0.000000e+00	0.000000e+00	
-14.6	0.000000e+00	0.000000e+00	
-13.6	0.000000e+00	0.000000e+00	
-12.6	0.000000e+00	0.000000e+00	
-11.6	0.000000e+00	0.000000e+00	
-10.6	0.000000e+00	0.000000e+00	
-9.6	0.000000e+00	0.000000e+00	
-8.6	0.000000e+00	-7.649424e-31	
-7.6	0.000000e+00	2.678541e-29	
-6.6	0.000000e+00	1.484551e-26	
-5.6	0.000000e+00	-4.695685e-25	
-4.5	0.000000e+00	-1.289470e-22	
-3.5	0.000000e+00	3.606365e-21	
-2.5	0.000000e+00	6.581173e-19	
-1.5	0.000000e+00	-1.584057e-17	
-0.5	0.000000e+00	-2.175460e-15	
0.5	0.000000e+00	4.348148e-14	
1.5	0.000000e+00	4.830365e-12	
2.5	0.000000e+00	-7.622855e-11	
3.5	0.000000e+00	-7.203841e-09	
4.5	0.000000e+00	8.295945e-08	
5.6	0.000000e+00	6.956897e-06	
6.6	0.000000e+00	-5.049058e-05	
7.6	0.000000e+00	-3.945791e-03	
8.6	0.000000e+00	1.210635e-02	
9.6	1.000000e+00	1.000000e+00	
10.6	1.000000e+00	1.000000e+00	
11.6	1.000000e+00	1.000000e+00	
12.6	1.000000e+00	1.000000e+00	
13.6	1.000000e+00	1.000000e+00	
14.6	1.000000e+00	1.000000e+00	
15.7	1.000000e+00	1.000000e+00	
16.7	1.000000e+00	1.000000e+00	
17.7	1.000000e+00	1.000000e+00	
18.7	1.000000e+00	1.000000e+00	
19.7	1.000000e+00	1.000000e+00	
20.7	1.000000e+00	1.000000e+00	
21.7	1.000000e+00	1.000000e+00	
22.7	1.000000e+00	1.000000e+00	
23.7	1.000000e+00	1.000000e+00	
24.7	1.000000e+00	1.000000e+00	
25.8	1.000000e+00	1.000000e+00	
26.8	1.000000e+00	1.000000e+00	
27.8	1.000000e+00	1.000000e+00	
28.8	1.000000e+00	1.000000e+00	
29.8	1.000000e+00	1.000000e+00	
30.8	1.000000e+00	1.000000e+00	
31.8	1.000000e+00	1.000000e+00	
32.8	1.000000e+00	1.000000e+00	
33.8	1.000000e+00	1.000000e+00	
34.8	1.000000e+00	1.000000e+00	
35.9	1.000000e+00	1.000000e+00	
36.9	1.000000e+00	1.000000e+00	
37.9	1.000000e+00	1.000000e+00	
38.9	1.000000e+00	1.000000e+00	
39.9	1.000000e+00	1.000000e+00	
40.9	1.000000e+00	1.000000e+00	
41.9	1.000000e+00	1.000000e+00	
42.9	1.000000e+00	1.000000e+00	
43.9	1.000000e+00	1.000000e+00	
44.9	1.000000e+00	1.000000e+00	
46.0	1.000000e+00	1.000000e+00	
47.0	1.000000e+00	1.000000e+00	
48.0	1.000000e+00	1.000000e+00	
49.0	1.000000e+00	1.000000e+00	
50.0	1.000000e+00	1.000000e+00	
