-50.0	0.000000e+00	0.000000e+00	
-49.5	0.000000e+00	0.000000e+00	
-49.0	0.000000e+00	0.000000e+00	
-48.5	0.000000e+00	0.000000e+00	
-48.0	0.000000e+00	0.000000e+00	
-47.5	0.000000e+00	0.000000e+00	
-47.0	0.000000e+00	0.000000e+00	
-46.5	0.000000e+00	0.000000e+00	
-46.0	0.000000e+00	0.000000e+00	
-45.5	0.000000e+00	0.000000e+00	
-45.0	0.000000e+00	0.000000e+00	
-44.5	0.000000e+00	0.000000e+00	
-44.0	0.000000e+00	0.000000e+00	
-43.5	0.000000e+00	0.000000e+00	
-43.0	0.000000e+00	0.000000e+00	
-42.5	0.000000e+00	0.000000e+00	
-42.0	0.000000e+00	0.000000e+00	
-41.5	0.000000e+00	0.000000e+00	
-41.0	0.000000e+00	0.000000e+00	
-40.5	0.000000e+00	0.000000e+00	
-39.9	0.000000e+00	0.000000e+00	
-39.4	0.000000e+00	0.000000e+00	
-38.9	0.000000e+00	0.000000e+00	
-38.4	0.000000e+00	0.000000e+00	
-37.9	0.000000e+00	0.000000e+00	
-37.4	0.000000e+00	0.000000e+00	
-36.9	0.000000e+00	0.000000e+00	
-36.4	0.000000e+00	0.000000e+00	
-35.9	0.000000e+00	0.000000e+00	
-35.4	0.000000e+00	0.000000e+00	
-34.9	0.000000e+00	0.000000e+00	
-34.4	0.000000e+00	0.000000e+00	
-33.9	0.000000e+00	0.000000e+00	
-33.4	0.000000e+00	0.000000e+00	
-32.9	0.000000e+00	0.000000e+00	
-32.4	0.000000e+00	0.000000e+00	
-31.9	0.000000e+00	0.000000e+00	
-31.4	0.000000e+00	0.000000e+00	
-30.9	0.000000e+00	0.000000e+00	
-30.4	0.000000e+00	0.000000e+00	
-29.9	0.000000e+00	0.000000e+00	
-29.4	0.000000e+00	0.000000e+00	
-28.9	0.000000e+00	0.000000e+00	
-28.4	0.000000e+00	0.000000e+00	
-27.9	0.000000e+00	0.000000e+00	
-27.4	0.000000e+00	0.000000e+00	
-26.9	0.000000e+00	0.000000e+00	
-26.4	0.000000e+00	0.000000e+00	
-25.9	0.000000e+00	0.000000e+00	
-25.4	0.000000e+00	0.000000e+00	
-24.9	0.000000e+00	0.000000e+00	
-24.4	0.000000e+00	0.000000e+00	
-23.9	0.000000e+00	0.000000e+00	
-23.4	0.000000e+00	0.000000e+00	
-22.9	0.000000e+00	0.000000e+00	
-22.4	0.000000e+00	0.000000e+00	
-21.9	0.000000e+00	0.000000e+00	
-21.4	0.000000e+00	0.000000e+00	
-20.9	0.000000e+00	0.000000e+00	
-20.4	0.000000e+00	0.000000e+00	
-19.8	0.000000e+00	0.000000e+00	
-19.3	0.000000e+00	0.000000e+00	
-18.8	0.000000e+00	0.000000e+00	
-18.3	0.000000e+00	0.000000e+00	
-17.8	0.000000e+00	0.000000e+00	
-17.3	0.000000e+00	0.000000e+00	
-16.8	0.000000e+00	0.000000e+00	
-16.3	0.000000e+00	0.000000e+00	
-15.8	0.000000e+00	0.000000e+00	
-15.3	0.000000e+00	0.000000e+00	
-14.8	0.000000e+00	0.000000e+00	
-14.3	0.000000e+00	0.000000e+00	
-13.8	0.000000e+00	0.000000e+00	
-13.3	0.000000e+00	0.000000e+00	
-12.8	0.000000e+00	0.000000e+00	
-12.3	0.000000e+00	0.000000e+00	
-11.8	0.000000e+00	0.000000e+00	
-11.3	0.000000e+00	0.000000e+00	
-10.8	0.000000e+00	0.000000e+00	
-10.3	0.000000e+00	0.000000e+00	
-9.8	0.000000e+00	0.000000e+00	
-9.3	0.000000e+00	0.000000e+00	
-8.8	0.000000e+00	-4.159632e-33	
-8.3	0.000000e+00	-4.159632e-33	
-7.8	0.000000e+00	1.456250e-31	
-7.3	0.000000e+00	1.456250e-31	
-6.8	0.000000e+00	1.459495e-28	
-6.3	0.000000e+00	1.459495e-28	
-5.8	0.000000e+00	-4.575301e-27	
-5.3	0.000000e+00	-4.575301e-27	
-4.8	0.000000e+00	-2.285021e-24	
-4.3	0.000000e+00	-2.285021e-24	
-3.8	0.000000e+00	6.290925e-23	
-3.3	0.000000e+00	6.290925e-23	
-2.8	0.000000e+00	2.095347e-20	
-2.3	0.000000e+00	2.095347e-20	
-1.8	0.000000e+00	-4.941691e-19	
-1.3	0.000000e+00	-4.941691e-19	
-0.8	0.000000e+00	-1.240284e-16	
-0.3	0.000000e+00	-1.240284e-16	
0.3	0.000000e+00	2.423271e-15	
0.8	0.000000e+00	2.423271e-15	
1.3	0.000000e+00	4.914595e-13	
1.8	0.000000e+00	4.914595e-13	
2.3	0.000000e+00	-7.581224e-12	
2.8	0.000000e+00	-7.581224e-12	
3.3	0.000000e+00	-1.303599e-09	
3.8	0.000000e+00	-1.303599e-09	
4.3	0.000000e+00	1.470761e-08	
4.8	0.000000e+00	1.470761e-08	
5.3	0.000000e+00	2.231822e-06	
5.8	0.000000e+00	2.231822e-06	
6.3	0.000000e+00	-1.593919e-05	
6.8	0.000000e+00	-1.593919e-05	
7.3	0.000000e+00	-2.237431e-03	
7.8	0.000000e+00	-2.237431e-03	
8.3	0.000000e+00	6.796912e-03	
8.8	0.000000e+00	6.796912e-03	
9.3	1.000000e+00	1.000000e+00	
9.8	1.000000e+00	1.000000e+00	
10.3	1.000000e+00	1.000000e+00	
10.8	1.000000e+00	1.000000e+00	
11.3	1.000000e+00	1.000000e+00	
11.8	1.000000e+00	1.000000e+00	
12.3	1.000000e+00	1.000000e+00	
12.8	1.000000e+00	1.000000e+00	
13.3	1.000000e+00	1.000000e+00	
13.8	1.000000e+00	1.000000e+00	
14.3	1.000000e+00	1.000000e+00	
14.8	1.000000e+00	1.000000e+00	
15.3	1.000000e+00	1.000000e+00	
15.8	1.000000e+00	1.000000e+00	
16.3	1.000000e+00	1.000000e+00	
16.8	1.000000e+00	1.000000e+00	
17.3	1.000000e+00	1.000000e+00	
17.8	1.000000e+00	1.000000e+00	
18.3	1.000000e+00	1.000000e+00	
18.8	1.000000e+00	1.000000e+00	
19.3	1.000000e+00	1.000000e+00	
19.8	1.000000e+00	1.000000e+00	
20.4	1.000000e+00	1.000000e+00	
20.9	1.000000e+00	1.000000e+00	
21.4	1.000000e+00	1.000000e+00	
21.9	1.000000e+00	1.000000e+00	
22.4	1.000000e+00	1.000000e+00	
22.9	1.000000e+00	1.000000e+00	
23.4	1.000000e+00	1.000000e+00	
23.9	1.000000e+00	1.000000e+00	
24.4	1.000000e+00	1.000000e+00	
24.9	1.000000e+00	1.000000e+00	
25.4	1.000000e+00	1.000000e+00	
25.9	1.000000e+00	1.000000e+00	
26.4	1.000000e+00	1.000000e+00	
26.9	1.000000e+00	1.000000e+00	
27.4	1.000000e+00	1.000000e+00	
27.9	1.000000e+00	1.000000e+00	
28.4	1.000000e+00	1.000000e+00	
28.9	1.000000e+00	1.000000e+00	
29.4	1.000000e+00	1.000000e+00	
29.9	1.000000e+00	1.000000e+00	
30.4	1.000000e+00	1.000000e+00	
30.9	1.000000e+00	1.000000e+00	
31.4	1.000000e+00	1.000000e+00	
31.9	1.000000e+00	1.000000e+00	
32.4	1.000000e+00	1.000000e+00	
32.9	1.000000e+00	1.000000e+00	
33.4	1.000000e+00	1.000000e+00	
33.9	1.000000e+00	1.000000e+00	
34.4	1.000000e+00	1.000000e+00	
34.9	1.000000e+00	1.000000e+00	
35.4	1.000000e+00	1.000000e+00	
35.9	1.000000e+00	1.000000e+00	
36.4	1.000000e+00	1.000000e+00	
36.9	1.000000e+00	1.000000e+00	
37.4	1.000000e+00	1.000000e+00	
37.9	1.000000e+00	1.000000e+00	
38.4	1.000000e+00	1.000000e+00	
38.9	1.000000e+00	1.000000e+00	
39.4	1.000000e+00	1.000000e+00	
39.9	1.000000e+00	1.000000e+00	
40.5	1.000000e+00	1.000000e+00	
41.0	1.000000e+00	1.000000e+00	
41.5	1.000000e+00	1.000000e+00	
42.0	1.000000e+00	1.000000e+00	
42.5	1.000000e+00	1.000000e+00	
43.0	1.000000e+00	1.000000e+00	
43.5	1.000000e+00	1.000000e+00	
44.0	1.000000e+00	1.000000e+00	
44.5	1.000000e+00	1.000000e+00	
45.0	1.000000e+00	1.000000e+00	
45.5	1.000000e+00	1.000000e+00	
46.0	1.000000e+00	1.000000e+00	
46.5	1.000000e+00	1.000000e+00	
47.0	1.000000e+00	1.000000e+00	
47.5	1.000000e+00	1.000000e+00	
48.0	1.000000e+00	1.000000e+00	
48.5	1.000000e+00	1.000000e+00	
49.0	1.000000e+00	1.000000e+00	
49.5	1.000000e+00	1.000000e+00	
50.0	1.000000e+00	1.000000e+00	
