-50.0	0.000000e+00	0.000000e+00	
-49.9	0.000000e+00	0.000000e+00	
-49.8	0.000000e+00	0.000000e+00	
-49.7	0.000000e+00	0.000000e+00	
-49.6	0.000000e+00	0.000000e+00	
-49.5	0.000000e+00	0.000000e+00	
-49.4	0.000000e+00	0.000000e+00	
-49.3	0.000000e+00	0.000000e+00	
-49.2	0.000000e+00	0.000000e+00	
-49.1	0.000000e+00	0.000000e+00	
-49.0	0.000000e+00	0.000000e+00	
-48.9	0.000000e+00	0.000000e+00	
-48.8	0.000000e+00	0.000000e+00	
-48.7	0.000000e+00	0.000000e+00	
-48.6	0.000000e+00	0.000000e+00	
-48.5	0.000000e+00	0.000000e+00	
-48.4	0.000000e+00	0.000000e+00	
-48.3	0.000000e+00	0.000000e+00	
-48.2	0.000000e+00	0.000000e+00	
-48.1	0.000000e+00	0.000000e+00	
-48.0	0.000000e+00	0.000000e+00	
-47.9	0.000000e+00	0.000000e+00	
-47.8	0.000000e+00	0.000000e+00	
-47.7	0.000000e+00	0.000000e+00	
-47.6	0.000000e+00	0.000000e+00	
-47.5	0.000000e+00	0.000000e+00	
-47.4	0.000000e+00	0.000000e+00	
-47.3	0.000000e+00	0.000000e+00	
-47.2	0.000000e+00	0.000000e+00	
-47.1	0.000000e+00	0.000000e+00	
-47.0	0.000000e+00	0.000000e+00	
-46.9	0.000000e+00	0.000000e+00	
-46.8	0.000000e+00	0.000000e+00	
-46.7	0.000000e+00	0.000000e+00	
-46.6	0.000000e+00	0.000000e+00	
-46.5	0.000000e+00	0.000000e+00	
-46.4	0.000000e+00	0.000000e+00	
-46.3	0.000000e+00	0.000000e+00	
-46.2	0.000000e+00	0.000000e+00	
-46.1	0.000000e+00	0.000000e+00	
-46.0	0.000000e+00	0.000000e+00	
-45.9	0.000000e+00	0.000000e+00	
-45.8	0.000000e+00	0.000000e+00	
-45.7	0.000000e+00	0.000000e+00	
-45.6	0.000000e+00	0.000000e+00	
-45.5	0.000000e+00	0.000000e+00	
-45.4	0.000000e+00	0.000000e+00	
-45.3	0.000000e+00	0.000000e+00	
-45.2	0.000000e+00	0.000000e+00	
-45.1	0.000000e+00	0.000000e+00	
-45.0	0.000000e+00	0.000000e+00	
-44.9	0.000000e+00	0.000000e+00	
-44.8	0.000000e+00	0.000000e+00	
-44.7	0.000000e+00	0.000000e+00	
-44.6	0.000000e+00	0.000000e+00	
-44.5	0.000000e+00	0.000000e+00	
-44.4	0.000000e+00	0.000000e+00	
-44.3	0.000000e+00	0.000000e+00	
-44.2	0.000000e+00	0.000000e+00	
-44.1	0.000000e+00	0.000000e+00	
-44.0	0.000000e+00	0.000000e+00	
-43.9	0.000000e+00	0.000000e+00	
-43.8	0.000000e+00	0.000000e+00	
-43.7	0.000000e+00	0.000000e+00	
-43.6	0.000000e+00	0.000000e+00	
-43.5	0.000000e+00	0.000000e+00	
-43.4	0.000000e+00	0.000000e+00	
-43.3	0.000000e+00	0.000000e+00	
-43.2	0.000000e+00	0.000000e+00	
-43.1	0.000000e+00	0.000000e+00	
-43.0	0.000000e+00	0.000000e+00	
-42.9	0.000000e+00	0.000000e+00	
-42.8	0.000000e+00	0.000000e+00	
-42.7	0.000000e+00	0.000000e+00	
-42.6	0.000000e+00	0.000000e+00	
-42.5	0.000000e+00	0.000000e+00	
-42.4	0.000000e+00	0.000000e+00	
-42.3	0.000000e+00	0.000000e+00	
-42.2	0.000000e+00	0.000000e+00	
-42.1	0.000000e+00	0.000000e+00	
-42.0	0.000000e+00	0.000000e+00	
-41.9	0.000000e+00	0.000000e+00	
-41.8	0.000000e+00	0.000000e+00	
-41.7	0.000000e+00	0.000000e+00	
-41.6	0.000000e+00	0.000000e+00	
-41.5	0.000000e+00	0.000000e+00	
-41.4	0.000000e+00	0.000000e+00	
-41.3	0.000000e+00	0.000000e+00	
-41.2	0.000000e+00	0.000000e+00	
-41.1	0.000000e+00	0.000000e+00	
-41.0	0.000000e+00	0.000000e+00	
-40.9	0.000000e+00	0.000000e+00	
-40.8	0.000000e+00	0.000000e+00	
-40.7	0.000000e+00	0.000000e+00	
-40.6	0.000000e+00	0.000000e+00	
-40.5	0.000000e+00	0.000000e+00	
-40.4	0.000000e+00	0.000000e+00	
-40.3	0.000000e+00	0.000000e+00	
-40.2	0.000000e+00	0.000000e+00	
-40.1	0.000000e+00	0.000000e+00	
-40.0	0.000000e+00	0.000000e+00	
-39.9	0.000000e+00	0.000000e+00	
-39.8	0.000000e+00	0.000000e+00	
-39.7	0.000000e+00	0.000000e+00	
-39.6	0.000000e+00	0.000000e+00	
-39.5	0.000000e+00	0.000000e+00	
-39.4	0.000000e+00	0.000000e+00	
-39.3	0.000000e+00	0.000000e+00	
-39.2	0.000000e+00	0.000000e+00	
-39.1	0.000000e+00	0.000000e+00	
-39.0	0.000000e+00	0.000000e+00	
-38.9	0.000000e+00	0.000000e+00	
-38.8	0.000000e+00	0.000000e+00	
-38.7	0.000000e+00	0.000000e+00	
-38.6	0.000000e+00	0.000000e+00	
-38.5	0.000000e+00	0.000000e+00	
-38.4	0.000000e+00	0.000000e+00	
-38.3	0.000000e+00	0.000000e+00	
-38.2	0.000000e+00	0.000000e+00	
-38.1	0.000000e+00	0.000000e+00	
-38.0	0.000000e+00	0.000000e+00	
-37.9	0.000000e+00	0.000000e+00	
-37.8	0.000000e+00	0.000000e+00	
-37.7	0.000000e+00	0.000000e+00	
-37.6	0.000000e+00	0.000000e+00	
-37.5	0.000000e+00	0.000000e+00	
-37.4	0.000000e+00	0.000000e+00	
-37.3	0.000000e+00	0.000000e+00	
-37.2	0.000000e+00	0.000000e+00	
-37.1	0.000000e+00	0.000000e+00	
-37.0	0.000000e+00	0.000000e+00	
-36.9	0.000000e+00	0.000000e+00	
-36.8	0.000000e+00	0.000000e+00	
-36.7	0.000000e+00	0.000000e+00	
-36.6	0.000000e+00	0.000000e+00	
-36.5	0.000000e+00	0.000000e+00	
-36.4	0.000000e+00	0.000000e+00	
-36.3	0.000000e+00	0.000000e+00	
-36.2	0.000000e+00	0.000000e+00	
-36.1	0.000000e+00	0.000000e+00	
-36.0	0.000000e+00	0.000000e+00	
-35.9	0.000000e+00	0.000000e+00	
-35.8	0.000000e+00	0.000000e+00	
-35.7	0.000000e+00	0.000000e+00	
-35.6	0.000000e+00	0.000000e+00	
-35.5	0.000000e+00	0.000000e+00	
-35.4	0.000000e+00	0.000000e+00	
-35.3	0.000000e+00	0.000000e+00	
-35.2	0.000000e+00	0.000000e+00	
-35.1	0.000000e+00	0.000000e+00	
-35.0	0.000000e+00	0.000000e+00	
-34.9	0.000000e+00	0.000000e+00	
-34.8	0.000000e+00	0.000000e+00	
-34.7	0.000000e+00	0.000000e+00	
-34.6	0.000000e+00	0.000000e+00	
-34.5	0.000000e+00	0.000000e+00	
-34.4	0.000000e+00	0.000000e+00	
-34.3	0.000000e+00	0.000000e+00	
-34.2	0.000000e+00	0.000000e+00	
-34.1	0.000000e+00	0.000000e+00	
-34.0	0.000000e+00	0.000000e+00	
-33.9	0.000000e+00	0.000000e+00	
-33.8	0.000000e+00	0.000000e+00	
-33.7	0.000000e+00	0.000000e+00	
-33.6	0.000000e+00	0.000000e+00	
-33.5	0.000000e+00	0.000000e+00	
-33.4	0.000000e+00	0.000000e+00	
-33.3	0.000000e+00	0.000000e+00	
-33.2	0.000000e+00	0.000000e+00	
-33.1	0.000000e+00	0.000000e+00	
-33.0	0.000000e+00	0.000000e+00	
-32.9	0.000000e+00	0.000000e+00	
-32.8	0.000000e+00	0.000000e+00	
-32.7	0.000000e+00	0.000000e+00	
-32.6	0.000000e+00	0.000000e+00	
-32.5	0.000000e+00	0.000000e+00	
-32.4	0.000000e+00	0.000000e+00	
-32.3	0.000000e+00	0.000000e+00	
-32.2	0.000000e+00	0.000000e+00	
-32.1	0.000000e+00	0.000000e+00	
-32.0	0.000000e+00	0.000000e+00	
-31.9	0.000000e+00	0.000000e+00	
-31.8	0.000000e+00	0.000000e+00	
-31.7	0.000000e+00	0.000000e+00	
-31.6	0.000000e+00	0.000000e+00	
-31.5	0.000000e+00	0.000000e+00	
-31.4	0.000000e+00	0.000000e+00	
-31.3	0.000000e+00	0.000000e+00	
-31.2	0.000000e+00	0.000000e+00	
-31.1	0.000000e+00	0.000000e+00	
-31.0	0.000000e+00	0.000000e+00	
-30.9	0.000000e+00	0.000000e+00	
-30.8	0.000000e+00	0.000000e+00	
-30.7	0.000000e+00	0.000000e+00	
-30.6	0.000000e+00	0.000000e+00	
-30.5	0.000000e+00	0.000000e+00	
-30.4	0.000000e+00	0.000000e+00	
-30.3	0.000000e+00	0.000000e+00	
-30.2	0.000000e+00	0.000000e+00	
-30.1	0.000000e+00	0.000000e+00	
-30.0	0.000000e+00	0.000000e+00	
-29.9	0.000000e+00	0.000000e+00	
-29.8	0.000000e+00	0.000000e+00	
-29.7	0.000000e+00	0.000000e+00	
-29.6	0.000000e+00	0.000000e+00	
-29.5	0.000000e+00	0.000000e+00	
-29.4	0.000000e+00	0.000000e+00	
-29.3	0.000000e+00	0.000000e+00	
-29.2	0.000000e+00	0.000000e+00	
-29.1	0.000000e+00	0.000000e+00	
-29.0	0.000000e+00	0.000000e+00	
-28.9	0.000000e+00	0.000000e+00	
-28.8	0.000000e+00	0.000000e+00	
-28.7	0.000000e+00	0.000000e+00	
-28.6	0.000000e+00	0.000000e+00	
-28.5	0.000000e+00	0.000000e+00	
-28.4	0.000000e+00	0.000000e+00	
-28.3	0.000000e+00	0.000000e+00	
-28.2	0.000000e+00	0.000000e+00	
-28.1	0.000000e+00	0.000000e+00	
-28.0	0.000000e+00	0.000000e+00	
-27.9	0.000000e+00	0.000000e+00	
-27.8	0.000000e+00	0.000000e+00	
-27.7	0.000000e+00	0.000000e+00	
-27.6	0.000000e+00	0.000000e+00	
-27.5	0.000000e+00	0.000000e+00	
-27.4	0.000000e+00	0.000000e+00	
-27.3	0.000000e+00	0.000000e+00	
-27.2	0.000000e+00	0.000000e+00	
-27.1	0.000000e+00	0.000000e+00	
-27.0	0.000000e+00	0.000000e+00	
-26.9	0.000000e+00	0.000000e+00	
-26.8	0.000000e+00	0.000000e+00	
-26.7	0.000000e+00	0.000000e+00	
-26.6	0.000000e+00	0.000000e+00	
-26.5	0.000000e+00	0.000000e+00	
-26.4	0.000000e+00	0.000000e+00	
-26.3	0.000000e+00	0.000000e+00	
-26.2	0.000000e+00	0.000000e+00	
-26.1	0.000000e+00	0.000000e+00	
-26.0	0.000000e+00	0.000000e+00	
-25.9	0.000000e+00	0.000000e+00	
-25.8	0.000000e+00	0.000000e+00	
-25.7	0.000000e+00	0.000000e+00	
-25.6	0.000000e+00	0.000000e+00	
-25.5	0.000000e+00	0.000000e+00	
-25.4	0.000000e+00	0.000000e+00	
-25.3	0.000000e+00	0.000000e+00	
-25.2	0.000000e+00	0.000000e+00	
-25.1	0.000000e+00	0.000000e+00	
-25.0	0.000000e+00	0.000000e+00	
-24.9	0.000000e+00	0.000000e+00	
-24.8	0.000000e+00	0.000000e+00	
-24.7	0.000000e+00	0.000000e+00	
-24.6	0.000000e+00	0.000000e+00	
-24.5	0.000000e+00	0.000000e+00	
-24.4	0.000000e+00	0.000000e+00	
-24.3	0.000000e+00	0.000000e+00	
-24.2	0.000000e+00	0.000000e+00	
-24.1	0.000000e+00	0.000000e+00	
-24.0	0.000000e+00	0.000000e+00	
-23.9	0.000000e+00	0.000000e+00	
-23.8	0.000000e+00	0.000000e+00	
-23.7	0.000000e+00	0.000000e+00	
-23.6	0.000000e+00	0.000000e+00	
-23.5	0.000000e+00	0.000000e+00	
-23.4	0.000000e+00	0.000000e+00	
-23.3	0.000000e+00	0.000000e+00	
-23.2	0.000000e+00	0.000000e+00	
-23.1	0.000000e+00	0.000000e+00	
-23.0	0.000000e+00	0.000000e+00	
-22.9	0.000000e+00	0.000000e+00	
-22.8	0.000000e+00	0.000000e+00	
-22.7	0.000000e+00	0.000000e+00	
-22.6	0.000000e+00	0.000000e+00	
-22.5	0.000000e+00	0.000000e+00	
-22.4	0.000000e+00	0.000000e+00	
-22.3	0.000000e+00	0.000000e+00	
-22.2	0.000000e+00	0.000000e+00	
-22.1	0.000000e+00	0.000000e+00	
-22.0	0.000000e+00	0.000000e+00	
-21.9	0.000000e+00	0.000000e+00	
-21.8	0.000000e+00	0.000000e+00	
-21.7	0.000000e+00	0.000000e+00	
-21.6	0.000000e+00	0.000000e+00	
-21.5	0.000000e+00	0.000000e+00	
-21.4	0.000000e+00	0.000000e+00	
-21.3	0.000000e+00	0.000000e+00	
-21.2	0.000000e+00	0.000000e+00	
-21.1	0.000000e+00	0.000000e+00	
-21.0	0.000000e+00	0.000000e+00	
-20.9	0.000000e+00	0.000000e+00	
-20.8	0.000000e+00	0.000000e+00	
-20.7	0.000000e+00	0.000000e+00	
-20.6	0.000000e+00	0.000000e+00	
-20.5	0.000000e+00	0.000000e+00	
-20.4	0.000000e+00	0.000000e+00	
-20.3	0.000000e+00	0.000000e+00	
-20.2	0.000000e+00	0.000000e+00	
-20.1	0.000000e+00	0.000000e+00	
-20.0	0.000000e+00	0.000000e+00	
-19.9	0.000000e+00	0.000000e+00	
-19.8	0.000000e+00	0.000000e+00	
-19.7	0.000000e+00	0.000000e+00	
-19.6	0.000000e+00	0.000000e+00	
-19.5	0.000000e+00	0.000000e+00	
-19.4	0.000000e+00	0.000000e+00	
-19.3	0.000000e+00	0.000000e+00	
-19.2	0.000000e+00	0.000000e+00	
-19.1	0.000000e+00	0.000000e+00	
-19.0	0.000000e+00	0.000000e+00	
-18.9	0.000000e+00	0.000000e+00	
-18.8	0.000000e+00	0.000000e+00	
-18.7	0.000000e+00	0.000000e+00	
-18.6	0.000000e+00	0.000000e+00	
-18.5	0.000000e+00	0.000000e+00	
-18.4	0.000000e+00	0.000000e+00	
-18.3	0.000000e+00	0.000000e+00	
-18.2	0.000000e+00	0.000000e+00	
-18.1	0.000000e+00	0.000000e+00	
-18.0	0.000000e+00	0.000000e+00	
-17.9	0.000000e+00	0.000000e+00	
-17.8	0.000000e+00	0.000000e+00	
-17.7	0.000000e+00	0.000000e+00	
-17.6	0.000000e+00	0.000000e+00	
-17.5	0.000000e+00	0.000000e+00	
-17.4	0.000000e+00	0.000000e+00	
-17.3	0.000000e+00	0.000000e+00	
-17.2	0.000000e+00	0.000000e+00	
-17.1	0.000000e+00	0.000000e+00	
-17.0	0.000000e+00	0.000000e+00	
-16.9	0.000000e+00	0.000000e+00	
-16.8	0.000000e+00	0.000000e+00	
-16.7	0.000000e+00	0.000000e+00	
-16.6	0.000000e+00	0.000000e+00	
-16.5	0.000000e+00	0.000000e+00	
-16.4	0.000000e+00	0.000000e+00	
-16.3	0.000000e+00	0.000000e+00	
-16.2	0.000000e+00	0.000000e+00	
-16.1	0.000000e+00	0.000000e+00	
-16.0	0.000000e+00	0.000000e+00	
-15.9	0.000000e+00	0.000000e+00	
-15.8	0.000000e+00	0.000000e+00	
-15.7	0.000000e+00	0.000000e+00	
-15.6	0.000000e+00	0.000000e+00	
-15.5	0.000000e+00	0.000000e+00	
-15.4	0.000000e+00	0.000000e+00	
-15.3	0.000000e+00	0.000000e+00	
-15.2	0.000000e+00	0.000000e+00	
-15.1	0.000000e+00	0.000000e+00	
-15.0	0.000000e+00	0.000000e+00	
-14.9	0.000000e+00	0.000000e+00	
-14.8	0.000000e+00	0.000000e+00	
-14.7	0.000000e+00	0.000000e+00	
-14.6	0.000000e+00	0.000000e+00	
-14.5	0.000000e+00	0.000000e+00	
-14.4	0.000000e+00	0.000000e+00	
-14.3	0.000000e+00	0.000000e+00	
-14.2	0.000000e+00	0.000000e+00	
-14.1	0.000000e+00	0.000000e+00	
-14.0	0.000000e+00	0.000000e+00	
-13.9	0.000000e+00	0.000000e+00	
-13.8	0.000000e+00	0.000000e+00	
-13.7	0.000000e+00	0.000000e+00	
-13.6	0.000000e+00	0.000000e+00	
-13.5	0.000000e+00	0.000000e+00	
-13.4	0.000000e+00	0.000000e+00	
-13.3	0.000000e+00	0.000000e+00	
-13.2	0.000000e+00	0.000000e+00	
-13.1	0.000000e+00	0.000000e+00	
-13.0	0.000000e+00	0.000000e+00	
-12.9	0.000000e+00	0.000000e+00	
-12.8	0.000000e+00	0.000000e+00	
-12.7	0.000000e+00	0.000000e+00	
-12.6	0.000000e+00	0.000000e+00	
-12.5	0.000000e+00	0.000000e+00	
-12.4	0.000000e+00	0.000000e+00	
-12.3	0.000000e+00	0.000000e+00	
-12.2	0.000000e+00	0.000000e+00	
-12.1	0.000000e+00	0.000000e+00	
-12.0	0.000000e+00	0.000000e+00	
-11.9	0.000000e+00	0.000000e+00	
-11.8	0.000000e+00	0.000000e+00	
-11.7	0.000000e+00	0.000000e+00	
-11.6	0.000000e+00	0.000000e+00	
-11.5	0.000000e+00	0.000000e+00	
-11.4	0.000000e+00	0.000000e+00	
-11.3	0.000000e+00	0.000000e+00	
-11.2	0.000000e+00	0.000000e+00	
-11.1	0.000000e+00	0.000000e+00	
-11.0	0.000000e+00	0.000000e+00	
-10.9	0.000000e+00	0.000000e+00	
-10.8	0.000000e+00	0.000000e+00	
-10.7	0.000000e+00	0.000000e+00	
-10.6	0.000000e+00	0.000000e+00	
-10.5	0.000000e+00	0.000000e+00	
-10.4	0.000000e+00	0.000000e+00	
-10.3	0.000000e+00	0.000000e+00	
-10.2	0.000000e+00	0.000000e+00	
-10.1	0.000000e+00	0.000000e+00	
-10.0	0.000000e+00	0.000000e+00	
-9.9	0.000000e+00	0.000000e+00	
-9.8	0.000000e+00	0.000000e+00	
-9.7	0.000000e+00	0.000000e+00	
-9.6	0.000000e+00	0.000000e+00	
-9.5	0.000000e+00	0.000000e+00	
-9.4	0.000000e+00	0.000000e+00	
-9.3	0.000000e+00	0.000000e+00	
-9.2	0.000000e+00	0.000000e+00	
-9.1	0.000000e+00	0.000000e+00	
-9.0	0.000000e+00	0.000000e+00	
-8.9	0.000000e+00	0.000000e+00	
-8.8	0.000000e+00	1.683211e-243	
-8.7	0.000000e+00	-5.918468e-241	
-8.6	0.000000e+00	1.830977e-239	
-8.5	0.000000e+00	1.761097e-236	
-8.4	0.000000e+00	-1.949744e-234	
-8.3	0.000000e+00	-2.169836e-232	
-8.2	0.000000e+00	4.389621e-230	
-8.1	0.000000e+00	9.718397e-229	
-8.0	0.000000e+00	-5.717816e-226	
-7.9	0.000000e+00	9.881848e-225	
-7.8	0.000000e+00	5.171708e-222	
-7.7	0.000000e+00	-2.320881e-220	
-7.6	0.000000e+00	-3.489250e-218	
-7.5	0.000000e+00	2.496055e-216	
-7.4	0.000000e+00	1.799387e-214	
-7.3	0.000000e+00	-1.902745e-212	
-7.2	0.000000e+00	-6.934470e-211	
-7.1	0.000000e+00	1.145903e-208	
-7.0	0.000000e+00	1.714554e-207	
-6.9	0.000000e+00	-5.726163e-205	
-6.8	0.000000e+00	1.518430e-205	
-6.7	0.000000e+00	2.441816e-201	
-6.6	0.000000e+00	-3.028672e-200	
-6.5	0.000000e+00	-9.046908e-198	
-6.4	0.000000e+00	2.086850e-196	
-6.3	0.000000e+00	2.947497e-194	
-6.2	0.000000e+00	-9.812957e-193	
-6.1	0.000000e+00	-8.511229e-191	
-6.0	0.000000e+00	3.740309e-189	
-5.9	0.000000e+00	2.187757e-187	
-5.8	0.000000e+00	-1.224868e-185	
-5.7	0.000000e+00	-5.008534e-184	
-5.6	0.000000e+00	3.545737e-182	
-5.5	0.000000e+00	1.016479e-180	
-5.4	0.000000e+00	-9.227729e-179	
-5.3	0.000000e+00	-1.803525e-177	
-5.2	0.000000e+00	2.183550e-175	
-5.1	0.000000e+00	2.701100e-174	
-5.0	0.000000e+00	-4.736626e-172	
-4.9	0.000000e+00	-3.077684e-171	
-4.8	0.000000e+00	9.478492e-169	
-4.7	0.000000e+00	1.453905e-168	
-4.6	0.000000e+00	-1.758532e-165	
-4.5	0.000000e+00	4.878853e-165	
-4.4	0.000000e+00	3.037340e-162	
-4.3	0.000000e+00	-2.004197e-161	
-4.2	0.000000e+00	-4.900930e-159	
-4.1	0.000000e+00	4.929674e-158	
-4.0	0.000000e+00	7.409731e-156	
-3.9	0.000000e+00	-9.811564e-155	
-3.8	0.000000e+00	-1.052442e-152	
-3.7	0.000000e+00	1.706085e-151	
-3.6	0.000000e+00	1.407564e-149	
-3.5	0.000000e+00	-2.676321e-148	
-3.4	0.000000e+00	-1.776287e-146	
-3.3	0.000000e+00	3.852019e-145	
-3.2	0.000000e+00	2.119093e-143	
-3.1	0.000000e+00	-5.139160e-142	
-3.0	0.000000e+00	-2.394033e-140	
-2.9	0.000000e+00	6.398852e-139	
-2.8	0.000000e+00	2.565381e-137	
-2.7	0.000000e+00	-7.471661e-136	
-2.6	0.000000e+00	-2.611391e-134	
-2.5	0.000000e+00	8.211163e-133	
-2.4	0.000000e+00	2.528799e-131	
-2.3	0.000000e+00	-8.516839e-130	
-2.2	0.000000e+00	-2.332799e-128	
-2.1	0.000000e+00	8.356105e-127	
-2.0	0.000000e+00	2.052761e-125	
-1.9	0.000000e+00	-7.768976e-124	
-1.8	0.000000e+00	-1.725274e-122	
-1.7	0.000000e+00	6.854898e-121	
-1.6	0.000000e+00	1.386691e-119	
-1.5	0.000000e+00	-5.747084e-118	
-1.4	0.000000e+00	-1.067154e-116	
-1.3	0.000000e+00	4.582940e-115	
-1.2	0.000000e+00	7.872276e-114	
-1.1	0.000000e+00	-3.479003e-112	
-1.0	0.000000e+00	-5.572722e-111	
-0.9	0.000000e+00	2.515803e-109	
-0.8	0.000000e+00	3.789247e-108	
-0.7	0.000000e+00	-1.733993e-106	
-0.6	0.000000e+00	-2.477002e-105	
-0.5	0.000000e+00	1.139595e-103	
-0.4	0.000000e+00	1.557715e-102	
-0.3	0.000000e+00	-7.143646e-101	
-0.2	0.000000e+00	-9.428813e-100	
-0.1	0.000000e+00	4.272093e-98	
0.1	0.000000e+00	5.494914e-97	
0.2	0.000000e+00	-2.437543e-95	
0.3	0.000000e+00	-3.083400e-94	
0.4	0.000000e+00	1.326931e-92	
0.5	0.000000e+00	1.665693e-91	
0.6	0.000000e+00	-6.890915e-90	
0.7	0.000000e+00	-8.659497e-89	
0.8	0.000000e+00	3.413022e-87	
0.9	0.000000e+00	4.329843e-86	
1.0	0.000000e+00	-1.611712e-84	
1.1	0.000000e+00	-2.080692e-83	
1.2	0.000000e+00	7.253084e-82	
1.3	0.000000e+00	9.600897e-81	
1.4	0.000000e+00	-3.108774e-79	
1.5	0.000000e+00	-4.249595e-78	
1.6	0.000000e+00	1.268146e-76	
1.7	0.000000e+00	1.802360e-75	
1.8	0.000000e+00	-4.918970e-74	
1.9	0.000000e+00	-7.316323e-73	
2.0	0.000000e+00	1.812311e-71	
2.1	0.000000e+00	2.839094e-70	
2.2	0.000000e+00	-6.333940e-69	
2.3	0.000000e+00	-1.051874e-67	
2.4	0.000000e+00	2.096546e-66	
2.5	0.000000e+00	3.716121e-65	
2.6	0.000000e+00	-6.559530e-64	
2.7	0.000000e+00	-1.250219e-62	
2.8	0.000000e+00	1.935162e-61	
2.9	0.000000e+00	3.999979e-60	
3.0	0.000000e+00	-5.366417e-59	
3.1	0.000000e+00	-1.215299e-57	
3.2	0.000000e+00	1.393136e-56	
3.3	0.000000e+00	3.501109e-55	
3.4	0.000000e+00	-3.366675e-54	
3.5	0.000000e+00	-9.548212e-53	
3.6	0.000000e+00	7.512061e-52	
3.7	0.000000e+00	2.460783e-50	
3.8	0.000000e+00	-1.527892e-49	
3.9	0.000000e+00	-5.981754e-48	
4.0	0.000000e+00	2.769500e-47	
4.1	0.000000e+00	1.368572e-45	
4.2	0.000000e+00	-4.267522e-45	
4.3	0.000000e+00	-2.940075e-43	
4.4	0.000000e+00	4.880606e-43	
4.5	0.000000e+00	5.914633e-41	
4.6	0.000000e+00	-1.414340e-41	
4.7	0.000000e+00	-1.110761e-38	
4.8	0.000000e+00	-1.292844e-38	
4.9	0.000000e+00	1.940195e-36	
5.0	0.000000e+00	4.993282e-36	
5.1	0.000000e+00	-3.138266e-34	
5.2	0.000000e+00	-1.262357e-33	
5.3	0.000000e+00	4.675150e-32	
5.4	0.000000e+00	2.597889e-31	
5.5	0.000000e+00	-6.370126e-30	
5.6	0.000000e+00	-4.616672e-29	
5.7	0.000000e+00	7.865125e-28	
5.8	0.000000e+00	7.245276e-27	
5.9	0.000000e+00	-8.683137e-26	
6.0	0.000000e+00	-1.013076e-24	
6.1	0.000000e+00	8.392975e-24	
6.2	0.000000e+00	1.264784e-22	
6.3	0.000000e+00	-6.833724e-22	
6.4	0.000000e+00	-1.406879e-20	
6.5	0.000000e+00	4.277704e-20	
6.6	0.000000e+00	1.386571e-18	
6.7	0.000000e+00	-1.397803e-18	
6.8	0.000000e+00	-1.199744e-16	
6.9	0.000000e+00	-9.989090e-17	
7.0	0.000000e+00	8.988761e-15	
7.1	0.000000e+00	2.344181e-14	
7.2	0.000000e+00	-5.710279e-13	
7.3	0.000000e+00	-2.556226e-12	
7.4	0.000000e+00	2.971787e-11	
7.5	0.000000e+00	1.999165e-10	
7.6	0.000000e+00	-1.185860e-09	
7.7	0.000000e+00	-1.201904e-08	
7.8	0.000000e+00	3.031197e-08	
7.9	0.000000e+00	5.560264e-07	
8.0	0.000000e+00	-5.172472e-08	
8.1	0.000000e+00	-1.905981e-05	
8.2	0.000000e+00	-3.663923e-05	
8.3	0.000000e+00	4.404105e-04	
8.4	0.000000e+00	1.767848e-03	
8.5	0.000000e+00	-5.164845e-03	
8.6	0.000000e+00	-4.055342e-02	
8.7	0.000000e+00	-1.884929e-02	
8.8	0.000000e+00	3.701945e-01	
8.9	1.000000e+00	1.000000e+00	
9.0	1.000000e+00	1.000000e+00	
9.1	1.000000e+00	1.000000e+00	
9.2	1.000000e+00	1.000000e+00	
9.3	1.000000e+00	1.000000e+00	
9.4	1.000000e+00	1.000000e+00	
9.5	1.000000e+00	1.000000e+00	
9.6	1.000000e+00	1.000000e+00	
9.7	1.000000e+00	1.000000e+00	
9.8	1.000000e+00	1.000000e+00	
9.9	1.000000e+00	1.000000e+00	
10.0	1.000000e+00	1.000000e+00	
10.1	1.000000e+00	1.000000e+00	
10.2	1.000000e+00	1.000000e+00	
10.3	1.000000e+00	1.000000e+00	
10.4	1.000000e+00	1.000000e+00	
10.5	1.000000e+00	1.000000e+00	
10.6	1.000000e+00	1.000000e+00	
10.7	1.000000e+00	1.000000e+00	
10.8	1.000000e+00	1.000000e+00	
10.9	1.000000e+00	1.000000e+00	
11.0	1.000000e+00	1.000000e+00	
11.1	1.000000e+00	1.000000e+00	
11.2	1.000000e+00	1.000000e+00	
11.3	1.000000e+00	1.000000e+00	
11.4	1.000000e+00	1.000000e+00	
11.5	1.000000e+00	1.000000e+00	
11.6	1.000000e+00	1.000000e+00	
11.7	1.000000e+00	1.000000e+00	
11.8	1.000000e+00	1.000000e+00	
11.9	1.000000e+00	1.000000e+00	
12.0	1.000000e+00	1.000000e+00	
12.1	1.000000e+00	1.000000e+00	
12.2	1.000000e+00	1.000000e+00	
12.3	1.000000e+00	1.000000e+00	
12.4	1.000000e+00	1.000000e+00	
12.5	1.000000e+00	1.000000e+00	
12.6	1.000000e+00	1.000000e+00	
12.7	1.000000e+00	1.000000e+00	
12.8	1.000000e+00	1.000000e+00	
12.9	1.000000e+00	1.000000e+00	
13.0	1.000000e+00	1.000000e+00	
13.1	1.000000e+00	1.000000e+00	
13.2	1.000000e+00	1.000000e+00	
13.3	1.000000e+00	1.000000e+00	
13.4	1.000000e+00	1.000000e+00	
13.5	1.000000e+00	1.000000e+00	
13.6	1.000000e+00	1.000000e+00	
13.7	1.000000e+00	1.000000e+00	
13.8	1.000000e+00	1.000000e+00	
13.9	1.000000e+00	1.000000e+00	
14.0	1.000000e+00	1.000000e+00	
14.1	1.000000e+00	1.000000e+00	
14.2	1.000000e+00	1.000000e+00	
14.3	1.000000e+00	1.000000e+00	
14.4	1.000000e+00	1.000000e+00	
14.5	1.000000e+00	1.000000e+00	
14.6	1.000000e+00	1.000000e+00	
14.7	1.000000e+00	1.000000e+00	
14.8	1.000000e+00	1.000000e+00	
14.9	1.000000e+00	1.000000e+00	
15.0	1.000000e+00	1.000000e+00	
15.1	1.000000e+00	1.000000e+00	
15.2	1.000000e+00	1.000000e+00	
15.3	1.000000e+00	1.000000e+00	
15.4	1.000000e+00	1.000000e+00	
15.5	1.000000e+00	1.000000e+00	
15.6	1.000000e+00	1.000000e+00	
15.7	1.000000e+00	1.000000e+00	
15.8	1.000000e+00	1.000000e+00	
15.9	1.000000e+00	1.000000e+00	
16.0	1.000000e+00	1.000000e+00	
16.1	1.000000e+00	1.000000e+00	
16.2	1.000000e+00	1.000000e+00	
16.3	1.000000e+00	1.000000e+00	
16.4	1.000000e+00	1.000000e+00	
16.5	1.000000e+00	1.000000e+00	
16.6	1.000000e+00	1.000000e+00	
16.7	1.000000e+00	1.000000e+00	
16.8	1.000000e+00	1.000000e+00	
16.9	1.000000e+00	1.000000e+00	
17.0	1.000000e+00	1.000000e+00	
17.1	1.000000e+00	1.000000e+00	
17.2	1.000000e+00	1.000000e+00	
17.3	1.000000e+00	1.000000e+00	
17.4	1.000000e+00	1.000000e+00	
17.5	1.000000e+00	1.000000e+00	
17.6	1.000000e+00	1.000000e+00	
17.7	1.000000e+00	1.000000e+00	
17.8	1.000000e+00	1.000000e+00	
17.9	1.000000e+00	1.000000e+00	
18.0	1.000000e+00	1.000000e+00	
18.1	1.000000e+00	1.000000e+00	
18.2	1.000000e+00	1.000000e+00	
18.3	1.000000e+00	1.000000e+00	
18.4	1.000000e+00	1.000000e+00	
18.5	1.000000e+00	1.000000e+00	
18.6	1.000000e+00	1.000000e+00	
18.7	1.000000e+00	1.000000e+00	
18.8	1.000000e+00	1.000000e+00	
18.9	1.000000e+00	1.000000e+00	
19.0	1.000000e+00	1.000000e+00	
19.1	1.000000e+00	1.000000e+00	
19.2	1.000000e+00	1.000000e+00	
19.3	1.000000e+00	1.000000e+00	
19.4	1.000000e+00	1.000000e+00	
19.5	1.000000e+00	1.000000e+00	
19.6	1.000000e+00	1.000000e+00	
19.7	1.000000e+00	1.000000e+00	
19.8	1.000000e+00	1.000000e+00	
19.9	1.000000e+00	1.000000e+00	
20.0	1.000000e+00	1.000000e+00	
20.1	1.000000e+00	1.000000e+00	
20.2	1.000000e+00	1.000000e+00	
20.3	1.000000e+00	1.000000e+00	
20.4	1.000000e+00	1.000000e+00	
20.5	1.000000e+00	1.000000e+00	
20.6	1.000000e+00	1.000000e+00	
20.7	1.000000e+00	1.000000e+00	
20.8	1.000000e+00	1.000000e+00	
20.9	1.000000e+00	1.000000e+00	
21.0	1.000000e+00	1.000000e+00	
21.1	1.000000e+00	1.000000e+00	
21.2	1.000000e+00	1.000000e+00	
21.3	1.000000e+00	1.000000e+00	
21.4	1.000000e+00	1.000000e+00	
21.5	1.000000e+00	1.000000e+00	
21.6	1.000000e+00	1.000000e+00	
21.7	1.000000e+00	1.000000e+00	
21.8	1.000000e+00	1.000000e+00	
21.9	1.000000e+00	1.000000e+00	
22.0	1.000000e+00	1.000000e+00	
22.1	1.000000e+00	1.000000e+00	
22.2	1.000000e+00	1.000000e+00	
22.3	1.000000e+00	1.000000e+00	
22.4	1.000000e+00	1.000000e+00	
22.5	1.000000e+00	1.000000e+00	
22.6	1.000000e+00	1.000000e+00	
22.7	1.000000e+00	1.000000e+00	
22.8	1.000000e+00	1.000000e+00	
22.9	1.000000e+00	1.000000e+00	
23.0	1.000000e+00	1.000000e+00	
23.1	1.000000e+00	1.000000e+00	
23.2	1.000000e+00	1.000000e+00	
23.3	1.000000e+00	1.000000e+00	
23.4	1.000000e+00	1.000000e+00	
23.5	1.000000e+00	1.000000e+00	
23.6	1.000000e+00	1.000000e+00	
23.7	1.000000e+00	1.000000e+00	
23.8	1.000000e+00	1.000000e+00	
23.9	1.000000e+00	1.000000e+00	
24.0	1.000000e+00	1.000000e+00	
24.1	1.000000e+00	1.000000e+00	
24.2	1.000000e+00	1.000000e+00	
24.3	1.000000e+00	1.000000e+00	
24.4	1.000000e+00	1.000000e+00	
24.5	1.000000e+00	1.000000e+00	
24.6	1.000000e+00	1.000000e+00	
24.7	1.000000e+00	1.000000e+00	
24.8	1.000000e+00	1.000000e+00	
24.9	1.000000e+00	1.000000e+00	
25.0	1.000000e+00	1.000000e+00	
25.1	1.000000e+00	1.000000e+00	
25.2	1.000000e+00	1.000000e+00	
25.3	1.000000e+00	1.000000e+00	
25.4	1.000000e+00	1.000000e+00	
25.5	1.000000e+00	1.000000e+00	
25.6	1.000000e+00	1.000000e+00	
25.7	1.000000e+00	1.000000e+00	
25.8	1.000000e+00	1.000000e+00	
25.9	1.000000e+00	1.000000e+00	
26.0	1.000000e+00	1.000000e+00	
26.1	1.000000e+00	1.000000e+00	
26.2	1.000000e+00	1.000000e+00	
26.3	1.000000e+00	1.000000e+00	
26.4	1.000000e+00	1.000000e+00	
26.5	1.000000e+00	1.000000e+00	
26.6	1.000000e+00	1.000000e+00	
26.7	1.000000e+00	1.000000e+00	
26.8	1.000000e+00	1.000000e+00	
26.9	1.000000e+00	1.000000e+00	
27.0	1.000000e+00	1.000000e+00	
27.1	1.000000e+00	1.000000e+00	
27.2	1.000000e+00	1.000000e+00	
27.3	1.000000e+00	1.000000e+00	
27.4	1.000000e+00	1.000000e+00	
27.5	1.000000e+00	1.000000e+00	
27.6	1.000000e+00	1.000000e+00	
27.7	1.000000e+00	1.000000e+00	
27.8	1.000000e+00	1.000000e+00	
27.9	1.000000e+00	1.000000e+00	
28.0	1.000000e+00	1.000000e+00	
28.1	1.000000e+00	1.000000e+00	
28.2	1.000000e+00	1.000000e+00	
28.3	1.000000e+00	1.000000e+00	
28.4	1.000000e+00	1.000000e+00	
28.5	1.000000e+00	1.000000e+00	
28.6	1.000000e+00	1.000000e+00	
28.7	1.000000e+00	1.000000e+00	
28.8	1.000000e+00	1.000000e+00	
28.9	1.000000e+00	1.000000e+00	
29.0	1.000000e+00	1.000000e+00	
29.1	1.000000e+00	1.000000e+00	
29.2	1.000000e+00	1.000000e+00	
29.3	1.000000e+00	1.000000e+00	
29.4	1.000000e+00	1.000000e+00	
29.5	1.000000e+00	1.000000e+00	
29.6	1.000000e+00	1.000000e+00	
29.7	1.000000e+00	1.000000e+00	
29.8	1.000000e+00	1.000000e+00	
29.9	1.000000e+00	1.000000e+00	
30.0	1.000000e+00	1.000000e+00	
30.1	1.000000e+00	1.000000e+00	
30.2	1.000000e+00	1.000000e+00	
30.3	1.000000e+00	1.000000e+00	
30.4	1.000000e+00	1.000000e+00	
30.5	1.000000e+00	1.000000e+00	
30.6	1.000000e+00	1.000000e+00	
30.7	1.000000e+00	1.000000e+00	
30.8	1.000000e+00	1.000000e+00	
30.9	1.000000e+00	1.000000e+00	
31.0	1.000000e+00	1.000000e+00	
31.1	1.000000e+00	1.000000e+00	
31.2	1.000000e+00	1.000000e+00	
31.3	1.000000e+00	1.000000e+00	
31.4	1.000000e+00	1.000000e+00	
31.5	1.000000e+00	1.000000e+00	
31.6	1.000000e+00	1.000000e+00	
31.7	1.000000e+00	1.000000e+00	
31.8	1.000000e+00	1.000000e+00	
31.9	1.000000e+00	1.000000e+00	
32.0	1.000000e+00	1.000000e+00	
32.1	1.000000e+00	1.000000e+00	
32.2	1.000000e+00	1.000000e+00	
32.3	1.000000e+00	1.000000e+00	
32.4	1.000000e+00	1.000000e+00	
32.5	1.000000e+00	1.000000e+00	
32.6	1.000000e+00	1.000000e+00	
32.7	1.000000e+00	1.000000e+00	
32.8	1.000000e+00	1.000000e+00	
32.9	1.000000e+00	1.000000e+00	
33.0	1.000000e+00	1.000000e+00	
33.1	1.000000e+00	1.000000e+00	
33.2	1.000000e+00	1.000000e+00	
33.3	1.000000e+00	1.000000e+00	
33.4	1.000000e+00	1.000000e+00	
33.5	1.000000e+00	1.000000e+00	
33.6	1.000000e+00	1.000000e+00	
33.7	1.000000e+00	1.000000e+00	
33.8	1.000000e+00	1.000000e+00	
33.9	1.000000e+00	1.000000e+00	
34.0	1.000000e+00	1.000000e+00	
34.1	1.000000e+00	1.000000e+00	
34.2	1.000000e+00	1.000000e+00	
34.3	1.000000e+00	1.000000e+00	
34.4	1.000000e+00	1.000000e+00	
34.5	1.000000e+00	1.000000e+00	
34.6	1.000000e+00	1.000000e+00	
34.7	1.000000e+00	1.000000e+00	
34.8	1.000000e+00	1.000000e+00	
34.9	1.000000e+00	1.000000e+00	
35.0	1.000000e+00	1.000000e+00	
35.1	1.000000e+00	1.000000e+00	
35.2	1.000000e+00	1.000000e+00	
35.3	1.000000e+00	1.000000e+00	
35.4	1.000000e+00	1.000000e+00	
35.5	1.000000e+00	1.000000e+00	
35.6	1.000000e+00	1.000000e+00	
35.7	1.000000e+00	1.000000e+00	
35.8	1.000000e+00	1.000000e+00	
35.9	1.000000e+00	1.000000e+00	
36.0	1.000000e+00	1.000000e+00	
36.1	1.000000e+00	1.000000e+00	
36.2	1.000000e+00	1.000000e+00	
36.3	1.000000e+00	1.000000e+00	
36.4	1.000000e+00	1.000000e+00	
36.5	1.000000e+00	1.000000e+00	
36.6	1.000000e+00	1.000000e+00	
36.7	1.000000e+00	1.000000e+00	
36.8	1.000000e+00	1.000000e+00	
36.9	1.000000e+00	1.000000e+00	
37.0	1.000000e+00	1.000000e+00	
37.1	1.000000e+00	1.000000e+00	
37.2	1.000000e+00	1.000000e+00	
37.3	1.000000e+00	1.000000e+00	
37.4	1.000000e+00	1.000000e+00	
37.5	1.000000e+00	1.000000e+00	
37.6	1.000000e+00	1.000000e+00	
37.7	1.000000e+00	1.000000e+00	
37.8	1.000000e+00	1.000000e+00	
37.9	1.000000e+00	1.000000e+00	
38.0	1.000000e+00	1.000000e+00	
38.1	1.000000e+00	1.000000e+00	
38.2	1.000000e+00	1.000000e+00	
38.3	1.000000e+00	1.000000e+00	
38.4	1.000000e+00	1.000000e+00	
38.5	1.000000e+00	1.000000e+00	
38.6	1.000000e+00	1.000000e+00	
38.7	1.000000e+00	1.000000e+00	
38.8	1.000000e+00	1.000000e+00	
38.9	1.000000e+00	1.000000e+00	
39.0	1.000000e+00	1.000000e+00	
39.1	1.000000e+00	1.000000e+00	
39.2	1.000000e+00	1.000000e+00	
39.3	1.000000e+00	1.000000e+00	
39.4	1.000000e+00	1.000000e+00	
39.5	1.000000e+00	1.000000e+00	
39.6	1.000000e+00	1.000000e+00	
39.7	1.000000e+00	1.000000e+00	
39.8	1.000000e+00	1.000000e+00	
39.9	1.000000e+00	1.000000e+00	
40.0	1.000000e+00	1.000000e+00	
40.1	1.000000e+00	1.000000e+00	
40.2	1.000000e+00	1.000000e+00	
40.3	1.000000e+00	1.000000e+00	
40.4	1.000000e+00	1.000000e+00	
40.5	1.000000e+00	1.000000e+00	
40.6	1.000000e+00	1.000000e+00	
40.7	1.000000e+00	1.000000e+00	
40.8	1.000000e+00	1.000000e+00	
40.9	1.000000e+00	1.000000e+00	
41.0	1.000000e+00	1.000000e+00	
41.1	1.000000e+00	1.000000e+00	
41.2	1.000000e+00	1.000000e+00	
41.3	1.000000e+00	1.000000e+00	
41.4	1.000000e+00	1.000000e+00	
41.5	1.000000e+00	1.000000e+00	
41.6	1.000000e+00	1.000000e+00	
41.7	1.000000e+00	1.000000e+00	
41.8	1.000000e+00	1.000000e+00	
41.9	1.000000e+00	1.000000e+00	
42.0	1.000000e+00	1.000000e+00	
42.1	1.000000e+00	1.000000e+00	
42.2	1.000000e+00	1.000000e+00	
42.3	1.000000e+00	1.000000e+00	
42.4	1.000000e+00	1.000000e+00	
42.5	1.000000e+00	1.000000e+00	
42.6	1.000000e+00	1.000000e+00	
42.7	1.000000e+00	1.000000e+00	
42.8	1.000000e+00	1.000000e+00	
42.9	1.000000e+00	1.000000e+00	
43.0	1.000000e+00	1.000000e+00	
43.1	1.000000e+00	1.000000e+00	
43.2	1.000000e+00	1.000000e+00	
43.3	1.000000e+00	1.000000e+00	
43.4	1.000000e+00	1.000000e+00	
43.5	1.000000e+00	1.000000e+00	
43.6	1.000000e+00	1.000000e+00	
43.7	1.000000e+00	1.000000e+00	
43.8	1.000000e+00	1.000000e+00	
43.9	1.000000e+00	1.000000e+00	
44.0	1.000000e+00	1.000000e+00	
44.1	1.000000e+00	1.000000e+00	
44.2	1.000000e+00	1.000000e+00	
44.3	1.000000e+00	1.000000e+00	
44.4	1.000000e+00	1.000000e+00	
44.5	1.000000e+00	1.000000e+00	
44.6	1.000000e+00	1.000000e+00	
44.7	1.000000e+00	1.000000e+00	
44.8	1.000000e+00	1.000000e+00	
44.9	1.000000e+00	1.000000e+00	
45.0	1.000000e+00	1.000000e+00	
45.1	1.000000e+00	1.000000e+00	
45.2	1.000000e+00	1.000000e+00	
45.3	1.000000e+00	1.000000e+00	
45.4	1.000000e+00	1.000000e+00	
45.5	1.000000e+00	1.000000e+00	
45.6	1.000000e+00	1.000000e+00	
45.7	1.000000e+00	1.000000e+00	
45.8	1.000000e+00	1.000000e+00	
45.9	1.000000e+00	1.000000e+00	
46.0	1.000000e+00	1.000000e+00	
46.1	1.000000e+00	1.000000e+00	
46.2	1.000000e+00	1.000000e+00	
46.3	1.000000e+00	1.000000e+00	
46.4	1.000000e+00	1.000000e+00	
46.5	1.000000e+00	1.000000e+00	
46.6	1.000000e+00	1.000000e+00	
46.7	1.000000e+00	1.000000e+00	
46.8	1.000000e+00	1.000000e+00	
46.9	1.000000e+00	1.000000e+00	
47.0	1.000000e+00	1.000000e+00	
47.1	1.000000e+00	1.000000e+00	
47.2	1.000000e+00	1.000000e+00	
47.3	1.000000e+00	1.000000e+00	
47.4	1.000000e+00	1.000000e+00	
47.5	1.000000e+00	1.000000e+00	
47.6	1.000000e+00	1.000000e+00	
47.7	1.000000e+00	1.000000e+00	
47.8	1.000000e+00	1.000000e+00	
47.9	1.000000e+00	1.000000e+00	
48.0	1.000000e+00	1.000000e+00	
48.1	1.000000e+00	1.000000e+00	
48.2	1.000000e+00	1.000000e+00	
48.3	1.000000e+00	1.000000e+00	
48.4	1.000000e+00	1.000000e+00	
48.5	1.000000e+00	1.000000e+00	
48.6	1.000000e+00	1.000000e+00	
48.7	1.000000e+00	1.000000e+00	
48.8	1.000000e+00	1.000000e+00	
48.9	1.000000e+00	1.000000e+00	
49.0	1.000000e+00	1.000000e+00	
49.1	1.000000e+00	1.000000e+00	
49.2	1.000000e+00	1.000000e+00	
49.3	1.000000e+00	1.000000e+00	
49.4	1.000000e+00	1.000000e+00	
49.5	1.000000e+00	1.000000e+00	
49.6	1.000000e+00	1.000000e+00	
49.7	1.000000e+00	1.000000e+00	
49.8	1.000000e+00	1.000000e+00	
49.9	1.000000e+00	1.000000e+00	
50.0	1.000000e+00	1.000000e+00	
