-50.0	0.000000e+00	0.000000e+00	
-49.7	0.000000e+00	0.000000e+00	
-49.5	0.000000e+00	0.000000e+00	
-49.2	0.000000e+00	0.000000e+00	
-49.0	0.000000e+00	0.000000e+00	
-48.7	0.000000e+00	0.000000e+00	
-48.5	0.000000e+00	0.000000e+00	
-48.2	0.000000e+00	0.000000e+00	
-48.0	0.000000e+00	0.000000e+00	
-47.7	0.000000e+00	0.000000e+00	
-47.5	0.000000e+00	0.000000e+00	
-47.2	0.000000e+00	0.000000e+00	
-47.0	0.000000e+00	0.000000e+00	
-46.7	0.000000e+00	0.000000e+00	
-46.5	0.000000e+00	0.000000e+00	
-46.2	0.000000e+00	0.000000e+00	
-46.0	0.000000e+00	0.000000e+00	
-45.7	0.000000e+00	0.000000e+00	
-45.5	0.000000e+00	0.000000e+00	
-45.2	0.000000e+00	0.000000e+00	
-45.0	0.000000e+00	0.000000e+00	
-44.7	0.000000e+00	0.000000e+00	
-44.5	0.000000e+00	0.000000e+00	
-44.2	0.000000e+00	0.000000e+00	
-44.0	0.000000e+00	0.000000e+00	
-43.7	0.000000e+00	0.000000e+00	
-43.5	0.000000e+00	0.000000e+00	
-43.2	0.000000e+00	0.000000e+00	
-43.0	0.000000e+00	0.000000e+00	
-42.7	0.000000e+00	0.000000e+00	
-42.5	0.000000e+00	0.000000e+00	
-42.2	0.000000e+00	0.000000e+00	
-42.0	0.000000e+00	0.000000e+00	
-41.7	0.000000e+00	0.000000e+00	
-41.5	0.000000e+00	0.000000e+00	
-41.2	0.000000e+00	0.000000e+00	
-41.0	0.000000e+00	0.000000e+00	
-40.7	0.000000e+00	0.000000e+00	
-40.5	0.000000e+00	0.000000e+00	
-40.2	0.000000e+00	0.000000e+00	
-40.0	0.000000e+00	0.000000e+00	
-39.7	0.000000e+00	0.000000e+00	
-39.5	0.000000e+00	0.000000e+00	
-39.2	0.000000e+00	0.000000e+00	
-39.0	0.000000e+00	0.000000e+00	
-38.7	0.000000e+00	0.000000e+00	
-38.5	0.000000e+00	0.000000e+00	
-38.2	0.000000e+00	0.000000e+00	
-38.0	0.000000e+00	0.000000e+00	
-37.7	0.000000e+00	0.000000e+00	
-37.5	0.000000e+00	0.000000e+00	
-37.2	0.000000e+00	0.000000e+00	
-37.0	0.000000e+00	0.000000e+00	
-36.7	0.000000e+00	0.000000e+00	
-36.5	0.000000e+00	0.000000e+00	
-36.2	0.000000e+00	0.000000e+00	
-36.0	0.000000e+00	0.000000e+00	
-35.7	0.000000e+00	0.000000e+00	
-35.5	0.000000e+00	0.000000e+00	
-35.2	0.000000e+00	0.000000e+00	
-35.0	0.000000e+00	0.000000e+00	
-34.7	0.000000e+00	0.000000e+00	
-34.5	0.000000e+00	0.000000e+00	
-34.2	0.000000e+00	0.000000e+00	
-34.0	0.000000e+00	0.000000e+00	
-33.7	0.000000e+00	0.000000e+00	
-33.5	0.000000e+00	0.000000e+00	
-33.2	0.000000e+00	0.000000e+00	
-33.0	0.000000e+00	0.000000e+00	
-32.7	0.000000e+00	0.000000e+00	
-32.5	0.000000e+00	0.000000e+00	
-32.2	0.000000e+00	0.000000e+00	
-32.0	0.000000e+00	0.000000e+00	
-31.7	0.000000e+00	0.000000e+00	
-31.5	0.000000e+00	0.000000e+00	
-31.2	0.000000e+00	0.000000e+00	
-31.0	0.000000e+00	0.000000e+00	
-30.7	0.000000e+00	0.000000e+00	
-30.5	0.000000e+00	0.000000e+00	
-30.2	0.000000e+00	0.000000e+00	
-29.9	0.000000e+00	0.000000e+00	
-29.7	0.000000e+00	0.000000e+00	
-29.4	0.000000e+00	0.000000e+00	
-29.2	0.000000e+00	0.000000e+00	
-28.9	0.000000e+00	0.000000e+00	
-28.7	0.000000e+00	0.000000e+00	
-28.4	0.000000e+00	0.000000e+00	
-28.2	0.000000e+00	0.000000e+00	
-27.9	0.000000e+00	0.000000e+00	
-27.7	0.000000e+00	0.000000e+00	
-27.4	0.000000e+00	0.000000e+00	
-27.2	0.000000e+00	0.000000e+00	
-26.9	0.000000e+00	0.000000e+00	
-26.7	0.000000e+00	0.000000e+00	
-26.4	0.000000e+00	0.000000e+00	
-26.2	0.000000e+00	0.000000e+00	
-25.9	0.000000e+00	0.000000e+00	
-25.7	0.000000e+00	0.000000e+00	
-25.4	0.000000e+00	0.000000e+00	
-25.2	0.000000e+00	0.000000e+00	
-24.9	0.000000e+00	0.000000e+00	
-24.7	0.000000e+00	0.000000e+00	
-24.4	0.000000e+00	0.000000e+00	
-24.2	0.000000e+00	0.000000e+00	
-23.9	0.000000e+00	0.000000e+00	
-23.7	0.000000e+00	0.000000e+00	
-23.4	0.000000e+00	0.000000e+00	
-23.2	0.000000e+00	0.000000e+00	
-22.9	0.000000e+00	0.000000e+00	
-22.7	0.000000e+00	0.000000e+00	
-22.4	0.000000e+00	0.000000e+00	
-22.2	0.000000e+00	0.000000e+00	
-21.9	0.000000e+00	0.000000e+00	
-21.7	0.000000e+00	0.000000e+00	
-21.4	0.000000e+00	0.000000e+00	
-21.2	0.000000e+00	0.000000e+00	
-20.9	0.000000e+00	0.000000e+00	
-20.7	0.000000e+00	0.000000e+00	
-20.4	0.000000e+00	0.000000e+00	
-20.2	0.000000e+00	0.000000e+00	
-19.9	0.000000e+00	0.000000e+00	
-19.7	0.000000e+00	0.000000e+00	
-19.4	0.000000e+00	0.000000e+00	
-19.2	0.000000e+00	0.000000e+00	
-18.9	0.000000e+00	0.000000e+00	
-18.7	0.000000e+00	0.000000e+00	
-18.4	0.000000e+00	0.000000e+00	
-18.2	0.000000e+00	0.000000e+00	
-17.9	0.000000e+00	0.000000e+00	
-17.7	0.000000e+00	0.000000e+00	
-17.4	0.000000e+00	0.000000e+00	
-17.2	0.000000e+00	0.000000e+00	
-16.9	0.000000e+00	0.000000e+00	
-16.7	0.000000e+00	0.000000e+00	
-16.4	0.000000e+00	0.000000e+00	
-16.2	0.000000e+00	0.000000e+00	
-15.9	0.000000e+00	0.000000e+00	
-15.7	0.000000e+00	0.000000e+00	
-15.4	0.000000e+00	0.000000e+00	
-15.2	0.000000e+00	0.000000e+00	
-14.9	0.000000e+00	0.000000e+00	
-14.7	0.000000e+00	0.000000e+00	
-14.4	0.000000e+00	0.000000e+00	
-14.2	0.000000e+00	0.000000e+00	
-13.9	0.000000e+00	0.000000e+00	
-13.7	0.000000e+00	0.000000e+00	
-13.4	0.000000e+00	0.000000e+00	
-13.2	0.000000e+00	0.000000e+00	
-12.9	0.000000e+00	0.000000e+00	
-12.7	0.000000e+00	0.000000e+00	
-12.4	0.000000e+00	0.000000e+00	
-12.2	0.000000e+00	0.000000e+00	
-11.9	0.000000e+00	0.000000e+00	
-11.7	0.000000e+00	0.000000e+00	
-11.4	0.000000e+00	0.000000e+00	
-11.2	0.000000e+00	0.000000e+00	
-10.9	0.000000e+00	0.000000e+00	
-10.7	0.000000e+00	0.000000e+00	
-10.4	0.000000e+00	7.485095e-321	
-10.2	0.000000e+00	1.550224e-316	
-9.9	0.000000e+00	3.195890e-312	
-9.6	0.000000e+00	6.562093e-308	
-9.4	0.000000e+00	1.341859e-303	
-9.1	0.000000e+00	2.732401e-299	
-8.9	0.000000e+00	5.540043e-295	
-8.6	0.000000e+00	1.118329e-290	
-8.4	0.000000e+00	2.247336e-286	
-8.1	0.000000e+00	4.495339e-282	
-7.9	0.000000e+00	8.949607e-278	
-7.6	0.000000e+00	1.773137e-273	
-7.4	0.000000e+00	3.495630e-269	
-7.1	0.000000e+00	6.856445e-265	
-6.9	0.000000e+00	1.337848e-260	
-6.6	0.000000e+00	2.596512e-256	
-6.4	0.000000e+00	5.011744e-252	
-6.1	0.000000e+00	9.619201e-248	
-5.9	0.000000e+00	1.835587e-243	
-5.6	0.000000e+00	3.481994e-239	
-5.4	0.000000e+00	6.564879e-235	
-5.1	0.000000e+00	1.229976e-230	
-4.9	0.000000e+00	2.289601e-226	
-4.6	0.000000e+00	4.233845e-222	
-4.4	0.000000e+00	7.775662e-218	
-4.1	0.000000e+00	1.418006e-213	
-3.9	0.000000e+00	2.567228e-209	
-3.6	0.000000e+00	4.613166e-205	
-3.4	0.000000e+00	8.225837e-201	
-3.1	0.000000e+00	1.455126e-196	
-2.9	0.000000e+00	2.552985e-192	
-2.6	0.000000e+00	4.441252e-188	
-2.4	0.000000e+00	7.658576e-184	
-2.1	0.000000e+00	1.308717e-179	
-1.9	0.000000e+00	2.215445e-175	
-1.6	0.000000e+00	3.714059e-171	
-1.4	0.000000e+00	6.163910e-167	
-1.1	0.000000e+00	1.012329e-162	
-0.9	0.000000e+00	1.644653e-158	
-0.6	0.000000e+00	2.641997e-154	
-0.4	0.000000e+00	4.194730e-150	
-0.1	0.000000e+00	6.579380e-146	
0.1	0.000000e+00	1.018963e-141	
0.4	0.000000e+00	1.557373e-137	
0.6	0.000000e+00	2.347694e-133	
0.9	0.000000e+00	3.488522e-129	
1.1	0.000000e+00	5.106350e-125	
1.4	0.000000e+00	7.357777e-121	
1.6	0.000000e+00	1.042858e-116	
1.9	0.000000e+00	1.452768e-112	
2.1	0.000000e+00	1.987394e-108	
2.4	0.000000e+00	2.667353e-104	
2.6	0.000000e+00	3.508687e-100	
2.9	0.000000e+00	4.518527e-96	
3.1	0.000000e+00	5.690039e-92	
3.4	0.000000e+00	6.997274e-88	
3.6	0.000000e+00	8.390972e-84	
3.9	0.000000e+00	9.796647e-80	
4.1	0.000000e+00	1.111641e-75	
4.4	0.000000e+00	1.223578e-71	
4.6	0.000000e+00	1.303588e-67	
4.9	0.000000e+00	1.341036e-63	
5.1	0.000000e+00	1.328466e-59	
5.4	0.000000e+00	1.263373e-55	
5.6	0.000000e+00	1.149366e-51	
5.9	0.000000e+00	9.962703e-48	
6.1	0.000000e+00	8.189454e-44	
6.4	0.000000e+00	6.349084e-40	
6.6	0.000000e+00	4.612375e-36	
6.9	0.000000e+00	3.115344e-32	
7.1	0.000000e+00	1.937827e-28	
7.4	0.000000e+00	1.096964e-24	
7.6	0.000000e+00	5.566021e-21	
7.9	0.000000e+00	2.481290e-17	
8.1	0.000000e+00	9.454291e-14	
8.4	0.000000e+00	2.957738e-10	
8.6	0.000000e+00	7.127713e-07	
8.9	0.000000e+00	1.177037e-03	
9.1	1.000000e+00	1.000000e+00	
9.4	1.000000e+00	1.000000e+00	
9.6	1.000000e+00	1.000000e+00	
9.9	1.000000e+00	1.000000e+00	
10.2	1.000000e+00	1.000000e+00	
10.4	1.000000e+00	1.000000e+00	
10.7	1.000000e+00	1.000000e+00	
10.9	1.000000e+00	1.000000e+00	
11.2	1.000000e+00	1.000000e+00	
11.4	1.000000e+00	1.000000e+00	
11.7	1.000000e+00	1.000000e+00	
11.9	1.000000e+00	1.000000e+00	
12.2	1.000000e+00	1.000000e+00	
12.4	1.000000e+00	1.000000e+00	
12.7	1.000000e+00	1.000000e+00	
12.9	1.000000e+00	1.000000e+00	
13.2	1.000000e+00	1.000000e+00	
13.4	1.000000e+00	1.000000e+00	
13.7	1.000000e+00	1.000000e+00	
13.9	1.000000e+00	1.000000e+00	
14.2	1.000000e+00	1.000000e+00	
14.4	1.000000e+00	1.000000e+00	
14.7	1.000000e+00	1.000000e+00	
14.9	1.000000e+00	1.000000e+00	
15.2	1.000000e+00	1.000000e+00	
15.4	1.000000e+00	1.000000e+00	
15.7	1.000000e+00	1.000000e+00	
15.9	1.000000e+00	1.000000e+00	
16.2	1.000000e+00	1.000000e+00	
16.4	1.000000e+00	1.000000e+00	
16.7	1.000000e+00	1.000000e+00	
16.9	1.000000e+00	1.000000e+00	
17.2	1.000000e+00	1.000000e+00	
17.4	1.000000e+00	1.000000e+00	
17.7	1.000000e+00	1.000000e+00	
17.9	1.000000e+00	1.000000e+00	
18.2	1.000000e+00	1.000000e+00	
18.4	1.000000e+00	1.000000e+00	
18.7	1.000000e+00	1.000000e+00	
18.9	1.000000e+00	1.000000e+00	
19.2	1.000000e+00	1.000000e+00	
19.4	1.000000e+00	1.000000e+00	
19.7	1.000000e+00	1.000000e+00	
19.9	1.000000e+00	1.000000e+00	
20.2	1.000000e+00	1.000000e+00	
20.4	1.000000e+00	1.000000e+00	
20.7	1.000000e+00	1.000000e+00	
20.9	1.000000e+00	1.000000e+00	
21.2	1.000000e+00	1.000000e+00	
21.4	1.000000e+00	1.000000e+00	
21.7	1.000000e+00	1.000000e+00	
21.9	1.000000e+00	1.000000e+00	
22.2	1.000000e+00	1.000000e+00	
22.4	1.000000e+00	1.000000e+00	
22.7	1.000000e+00	1.000000e+00	
22.9	1.000000e+00	1.000000e+00	
23.2	1.000000e+00	1.000000e+00	
23.4	1.000000e+00	1.000000e+00	
23.7	1.000000e+00	1.000000e+00	
23.9	1.000000e+00	1.000000e+00	
24.2	1.000000e+00	1.000000e+00	
24.4	1.000000e+00	1.000000e+00	
24.7	1.000000e+00	1.000000e+00	
24.9	1.000000e+00	1.000000e+00	
25.2	1.000000e+00	1.000000e+00	
25.4	1.000000e+00	1.000000e+00	
25.7	1.000000e+00	1.000000e+00	
25.9	1.000000e+00	1.000000e+00	
26.2	1.000000e+00	1.000000e+00	
26.4	1.000000e+00	1.000000e+00	
26.7	1.000000e+00	1.000000e+00	
26.9	1.000000e+00	1.000000e+00	
27.2	1.000000e+00	1.000000e+00	
27.4	1.000000e+00	1.000000e+00	
27.7	1.000000e+00	1.000000e+00	
27.9	1.000000e+00	1.000000e+00	
28.2	1.000000e+00	1.000000e+00	
28.4	1.000000e+00	1.000000e+00	
28.7	1.000000e+00	1.000000e+00	
28.9	1.000000e+00	1.000000e+00	
29.2	1.000000e+00	1.000000e+00	
29.4	1.000000e+00	1.000000e+00	
29.7	1.000000e+00	1.000000e+00	
29.9	1.000000e+00	1.000000e+00	
30.2	1.000000e+00	1.000000e+00	
30.5	1.000000e+00	1.000000e+00	
30.7	1.000000e+00	1.000000e+00	
31.0	1.000000e+00	1.000000e+00	
31.2	1.000000e+00	1.000000e+00	
31.5	1.000000e+00	1.000000e+00	
31.7	1.000000e+00	1.000000e+00	
32.0	1.000000e+00	1.000000e+00	
32.2	1.000000e+00	1.000000e+00	
32.5	1.000000e+00	1.000000e+00	
32.7	1.000000e+00	1.000000e+00	
33.0	1.000000e+00	1.000000e+00	
33.2	1.000000e+00	1.000000e+00	
33.5	1.000000e+00	1.000000e+00	
33.7	1.000000e+00	1.000000e+00	
34.0	1.000000e+00	1.000000e+00	
34.2	1.000000e+00	1.000000e+00	
34.5	1.000000e+00	1.000000e+00	
34.7	1.000000e+00	1.000000e+00	
35.0	1.000000e+00	1.000000e+00	
35.2	1.000000e+00	1.000000e+00	
35.5	1.000000e+00	1.000000e+00	
35.7	1.000000e+00	1.000000e+00	
36.0	1.000000e+00	1.000000e+00	
36.2	1.000000e+00	1.000000e+00	
36.5	1.000000e+00	1.000000e+00	
36.7	1.000000e+00	1.000000e+00	
37.0	1.000000e+00	1.000000e+00	
37.2	1.000000e+00	1.000000e+00	
37.5	1.000000e+00	1.000000e+00	
37.7	1.000000e+00	1.000000e+00	
38.0	1.000000e+00	1.000000e+00	
38.2	1.000000e+00	1.000000e+00	
38.5	1.000000e+00	1.000000e+00	
38.7	1.000000e+00	1.000000e+00	
39.0	1.000000e+00	1.000000e+00	
39.2	1.000000e+00	1.000000e+00	
39.5	1.000000e+00	1.000000e+00	
39.7	1.000000e+00	1.000000e+00	
40.0	1.000000e+00	1.000000e+00	
40.2	1.000000e+00	1.000000e+00	
40.5	1.000000e+00	1.000000e+00	
40.7	1.000000e+00	1.000000e+00	
41.0	1.000000e+00	1.000000e+00	
41.2	1.000000e+00	1.000000e+00	
41.5	1.000000e+00	1.000000e+00	
41.7	1.000000e+00	1.000000e+00	
42.0	1.000000e+00	1.000000e+00	
42.2	1.000000e+00	1.000000e+00	
42.5	1.000000e+00	1.000000e+00	
42.7	1.000000e+00	1.000000e+00	
43.0	1.000000e+00	1.000000e+00	
43.2	1.000000e+00	1.000000e+00	
43.5	1.000000e+00	1.000000e+00	
43.7	1.000000e+00	1.000000e+00	
44.0	1.000000e+00	1.000000e+00	
44.2	1.000000e+00	1.000000e+00	
44.5	1.000000e+00	1.000000e+00	
44.7	1.000000e+00	1.000000e+00	
45.0	1.000000e+00	1.000000e+00	
45.2	1.000000e+00	1.000000e+00	
45.5	1.000000e+00	1.000000e+00	
45.7	1.000000e+00	1.000000e+00	
46.0	1.000000e+00	1.000000e+00	
46.2	1.000000e+00	1.000000e+00	
46.5	1.000000e+00	1.000000e+00	
46.7	1.000000e+00	1.000000e+00	
47.0	1.000000e+00	1.000000e+00	
47.2	1.000000e+00	1.000000e+00	
47.5	1.000000e+00	1.000000e+00	
47.7	1.000000e+00	1.000000e+00	
48.0	1.000000e+00	1.000000e+00	
48.2	1.000000e+00	1.000000e+00	
48.5	1.000000e+00	1.000000e+00	
48.7	1.000000e+00	1.000000e+00	
49.0	1.000000e+00	1.000000e+00	
49.2	1.000000e+00	1.000000e+00	
49.5	1.000000e+00	1.000000e+00	
49.7	1.000000e+00	1.000000e+00	
50.0	1.000000e+00	1.000000e+00	
