-50.0	0.000000e+00	0.000000e+00	
-49.7	0.000000e+00	0.000000e+00	
-49.5	0.000000e+00	0.000000e+00	
-49.2	0.000000e+00	0.000000e+00	
-49.0	0.000000e+00	0.000000e+00	
-48.7	0.000000e+00	0.000000e+00	
-48.5	0.000000e+00	0.000000e+00	
-48.2	0.000000e+00	0.000000e+00	
-48.0	0.000000e+00	0.000000e+00	
-47.7	0.000000e+00	0.000000e+00	
-47.5	0.000000e+00	0.000000e+00	
-47.2	0.000000e+00	0.000000e+00	
-47.0	0.000000e+00	0.000000e+00	
-46.7	0.000000e+00	0.000000e+00	
-46.5	0.000000e+00	0.000000e+00	
-46.2	0.000000e+00	0.000000e+00	
-46.0	0.000000e+00	0.000000e+00	
-45.7	0.000000e+00	0.000000e+00	
-45.5	0.000000e+00	0.000000e+00	
-45.2	0.000000e+00	0.000000e+00	
-45.0	0.000000e+00	0.000000e+00	
-44.7	0.000000e+00	0.000000e+00	
-44.5	0.000000e+00	0.000000e+00	
-44.2	0.000000e+00	0.000000e+00	
-44.0	0.000000e+00	0.000000e+00	
-43.7	0.000000e+00	0.000000e+00	
-43.5	0.000000e+00	0.000000e+00	
-43.2	0.000000e+00	0.000000e+00	
-43.0	0.000000e+00	0.000000e+00	
-42.7	0.000000e+00	0.000000e+00	
-42.5	0.000000e+00	0.000000e+00	
-42.2	0.000000e+00	0.000000e+00	
-42.0	0.000000e+00	0.000000e+00	
-41.7	0.000000e+00	0.000000e+00	
-41.5	0.000000e+00	0.000000e+00	
-41.2	0.000000e+00	0.000000e+00	
-41.0	0.000000e+00	0.000000e+00	
-40.7	0.000000e+00	0.000000e+00	
-40.5	0.000000e+00	0.000000e+00	
-40.2	0.000000e+00	0.000000e+00	
-40.0	0.000000e+00	0.000000e+00	
-39.7	0.000000e+00	0.000000e+00	
-39.5	0.000000e+00	0.000000e+00	
-39.2	0.000000e+00	0.000000e+00	
-39.0	0.000000e+00	0.000000e+00	
-38.7	0.000000e+00	0.000000e+00	
-38.5	0.000000e+00	0.000000e+00	
-38.2	0.000000e+00	0.000000e+00	
-38.0	0.000000e+00	0.000000e+00	
-37.7	0.000000e+00	0.000000e+00	
-37.5	0.000000e+00	0.000000e+00	
-37.2	0.000000e+00	0.000000e+00	
-37.0	0.000000e+00	0.000000e+00	
-36.7	0.000000e+00	0.000000e+00	
-36.5	0.000000e+00	0.000000e+00	
-36.2	0.000000e+00	0.000000e+00	
-36.0	0.000000e+00	0.000000e+00	
-35.7	0.000000e+00	0.000000e+00	
-35.5	0.000000e+00	0.000000e+00	
-35.2	0.000000e+00	0.000000e+00	
-35.0	0.000000e+00	0.000000e+00	
-34.7	0.000000e+00	0.000000e+00	
-34.5	0.000000e+00	0.000000e+00	
-34.2	0.000000e+00	0.000000e+00	
-34.0	0.000000e+00	0.000000e+00	
-33.7	0.000000e+00	0.000000e+00	
-33.5	0.000000e+00	0.000000e+00	
-33.2	0.000000e+00	0.000000e+00	
-33.0	0.000000e+00	0.000000e+00	
-32.7	0.000000e+00	0.000000e+00	
-32.5	0.000000e+00	0.000000e+00	
-32.2	0.000000e+00	0.000000e+00	
-32.0	0.000000e+00	0.000000e+00	
-31.7	0.000000e+00	0.000000e+00	
-31.5	0.000000e+00	0.000000e+00	
-31.2	0.000000e+00	0.000000e+00	
-31.0	0.000000e+00	0.000000e+00	
-30.7	0.000000e+00	0.000000e+00	
-30.5	0.000000e+00	0.000000e+00	
-30.2	0.000000e+00	0.000000e+00	
-29.9	0.000000e+00	0.000000e+00	
-29.7	0.000000e+00	0.000000e+00	
-29.4	0.000000e+00	0.000000e+00	
-29.2	0.000000e+00	0.000000e+00	
-28.9	0.000000e+00	0.000000e+00	
-28.7	0.000000e+00	0.000000e+00	
-28.4	0.000000e+00	0.000000e+00	
-28.2	0.000000e+00	0.000000e+00	
-27.9	0.000000e+00	0.000000e+00	
-27.7	0.000000e+00	0.000000e+00	
-27.4	0.000000e+00	0.000000e+00	
-27.2	0.000000e+00	0.000000e+00	
-26.9	0.000000e+00	0.000000e+00	
-26.7	0.000000e+00	0.000000e+00	
-26.4	0.000000e+00	0.000000e+00	
-26.2	0.000000e+00	0.000000e+00	
-25.9	0.000000e+00	0.000000e+00	
-25.7	0.000000e+00	0.000000e+00	
-25.4	0.000000e+00	0.000000e+00	
-25.2	0.000000e+00	0.000000e+00	
-24.9	0.000000e+00	0.000000e+00	
-24.7	0.000000e+00	0.000000e+00	
-24.4	0.000000e+00	0.000000e+00	
-24.2	0.000000e+00	0.000000e+00	
-23.9	0.000000e+00	0.000000e+00	
-23.7	0.000000e+00	0.000000e+00	
-23.4	0.000000e+00	0.000000e+00	
-23.2	0.000000e+00	0.000000e+00	
-22.9	0.000000e+00	0.000000e+00	
-22.7	0.000000e+00	0.000000e+00	
-22.4	0.000000e+00	0.000000e+00	
-22.2	0.000000e+00	0.000000e+00	
-21.9	0.000000e+00	0.000000e+00	
-21.7	0.000000e+00	0.000000e+00	
-21.4	0.000000e+00	0.000000e+00	
-21.2	0.000000e+00	0.000000e+00	
-20.9	0.000000e+00	0.000000e+00	
-20.7	0.000000e+00	0.000000e+00	
-20.4	0.000000e+00	0.000000e+00	
-20.2	0.000000e+00	0.000000e+00	
-19.9	0.000000e+00	0.000000e+00	
-19.7	0.000000e+00	0.000000e+00	
-19.4	0.000000e+00	0.000000e+00	
-19.2	0.000000e+00	0.000000e+00	
-18.9	0.000000e+00	0.000000e+00	
-18.7	0.000000e+00	0.000000e+00	
-18.4	0.000000e+00	0.000000e+00	
-18.2	0.000000e+00	0.000000e+00	
-17.9	0.000000e+00	0.000000e+00	
-17.7	0.000000e+00	0.000000e+00	
-17.4	0.000000e+00	0.000000e+00	
-17.2	0.000000e+00	0.000000e+00	
-16.9	0.000000e+00	0.000000e+00	
-16.7	0.000000e+00	0.000000e+00	
-16.4	0.000000e+00	2.470328e-323	
-16.2	0.000000e+00	2.338759e-319	
-15.9	0.000000e+00	1.865650e-315	
-15.7	0.000000e+00	1.392027e-311	
-15.4	0.000000e+00	9.730677e-308	
-15.2	0.000000e+00	6.382503e-304	
-14.9	0.000000e+00	3.934033e-300	
-14.7	0.000000e+00	2.281930e-296	
-14.4	0.000000e+00	1.247312e-292	
-14.2	0.000000e+00	6.433102e-289	
-13.9	0.000000e+00	3.134554e-285	
-13.7	0.000000e+00	1.444619e-281	
-13.4	0.000000e+00	6.304358e-278	
-13.2	0.000000e+00	2.607963e-274	
-12.9	0.000000e+00	1.023707e-270	
-12.7	0.000000e+00	3.816639e-267	
-12.4	0.000000e+00	1.352742e-263	
-12.2	0.000000e+00	4.561977e-260	
-11.9	0.000000e+00	1.465048e-256	
-11.7	0.000000e+00	4.483822e-253	
-11.4	0.000000e+00	1.308765e-249	
-11.2	0.000000e+00	3.645808e-246	
-10.9	0.000000e+00	9.699043e-243	
-10.7	0.000000e+00	2.465675e-239	
-10.4	0.000000e+00	5.993325e-236	
-10.2	0.000000e+00	1.393680e-232	
-9.9	0.000000e+00	3.102025e-229	
-9.6	9.486060e-322	6.611876e-226	
-9.4	7.324360e-316	1.350200e-222	
-9.1	4.997347e-310	2.642709e-219	
-8.9	3.007115e-304	4.959640e-216	
-8.6	1.595884e-298	8.928116e-213	
-8.4	7.469533e-293	1.542149e-209	
-8.1	3.083374e-287	2.556740e-206	
-7.9	1.122535e-281	4.069733e-203	
-7.6	3.604243e-276	6.221277e-200	
-7.4	1.020632e-270	9.135493e-197	
-7.1	2.548970e-265	1.288896e-193	
-6.9	5.614372e-260	1.747517e-190	
-6.6	1.090632e-254	2.277286e-187	
-6.4	1.868514e-249	2.852803e-184	
-6.1	2.823287e-244	3.435892e-181	
-5.9	3.762308e-239	3.978939e-178	
-5.6	4.421753e-234	4.430906e-175	
-5.4	4.583269e-229	4.745078e-172	
-5.1	4.189836e-224	4.886962e-169	
-4.9	3.377997e-219	4.840492e-166	
-4.6	2.401941e-214	4.611010e-163	
-4.4	1.506282e-209	4.224262e-160	
-4.1	8.330877e-205	3.721664e-157	
-3.9	4.063647e-200	3.153038e-154	
-3.6	1.748163e-195	2.568573e-151	
-3.4	6.632675e-191	2.011783e-148	
-3.1	2.219403e-186	1.514760e-145	
-2.9	6.549746e-182	1.096269e-142	
-2.6	1.704721e-177	7.624802e-140	
-2.4	3.913119e-173	5.095613e-137	
-2.1	7.921975e-169	3.271363e-134	
-1.9	1.414440e-164	2.017082e-131	
-1.6	2.227289e-160	1.194177e-128	
-1.4	3.093208e-156	6.786428e-126	
-1.1	3.788632e-152	3.700900e-123	
-0.9	4.092574e-148	1.936075e-120	
-0.6	3.898983e-144	9.712460e-118	
-0.4	3.276023e-140	4.670465e-115	
-0.1	2.427634e-136	2.151960e-112	
0.1	1.586574e-132	9.496382e-110	
0.4	9.144880e-129	4.011671e-107	
0.6	4.648753e-125	1.621494e-104	
0.9	2.084182e-121	6.267497e-102	
1.1	8.240920e-118	2.315326e-99	
1.4	2.873799e-114	8.169683e-97	
1.6	8.838485e-111	2.751646e-94	
1.9	2.397397e-107	8.840506e-92	
2.1	5.735125e-104	2.707351e-89	
2.4	1.210003e-100	7.897006e-87	
2.6	2.251494e-97	2.192196e-84	
2.9	3.694843e-94	5.786618e-82	
3.1	5.347636e-91	1.451133e-79	
3.4	6.826033e-88	3.453937e-77	
3.6	7.684501e-85	7.794925e-75	
3.9	7.629634e-82	1.666259e-72	
4.1	6.680862e-79	3.369960e-70	
4.4	5.159433e-76	6.441001e-68	
4.6	3.514085e-73	1.161976e-65	
4.9	2.110878e-70	1.976056e-63	
5.1	1.118291e-67	3.163558e-61	
5.4	5.225013e-65	4.761187e-59	
5.6	2.153082e-62	6.726337e-57	
5.9	7.824822e-60	8.906331e-55	
6.1	2.508009e-57	1.103520e-52	
6.4	7.089646e-55	1.277318e-50	
6.6	1.767505e-52	1.378809e-48	
6.9	3.886310e-50	1.385532e-46	
7.1	7.536246e-48	1.293695e-44	
7.4	1.288883e-45	1.120265e-42	
7.6	1.944073e-43	8.979057e-41	
7.9	2.586141e-41	6.647978e-39	
8.1	3.034120e-39	4.537399e-37	
8.4	3.139453e-37	2.848907e-35	
8.6	2.864943e-35	1.642058e-33	
8.9	2.305785e-33	8.669925e-32	
9.1	1.636674e-31	4.184423e-30	
9.4	1.024581e-29	1.842164e-28	
9.6	5.656807e-28	7.382103e-27	
9.9	2.754463e-26	2.687145e-25	
10.2	1.182887e-24	8.867044e-24	
10.4	4.480129e-23	2.647181e-22	
10.7	1.496506e-21	7.136291e-21	
10.9	4.408664e-20	1.733979e-19	
11.2	1.145451e-18	3.790795e-18	
11.4	2.624741e-17	7.443919e-17	
11.7	5.304412e-16	1.310893e-15	
11.9	9.454287e-15	2.067175e-14	
12.2	1.486145e-13	2.914899e-13	
12.4	2.060317e-12	3.670623e-12	
12.7	2.519114e-11	4.122888e-11	
12.9	2.716454e-10	4.125955e-10	
13.2	2.583435e-09	3.675057e-09	
13.4	2.166873e-08	2.910808e-08	
13.7	1.602914e-07	2.048340e-07	
13.9	1.045749e-06	1.279653e-06	
14.2	6.017079e-06	7.092172e-06	
14.4	3.053406e-05	3.484873e-05	
14.7	1.366546e-04	1.517284e-04	
14.9	5.393921e-04	5.850534e-04	
15.2	1.877698e-03	1.996974e-03	
15.4	5.764843e-03	6.031401e-03	
15.7	1.560954e-02	1.611285e-02	
15.9	3.727635e-02	3.806198e-02	
16.2	7.850862e-02	7.947816e-02	
16.4	1.458284e-01	1.466655e-01	
16.7	2.388953e-01	2.391280e-01	
16.9	3.451547e-01	3.444020e-01	
17.2	4.398057e-01	4.380803e-01	
17.4	4.942521e-01	4.920665e-01	
17.7	4.898656e-01	4.879927e-01	
17.9	4.281995e-01	4.272347e-01	
18.2	3.301080e-01	3.301675e-01	
18.4	2.244433e-01	2.252024e-01	
18.7	1.345854e-01	1.355639e-01	
18.9	7.117544e-02	7.201341e-02	
19.2	3.319732e-02	3.375600e-02	
19.4	1.365578e-02	1.396143e-02	
19.7	4.954169e-03	5.094799e-03	
19.9	1.585134e-03	1.640292e-03	
20.2	4.473029e-04	4.659016e-04	
20.4	1.113213e-04	1.167427e-04	
20.7	2.443405e-05	2.580558e-05	
20.9	4.729916e-06	5.031913e-06	
21.2	8.075179e-07	8.655197e-07	
21.4	1.215882e-07	1.313214e-07	
21.7	1.614625e-08	1.757518e-08	
21.9	1.891005e-09	2.074734e-09	
22.2	1.953234e-10	2.160312e-10	
22.4	1.779331e-11	1.984065e-11	
22.7	1.429552e-12	1.607221e-12	
22.9	1.012940e-13	1.148341e-13	
23.2	6.330067e-15	7.236648e-15	
23.4	3.488780e-16	4.022276e-16	
23.7	1.695820e-17	1.971837e-17	
23.9	7.269867e-19	8.525736e-19	
24.2	2.748616e-20	3.251263e-20	
24.4	9.165207e-22	1.093527e-21	
24.7	2.695326e-23	3.243859e-23	
24.9	6.990705e-25	8.486878e-25	
25.2	1.599085e-26	1.958330e-26	
25.4	3.225987e-28	3.985425e-28	
25.7	5.739771e-30	7.153404e-30	
25.9	9.006733e-32	1.132399e-31	
26.2	1.246467e-33	1.581006e-33	
26.4	1.521370e-35	1.946769e-35	
26.7	1.637682e-37	2.114176e-37	
26.9	1.554767e-39	2.024946e-39	
27.2	1.301792e-41	1.710530e-41	
27.4	9.612995e-44	1.274360e-43	
27.7	6.260608e-46	8.373318e-46	
27.9	3.595962e-48	4.852289e-48	
28.2	1.821606e-50	2.479927e-50	
28.4	8.138313e-53	1.117825e-52	
28.7	3.206676e-55	4.443773e-55	
28.9	1.114337e-57	1.558017e-57	
29.2	3.415221e-60	4.817643e-60	
29.4	9.231277e-63	1.313830e-62	
29.7	2.200622e-65	3.159990e-65	
29.9	4.626684e-68	6.703074e-68	
30.2	8.578968e-71	1.254018e-70	
30.5	1.402946e-73	2.069071e-73	
30.7	2.023427e-76	3.010844e-76	
31.0	2.573801e-79	3.864048e-79	
31.2	2.887374e-82	4.373590e-82	
31.5	2.856747e-85	4.365910e-85	
31.7	2.492765e-88	3.843729e-88	
32.0	1.918367e-91	2.984501e-91	
32.2	1.302035e-94	2.043769e-94	
32.5	7.793894e-98	1.234335e-97	
32.7	4.114594e-101	6.574687e-101	
33.0	1.915756e-104	3.088575e-104	
33.2	7.866729e-108	1.279624e-107	
33.5	2.848977e-111	4.675706e-111	
33.7	9.099642e-115	1.506791e-114	
34.0	2.563306e-118	4.282523e-118	
34.2	6.368210e-122	1.073463e-121	
34.5	1.395324e-125	2.373098e-125	
34.7	2.696332e-129	4.626844e-129	
35.0	4.595286e-133	7.956003e-133	
35.2	6.907046e-137	1.206551e-136	
35.5	9.156151e-141	1.613754e-140	
35.7	1.070469e-144	1.903575e-144	
36.0	1.103764e-148	1.980355e-148	
36.2	1.003735e-152	1.817009e-152	
36.5	8.050124e-157	1.470320e-156	
36.7	5.694123e-161	1.049319e-160	
37.0	3.552154e-165	6.604559e-165	
37.2	1.954328e-169	3.666240e-169	
37.5	9.482962e-174	1.794894e-173	
37.7	4.058179e-178	7.749922e-178	
38.0	1.531649e-182	2.951187e-182	
38.2	5.098328e-187	9.911441e-187	
38.5	1.496708e-191	2.935740e-191	
38.7	3.875139e-196	7.669009e-196	
39.0	8.848673e-201	1.766858e-200	
39.2	1.782008e-205	3.590084e-205	
39.5	3.165061e-210	6.433518e-210	
39.7	4.957870e-215	1.016794e-214	
40.0	6.849343e-220	1.417289e-219	
40.2	8.345329e-225	1.742306e-224	
40.5	8.967652e-230	1.888997e-229	
40.7	8.498744e-235	1.806254e-234	
41.0	7.103485e-240	1.523235e-239	
41.2	5.236353e-245	1.132912e-244	
41.5	3.404295e-250	7.431317e-250	
41.7	1.951938e-255	4.299087e-255	
42.0	9.870650e-261	2.193449e-260	
42.2	4.402163e-266	9.870052e-266	
42.5	1.731519e-271	3.916987e-271	
42.7	6.006606e-277	1.370962e-276	
43.0	1.837688e-282	4.231942e-282	
43.2	4.958555e-288	1.152112e-287	
43.5	1.179992e-293	2.766243e-293	
43.7	2.476532e-299	5.857694e-299	
44.0	4.584052e-305	1.093966e-304	
44.2	7.483347e-311	1.801862e-310	
44.5	1.077415e-316	2.617461e-316	
44.7	1.383384e-322	3.606679e-322	
45.0	0.000000e+00	0.000000e+00	
45.2	0.000000e+00	0.000000e+00	
45.5	0.000000e+00	0.000000e+00	
45.7	0.000000e+00	0.000000e+00	
46.0	0.000000e+00	0.000000e+00	
46.2	0.000000e+00	0.000000e+00	
46.5	0.000000e+00	0.000000e+00	
46.7	0.000000e+00	0.000000e+00	
47.0	0.000000e+00	0.000000e+00	
47.2	0.000000e+00	0.000000e+00	
47.5	0.000000e+00	0.000000e+00	
47.7	0.000000e+00	0.000000e+00	
48.0	0.000000e+00	0.000000e+00	
48.2	0.000000e+00	0.000000e+00	
48.5	0.000000e+00	0.000000e+00	
48.7	0.000000e+00	0.000000e+00	
49.0	0.000000e+00	0.000000e+00	
49.2	0.000000e+00	0.000000e+00	
49.5	0.000000e+00	0.000000e+00	
49.7	0.000000e+00	0.000000e+00	
50.0	0.000000e+00	0.000000e+00	
