-50.0	0.000000e+00	0.000000e+00	
-49.7	0.000000e+00	0.000000e+00	
-49.5	0.000000e+00	0.000000e+00	
-49.2	0.000000e+00	0.000000e+00	
-49.0	0.000000e+00	0.000000e+00	
-48.7	0.000000e+00	0.000000e+00	
-48.5	0.000000e+00	0.000000e+00	
-48.2	0.000000e+00	0.000000e+00	
-48.0	0.000000e+00	0.000000e+00	
-47.7	0.000000e+00	0.000000e+00	
-47.5	0.000000e+00	0.000000e+00	
-47.2	0.000000e+00	0.000000e+00	
-47.0	0.000000e+00	0.000000e+00	
-46.7	0.000000e+00	0.000000e+00	
-46.5	0.000000e+00	0.000000e+00	
-46.2	0.000000e+00	0.000000e+00	
-46.0	0.000000e+00	0.000000e+00	
-45.7	0.000000e+00	0.000000e+00	
-45.5	0.000000e+00	0.000000e+00	
-45.2	0.000000e+00	0.000000e+00	
-45.0	0.000000e+00	0.000000e+00	
-44.7	0.000000e+00	0.000000e+00	
-44.5	0.000000e+00	0.000000e+00	
-44.2	0.000000e+00	0.000000e+00	
-44.0	0.000000e+00	0.000000e+00	
-43.7	0.000000e+00	0.000000e+00	
-43.5	0.000000e+00	0.000000e+00	
-43.2	0.000000e+00	0.000000e+00	
-43.0	0.000000e+00	0.000000e+00	
-42.7	0.000000e+00	0.000000e+00	
-42.5	0.000000e+00	0.000000e+00	
-42.2	0.000000e+00	0.000000e+00	
-42.0	0.000000e+00	0.000000e+00	
-41.7	0.000000e+00	0.000000e+00	
-41.5	0.000000e+00	0.000000e+00	
-41.2	0.000000e+00	0.000000e+00	
-41.0	0.000000e+00	0.000000e+00	
-40.7	0.000000e+00	0.000000e+00	
-40.5	0.000000e+00	0.000000e+00	
-40.2	0.000000e+00	0.000000e+00	
-40.0	0.000000e+00	0.000000e+00	
-39.7	0.000000e+00	0.000000e+00	
-39.5	0.000000e+00	0.000000e+00	
-39.2	0.000000e+00	0.000000e+00	
-39.0	0.000000e+00	-4.940656e-324	
-38.7	0.000000e+00	-3.359646e-322	
-38.5	0.000000e+00	-1.297406e-317	
-38.2	0.000000e+00	-4.380210e-313	
-38.0	0.000000e+00	-1.304232e-308	
-37.7	0.000000e+00	-3.424958e-304	
-37.5	0.000000e+00	-7.932251e-300	
-37.2	0.000000e+00	-1.620236e-295	
-37.0	0.000000e+00	-2.918778e-291	
-36.7	0.000000e+00	-4.637292e-287	
-36.5	0.000000e+00	-6.497834e-283	
-36.2	0.000000e+00	-8.029961e-279	
-36.0	0.000000e+00	-8.751832e-275	
-35.7	0.000000e+00	-8.412503e-271	
-35.5	0.000000e+00	-7.131686e-267	
-35.2	0.000000e+00	-5.332119e-263	
-35.0	0.000000e+00	-3.515994e-259	
-34.7	0.000000e+00	-2.044735e-255	
-34.5	0.000000e+00	-1.048737e-251	
-34.2	0.000000e+00	-4.743916e-248	
-34.0	0.000000e+00	-1.892552e-244	
-33.7	0.000000e+00	-6.658847e-241	
-33.5	0.000000e+00	-2.066288e-237	
-33.2	0.000000e+00	-5.654874e-234	
-33.0	0.000000e+00	-1.364883e-230	
-32.7	0.000000e+00	-2.905413e-227	
-32.5	0.000000e+00	-5.454569e-224	
-32.2	0.000000e+00	-9.031352e-221	
-32.0	0.000000e+00	-1.318817e-217	
-31.7	0.000000e+00	-1.698461e-214	
-31.5	0.000000e+00	-1.929146e-211	
-31.2	0.000000e+00	-1.932471e-208	
-31.0	0.000000e+00	-1.707253e-205	
-30.7	0.000000e+00	-1.330207e-202	
-30.5	0.000000e+00	-9.140625e-200	
-30.2	0.000000e+00	-5.539440e-197	
-29.9	0.000000e+00	-2.960652e-194	
-29.7	0.000000e+00	-1.395524e-191	
-29.4	0.000000e+00	-5.801134e-189	
-29.2	0.000000e+00	-2.126714e-186	
-28.9	0.000000e+00	-6.875752e-184	
-28.7	0.000000e+00	-1.960374e-181	
-28.4	0.000000e+00	-4.928959e-179	
-28.2	0.000000e+00	-1.092840e-176	
-27.9	0.000000e+00	-2.136614e-174	
-27.7	0.000000e+00	-3.683342e-172	
-27.4	0.000000e+00	-5.598550e-170	
-27.2	0.000000e+00	-7.502189e-168	
-26.9	0.000000e+00	-8.861917e-166	
-26.7	0.000000e+00	-9.226235e-164	
-26.4	0.000000e+00	-8.464129e-162	
-26.2	0.000000e+00	-6.840173e-160	
-25.9	0.000000e+00	-4.867317e-158	
-25.7	0.000000e+00	-3.047737e-156	
-25.4	0.000000e+00	-1.677764e-154	
-25.2	0.000000e+00	-8.108654e-153	
-24.9	0.000000e+00	-3.433257e-151	
-24.7	0.000000e+00	-1.269214e-149	
-24.4	0.000000e+00	-4.073928e-148	
-24.2	0.000000e+00	-1.124449e-146	
-23.9	0.000000e+00	-2.620866e-145	
-23.7	0.000000e+00	-4.963660e-144	
-23.4	0.000000e+00	-6.881447e-143	
-23.2	0.000000e+00	-4.008436e-142	
-22.9	0.000000e+00	1.220483e-140	
-22.7	0.000000e+00	5.132093e-139	
-22.4	0.000000e+00	1.119009e-137	
-22.2	0.000000e+00	1.606551e-136	
-21.9	0.000000e+00	1.162420e-135	
-21.7	0.000000e+00	-1.315191e-134	
-21.4	0.000000e+00	-6.343643e-133	
-21.2	0.000000e+00	-1.237238e-131	
-20.9	0.000000e+00	-1.462657e-130	
-20.7	0.000000e+00	-6.056111e-130	
-20.4	0.000000e+00	1.809650e-128	
-20.2	0.000000e+00	5.292366e-127	
-19.9	0.000000e+00	7.841245e-126	
-19.7	0.000000e+00	6.340622e-125	
-19.4	0.000000e+00	-1.612189e-124	
-19.2	0.000000e+00	-1.494420e-122	
-18.9	0.000000e+00	-2.722050e-121	
-18.7	0.000000e+00	-2.803275e-120	
-18.4	0.000000e+00	-8.804539e-120	
-18.2	0.000000e+00	2.902700e-118	
-17.9	0.000000e+00	6.889773e-117	
-17.7	0.000000e+00	8.317066e-116	
-17.4	0.000000e+00	4.819101e-115	
-17.2	0.000000e+00	-3.594163e-114	
-16.9	0.000000e+00	-1.341222e-112	
-16.7	0.000000e+00	-1.861181e-111	
-16.4	0.000000e+00	-1.391145e-110	
-16.2	0.000000e+00	1.237381e-110	
-15.9	0.000000e+00	2.058791e-108	
-15.7	0.000000e+00	3.312256e-107	
-15.4	0.000000e+00	2.901505e-106	
-15.2	0.000000e+00	6.479801e-106	
-14.9	0.000000e+00	-2.501689e-104	
-14.7	0.000000e+00	-4.828294e-103	
-14.4	0.000000e+00	-4.777945e-102	
-14.2	0.000000e+00	-1.975272e-101	
-13.9	0.000000e+00	2.345372e-100	
-13.7	0.000000e+00	5.867144e-99	
-13.4	0.000000e+00	6.471278e-98	
-13.2	0.000000e+00	3.543247e-97	
-12.9	0.000000e+00	-1.521629e-96	
-12.7	0.000000e+00	-6.001258e-95	
-12.4	0.000000e+00	-7.377620e-94	
-12.2	0.000000e+00	-4.817252e-93	
-11.9	0.000000e+00	3.056315e-93	
-11.7	0.000000e+00	5.182049e-91	
-11.4	0.000000e+00	7.182073e-90	
-11.2	0.000000e+00	5.340931e-89	
-10.9	0.000000e+00	8.409540e-89	
-10.7	0.000000e+00	-3.757348e-87	
-10.4	0.000000e+00	-6.024408e-86	
-10.2	0.000000e+00	-4.990515e-85	
-9.9	0.000000e+00	-1.544373e-84	
-9.6	5.731161e-322	2.243159e-83	
-9.4	4.465505e-316	4.376894e-82	
-9.1	3.060839e-310	4.001062e-81	
-8.9	1.850338e-304	1.697291e-80	
-8.6	9.865122e-299	-1.043524e-79	
-8.4	4.638681e-293	-2.759282e-78	
-8.1	1.923656e-287	-2.781861e-77	
-7.9	7.035597e-282	-1.439774e-76	
-7.6	2.269422e-276	3.093298e-76	
-7.4	6.456100e-271	1.506578e-74	
-7.1	1.619817e-265	1.688043e-73	
-6.9	3.584285e-260	1.010760e-72	
-6.6	6.994872e-255	2.427724e-73	
-6.4	1.203920e-249	-7.074827e-71	
-6.1	1.827496e-244	-8.969326e-70	
-5.9	2.446560e-239	-6.047455e-69	
-5.6	2.888657e-234	-1.127670e-68	
-5.4	3.007994e-229	2.812110e-67	
-5.1	2.762476e-224	4.176296e-66	
-4.9	2.237489e-219	3.129257e-65	
-4.6	1.598321e-214	9.620457e-65	
-4.4	1.006950e-209	-9.125209e-64	
-4.1	5.594902e-205	-1.700847e-62	
-3.9	2.741687e-200	-1.411096e-61	
-3.6	1.184906e-195	-5.705035e-61	
-3.4	4.516382e-191	2.188166e-60	
-3.1	1.518232e-186	6.027583e-59	
-2.9	4.501180e-182	5.563962e-58	
-2.6	1.176943e-177	2.710355e-57	
-2.4	2.714095e-173	-2.301343e-57	
-2.1	5.519955e-169	-1.840011e-55	
-1.9	9.901175e-165	-1.918804e-54	
-1.6	1.566313e-160	-1.079857e-53	
-1.4	2.185301e-156	-1.125099e-53	
-1.1	2.688962e-152	4.745650e-52	
-0.9	2.918091e-148	5.772285e-51	
-0.6	2.792889e-144	3.676889e-50	
-0.4	2.357487e-140	8.771763e-50	
-0.1	1.755034e-136	-9.929602e-49	
0.1	1.152292e-132	-1.505694e-47	
0.4	6.672376e-129	-1.078138e-46	
0.6	3.407525e-125	-3.696513e-46	
0.9	1.534752e-121	1.511058e-45	
1.1	6.096468e-118	3.369239e-44	
1.4	2.135792e-114	2.725719e-43	
1.6	6.599036e-111	1.173347e-42	
1.9	1.798220e-107	-9.141146e-43	
2.1	4.321611e-104	-6.345639e-41	
2.4	9.159870e-101	-5.919967e-40	
2.6	1.712276e-97	-3.021152e-39	
2.9	2.822922e-94	-3.557540e-39	
3.1	4.104542e-91	9.695249e-38	
3.4	5.263460e-88	1.094964e-36	
3.6	5.952765e-85	6.464077e-36	
3.9	5.937543e-82	1.631753e-35	
4.1	5.223187e-79	-1.099357e-34	
4.4	4.052333e-76	-1.697694e-33	
4.6	2.772780e-73	-1.155495e-32	
4.9	1.673272e-70	-4.120150e-32	
5.1	8.905498e-68	6.374850e-32	
5.4	4.180139e-65	2.144324e-30	
5.6	1.730469e-62	1.715723e-29	
5.9	6.317975e-60	7.662979e-29	
6.1	2.034382e-57	7.043955e-29	
6.4	5.777341e-55	-2.080200e-27	
6.6	1.446985e-52	-2.081335e-26	
6.9	3.196252e-50	-1.114567e-25	
7.1	6.226710e-48	-2.724688e-25	
7.4	1.069836e-45	1.309050e-24	
7.6	1.621124e-43	1.995789e-23	
7.9	2.166486e-41	1.278347e-22	
8.1	2.553504e-39	4.569242e-22	
8.4	2.654348e-37	-6.659895e-23	
8.6	2.433436e-35	-1.410114e-20	
8.9	1.967536e-33	-1.134225e-19	
9.1	1.403027e-31	-5.190752e-19	
9.4	8.823693e-30	-1.021056e-18	
9.6	4.894128e-28	5.947049e-18	
9.9	2.394093e-26	7.384085e-17	
10.2	1.032874e-24	4.222087e-16	
10.4	3.930019e-23	1.400890e-15	
10.7	1.318811e-21	3.566346e-16	
10.9	3.903114e-20	-3.068623e-14	
11.2	1.018780e-18	-2.375258e-13	
11.4	2.345258e-17	-1.064655e-12	
11.7	4.761476e-16	-2.594453e-12	
11.9	8.525761e-15	3.766857e-12	
12.2	1.346373e-13	7.985467e-11	
12.4	1.875161e-12	4.877615e-10	
12.7	2.303309e-11	1.869961e-09	
12.9	2.495208e-10	3.890438e-09	
13.2	2.383977e-09	-6.576056e-09	
13.4	2.008806e-08	-1.094307e-07	
13.7	1.492845e-07	-6.132323e-07	
13.9	9.784356e-07	-2.288836e-06	
14.2	5.655753e-06	-5.633507e-06	
14.4	2.883297e-05	-3.660834e-06	
14.7	1.296370e-04	5.109062e-05	
14.9	5.140548e-04	3.556555e-04	
15.2	1.797755e-03	1.537520e-03	
15.4	5.544883e-03	5.216945e-03	
15.7	1.508325e-02	1.482437e-02	
15.9	3.618581e-02	3.622697e-02	
16.2	7.656361e-02	7.711286e-02	
16.4	1.428720e-01	1.439205e-01	
16.7	2.351325e-01	2.363370e-01	
16.9	3.412864e-01	3.420919e-01	
17.2	4.368839e-01	4.368648e-01	
17.4	4.932349e-01	4.923980e-01	
17.7	4.911139e-01	4.898964e-01	
17.9	4.312722e-01	4.302333e-01	
18.2	3.340115e-01	3.334878e-01	
18.4	2.281456e-01	2.281322e-01	
18.7	1.374369e-01	1.377136e-01	
18.9	7.301896e-02	7.335120e-02	
19.2	3.421437e-02	3.446991e-02	
19.4	1.413911e-02	1.429038e-02	
19.7	5.153194e-03	5.226262e-03	
19.9	1.656424e-03	1.686015e-03	
20.2	4.695776e-04	4.797739e-04	
20.4	1.174043e-04	1.204213e-04	
20.7	2.588816e-05	2.665943e-05	
20.9	5.034533e-06	5.205590e-06	
21.2	8.634913e-07	8.965082e-07	
21.4	1.306163e-07	1.361753e-07	
21.7	1.742520e-08	1.824307e-08	
21.9	2.050211e-09	2.155508e-09	
22.2	2.127455e-10	2.246215e-10	
22.4	1.946986e-11	2.064432e-11	
22.7	1.571469e-12	1.673386e-12	
22.9	1.118639e-13	1.196290e-13	
23.2	7.022867e-15	7.542602e-15	
23.4	3.888480e-16	4.194199e-16	
23.7	1.898829e-17	2.056931e-17	
23.9	8.177730e-19	8.896774e-19	
24.2	3.106135e-20	3.393809e-20	
24.4	1.040516e-21	1.141784e-21	
24.7	3.074098e-23	3.387832e-23	
24.9	8.009907e-25	8.865459e-25	
25.2	1.840679e-26	2.046076e-26	
25.4	3.730519e-28	4.164695e-28	
25.7	6.668086e-30	7.476284e-30	
25.9	1.051172e-31	1.183666e-31	
26.2	1.461461e-33	1.652775e-33	
26.4	1.792014e-35	2.035349e-35	
26.7	1.937923e-37	2.210574e-37	
26.9	1.848298e-39	2.117444e-39	
27.2	1.554707e-41	1.788791e-41	
27.4	1.153362e-43	1.332748e-43	
27.7	7.546115e-46	8.757445e-46	
27.9	4.354337e-48	5.075133e-48	
28.2	2.215957e-50	2.593930e-50	
28.4	9.945838e-53	1.169256e-52	
28.7	3.936971e-55	4.648384e-55	
28.9	1.374433e-57	1.629803e-57	
29.2	4.231808e-60	5.039747e-60	
29.4	1.149129e-62	1.374432e-62	
29.7	2.752027e-65	3.305815e-65	
29.9	5.812690e-68	7.012526e-68	
30.2	1.082785e-70	1.311932e-70	
30.5	1.778887e-73	2.164655e-73	
30.7	2.577478e-76	3.149973e-76	
31.0	3.293687e-79	4.042646e-79	
31.2	3.712021e-82	4.575783e-82	
31.5	3.689600e-85	4.567786e-85	
31.7	3.234364e-88	4.021489e-88	
32.0	2.500571e-91	3.122545e-91	
32.2	1.705023e-94	2.138313e-94	
32.5	1.025326e-97	1.291441e-97	
32.7	5.437943e-101	6.878896e-101	
33.0	2.543595e-104	3.231495e-104	
33.2	1.049306e-107	1.338841e-107	
33.5	3.817655e-111	4.892100e-111	
33.7	1.224989e-114	1.576530e-114	
34.0	3.466637e-118	4.480744e-118	
34.2	8.652176e-122	1.123152e-121	
34.5	1.904509e-125	2.482949e-125	
34.7	3.697272e-129	4.841029e-129	
35.0	6.330246e-133	8.324313e-133	
35.2	9.558736e-137	1.262408e-136	
35.5	1.272979e-140	1.688465e-140	
35.7	1.495142e-144	1.991704e-144	
36.0	1.548761e-148	2.072041e-148	
36.2	1.414905e-152	1.901134e-152	
36.5	1.140016e-156	1.538395e-156	
36.7	8.100936e-161	1.097902e-160	
37.0	5.076919e-165	6.910353e-165	
37.2	2.806118e-169	3.835990e-169	
37.5	1.367894e-173	1.878000e-173	
37.7	5.880845e-178	8.108757e-178	
38.0	2.229809e-182	3.087833e-182	
38.2	7.456523e-187	1.037036e-186	
38.5	2.199104e-191	3.071673e-191	
38.7	5.719999e-196	8.024106e-196	
39.0	1.312160e-200	1.848669e-200	
39.2	2.654719e-205	3.756317e-205	
39.5	4.736863e-210	6.731411e-210	
39.7	7.454250e-215	1.063875e-214	
40.0	1.034565e-219	1.482915e-219	
40.2	1.266346e-224	1.822981e-224	
40.5	1.367060e-229	1.976465e-229	
40.7	1.301559e-234	1.889890e-234	
41.0	1.092900e-239	1.593767e-239	
41.2	8.093531e-245	1.185370e-244	
41.5	5.286111e-250	7.775418e-250	
41.7	3.044915e-255	4.498153e-255	
42.0	1.546874e-260	2.295015e-260	
42.2	6.930673e-266	1.032708e-265	
42.5	2.738650e-271	4.098361e-271	
42.7	9.544177e-277	1.434444e-276	
43.0	2.933467e-282	4.427900e-282	
43.2	7.951783e-288	1.205460e-287	
43.5	1.901029e-293	2.894332e-293	
43.7	4.008238e-299	6.128931e-299	
44.0	7.453480e-305	1.144621e-304	
44.2	1.222378e-310	1.885297e-310	
44.5	1.768042e-316	2.738661e-316	
44.7	2.272702e-322	3.557273e-322	
45.0	0.000000e+00	0.000000e+00	
45.2	0.000000e+00	0.000000e+00	
45.5	0.000000e+00	0.000000e+00	
45.7	0.000000e+00	0.000000e+00	
46.0	0.000000e+00	0.000000e+00	
46.2	0.000000e+00	0.000000e+00	
46.5	0.000000e+00	0.000000e+00	
46.7	0.000000e+00	0.000000e+00	
47.0	0.000000e+00	0.000000e+00	
47.2	0.000000e+00	0.000000e+00	
47.5	0.000000e+00	0.000000e+00	
47.7	0.000000e+00	0.000000e+00	
48.0	0.000000e+00	0.000000e+00	
48.2	0.000000e+00	0.000000e+00	
48.5	0.000000e+00	0.000000e+00	
48.7	0.000000e+00	0.000000e+00	
49.0	0.000000e+00	0.000000e+00	
49.2	0.000000e+00	0.000000e+00	
49.5	0.000000e+00	0.000000e+00	
49.7	0.000000e+00	0.000000e+00	
50.0	0.000000e+00	0.000000e+00	
