-50.0	0.000000e+00	0.000000e+00	
-49.7	0.000000e+00	0.000000e+00	
-49.5	0.000000e+00	0.000000e+00	
-49.2	0.000000e+00	0.000000e+00	
-49.0	0.000000e+00	0.000000e+00	
-48.7	0.000000e+00	0.000000e+00	
-48.5	0.000000e+00	0.000000e+00	
-48.2	0.000000e+00	0.000000e+00	
-48.0	0.000000e+00	0.000000e+00	
-47.7	0.000000e+00	0.000000e+00	
-47.5	0.000000e+00	0.000000e+00	
-47.2	0.000000e+00	0.000000e+00	
-47.0	0.000000e+00	0.000000e+00	
-46.7	0.000000e+00	0.000000e+00	
-46.5	0.000000e+00	0.000000e+00	
-46.2	0.000000e+00	0.000000e+00	
-46.0	0.000000e+00	0.000000e+00	
-45.7	0.000000e+00	0.000000e+00	
-45.5	0.000000e+00	0.000000e+00	
-45.2	0.000000e+00	0.000000e+00	
-45.0	0.000000e+00	0.000000e+00	
-44.7	0.000000e+00	0.000000e+00	
-44.5	0.000000e+00	0.000000e+00	
-44.2	0.000000e+00	0.000000e+00	
-44.0	0.000000e+00	0.000000e+00	
-43.7	0.000000e+00	0.000000e+00	
-43.5	0.000000e+00	0.000000e+00	
-43.2	0.000000e+00	0.000000e+00	
-43.0	0.000000e+00	0.000000e+00	
-42.7	0.000000e+00	0.000000e+00	
-42.5	0.000000e+00	0.000000e+00	
-42.2	0.000000e+00	0.000000e+00	
-42.0	0.000000e+00	0.000000e+00	
-41.7	0.000000e+00	0.000000e+00	
-41.5	0.000000e+00	0.000000e+00	
-41.2	0.000000e+00	0.000000e+00	
-41.0	0.000000e+00	0.000000e+00	
-40.7	0.000000e+00	0.000000e+00	
-40.5	0.000000e+00	0.000000e+00	
-40.2	0.000000e+00	0.000000e+00	
-40.0	0.000000e+00	0.000000e+00	
-39.7	0.000000e+00	0.000000e+00	
-39.5	0.000000e+00	0.000000e+00	
-39.2	0.000000e+00	0.000000e+00	
-39.0	0.000000e+00	0.000000e+00	
-38.7	0.000000e+00	0.000000e+00	
-38.5	0.000000e+00	0.000000e+00	
-38.2	0.000000e+00	0.000000e+00	
-38.0	0.000000e+00	0.000000e+00	
-37.7	0.000000e+00	0.000000e+00	
-37.5	0.000000e+00	0.000000e+00	
-37.2	0.000000e+00	0.000000e+00	
-37.0	0.000000e+00	0.000000e+00	
-36.7	0.000000e+00	0.000000e+00	
-36.5	0.000000e+00	0.000000e+00	
-36.2	0.000000e+00	0.000000e+00	
-36.0	0.000000e+00	0.000000e+00	
-35.7	0.000000e+00	0.000000e+00	
-35.5	0.000000e+00	0.000000e+00	
-35.2	0.000000e+00	0.000000e+00	
-35.0	0.000000e+00	0.000000e+00	
-34.7	0.000000e+00	0.000000e+00	
-34.5	0.000000e+00	0.000000e+00	
-34.2	0.000000e+00	0.000000e+00	
-34.0	0.000000e+00	0.000000e+00	
-33.7	0.000000e+00	0.000000e+00	
-33.5	0.000000e+00	0.000000e+00	
-33.2	0.000000e+00	0.000000e+00	
-33.0	0.000000e+00	0.000000e+00	
-32.7	0.000000e+00	0.000000e+00	
-32.5	0.000000e+00	0.000000e+00	
-32.2	0.000000e+00	0.000000e+00	
-32.0	0.000000e+00	0.000000e+00	
-31.7	0.000000e+00	0.000000e+00	
-31.5	0.000000e+00	0.000000e+00	
-31.2	0.000000e+00	0.000000e+00	
-31.0	0.000000e+00	0.000000e+00	
-30.7	0.000000e+00	0.000000e+00	
-30.5	0.000000e+00	0.000000e+00	
-30.2	0.000000e+00	0.000000e+00	
-29.9	0.000000e+00	0.000000e+00	
-29.7	0.000000e+00	0.000000e+00	
-29.4	0.000000e+00	0.000000e+00	
-29.2	0.000000e+00	0.000000e+00	
-28.9	0.000000e+00	0.000000e+00	
-28.7	0.000000e+00	0.000000e+00	
-28.4	0.000000e+00	0.000000e+00	
-28.2	0.000000e+00	0.000000e+00	
-27.9	0.000000e+00	0.000000e+00	
-27.7	0.000000e+00	0.000000e+00	
-27.4	0.000000e+00	0.000000e+00	
-27.2	0.000000e+00	0.000000e+00	
-26.9	0.000000e+00	0.000000e+00	
-26.7	0.000000e+00	0.000000e+00	
-26.4	0.000000e+00	0.000000e+00	
-26.2	0.000000e+00	0.000000e+00	
-25.9	0.000000e+00	0.000000e+00	
-25.7	0.000000e+00	0.000000e+00	
-25.4	0.000000e+00	0.000000e+00	
-25.2	0.000000e+00	0.000000e+00	
-24.9	0.000000e+00	0.000000e+00	
-24.7	0.000000e+00	0.000000e+00	
-24.4	0.000000e+00	0.000000e+00	
-24.2	0.000000e+00	0.000000e+00	
-23.9	0.000000e+00	0.000000e+00	
-23.7	0.000000e+00	0.000000e+00	
-23.4	0.000000e+00	0.000000e+00	
-23.2	0.000000e+00	0.000000e+00	
-22.9	0.000000e+00	0.000000e+00	
-22.7	0.000000e+00	0.000000e+00	
-22.4	0.000000e+00	0.000000e+00	
-22.2	0.000000e+00	0.000000e+00	
-21.9	0.000000e+00	0.000000e+00	
-21.7	0.000000e+00	0.000000e+00	
-21.4	0.000000e+00	0.000000e+00	
-21.2	0.000000e+00	0.000000e+00	
-20.9	0.000000e+00	0.000000e+00	
-20.7	0.000000e+00	0.000000e+00	
-20.4	0.000000e+00	0.000000e+00	
-20.2	0.000000e+00	0.000000e+00	
-19.9	0.000000e+00	0.000000e+00	
-19.7	0.000000e+00	0.000000e+00	
-19.4	0.000000e+00	0.000000e+00	
-19.2	0.000000e+00	0.000000e+00	
-18.9	0.000000e+00	0.000000e+00	
-18.7	0.000000e+00	0.000000e+00	
-18.4	0.000000e+00	0.000000e+00	
-18.2	0.000000e+00	0.000000e+00	
-17.9	0.000000e+00	0.000000e+00	
-17.7	0.000000e+00	0.000000e+00	
-17.4	0.000000e+00	0.000000e+00	
-17.2	0.000000e+00	0.000000e+00	
-16.9	0.000000e+00	0.000000e+00	
-16.7	0.000000e+00	0.000000e+00	
-16.4	0.000000e+00	0.000000e+00	
-16.2	0.000000e+00	0.000000e+00	
-15.9	0.000000e+00	0.000000e+00	
-15.7	0.000000e+00	0.000000e+00	
-15.4	0.000000e+00	0.000000e+00	
-15.2	0.000000e+00	0.000000e+00	
-14.9	0.000000e+00	0.000000e+00	
-14.7	0.000000e+00	0.000000e+00	
-14.4	0.000000e+00	0.000000e+00	
-14.2	0.000000e+00	0.000000e+00	
-13.9	0.000000e+00	0.000000e+00	
-13.7	0.000000e+00	0.000000e+00	
-13.4	0.000000e+00	0.000000e+00	
-13.2	0.000000e+00	0.000000e+00	
-12.9	0.000000e+00	0.000000e+00	
-12.7	0.000000e+00	0.000000e+00	
-12.4	0.000000e+00	0.000000e+00	
-12.2	0.000000e+00	0.000000e+00	
-11.9	0.000000e+00	0.000000e+00	
-11.7	0.000000e+00	0.000000e+00	
-11.4	0.000000e+00	0.000000e+00	
-11.2	0.000000e+00	0.000000e+00	
-10.9	0.000000e+00	0.000000e+00	
-10.7	0.000000e+00	0.000000e+00	
-10.4	0.000000e+00	0.000000e+00	
-10.2	0.000000e+00	0.000000e+00	
-9.9	0.000000e+00	0.000000e+00	
-9.6	0.000000e+00	0.000000e+00	
-9.4	0.000000e+00	0.000000e+00	
-9.1	0.000000e+00	0.000000e+00	
-8.9	0.000000e+00	0.000000e+00	
-8.6	0.000000e+00	0.000000e+00	
-8.4	0.000000e+00	0.000000e+00	
-8.1	0.000000e+00	0.000000e+00	
-7.9	0.000000e+00	0.000000e+00	
-7.6	0.000000e+00	0.000000e+00	
-7.4	0.000000e+00	0.000000e+00	
-7.1	0.000000e+00	0.000000e+00	
-6.9	0.000000e+00	0.000000e+00	
-6.6	0.000000e+00	0.000000e+00	
-6.4	0.000000e+00	0.000000e+00	
-6.1	0.000000e+00	0.000000e+00	
-5.9	0.000000e+00	0.000000e+00	
-5.6	0.000000e+00	0.000000e+00	
-5.4	0.000000e+00	0.000000e+00	
-5.1	0.000000e+00	0.000000e+00	
-4.9	0.000000e+00	0.000000e+00	
-4.6	0.000000e+00	0.000000e+00	
-4.4	0.000000e+00	0.000000e+00	
-4.1	0.000000e+00	0.000000e+00	
-3.9	0.000000e+00	0.000000e+00	
-3.6	0.000000e+00	0.000000e+00	
-3.4	0.000000e+00	0.000000e+00	
-3.1	0.000000e+00	0.000000e+00	
-2.9	0.000000e+00	0.000000e+00	
-2.6	0.000000e+00	1.482197e-323	
-2.4	0.000000e+00	2.779613e-319	
-2.1	0.000000e+00	4.460750e-315	
-1.9	0.000000e+00	7.117727e-311	
-1.6	0.000000e+00	1.129110e-306	
-1.4	0.000000e+00	1.780506e-302	
-1.1	0.000000e+00	2.790686e-298	
-0.9	0.000000e+00	4.346966e-294	
-0.6	0.000000e+00	6.728446e-290	
-0.4	0.000000e+00	1.034761e-285	
-0.1	0.000000e+00	1.580900e-281	
0.1	0.000000e+00	2.399096e-277	
0.4	0.000000e+00	3.615827e-273	
0.6	0.000000e+00	5.411537e-269	
0.9	0.000000e+00	8.041191e-265	
1.1	0.000000e+00	1.186147e-260	
1.4	0.000000e+00	1.736617e-256	
1.6	0.000000e+00	2.523156e-252	
1.9	0.000000e+00	3.637327e-248	
2.1	0.000000e+00	5.201643e-244	
2.4	0.000000e+00	7.377971e-240	
2.6	0.000000e+00	1.037737e-235	
2.9	0.000000e+00	1.447116e-231	
3.1	0.000000e+00	2.000298e-227	
3.4	0.000000e+00	2.740102e-223	
3.6	0.000000e+00	3.718954e-219	
3.9	0.000000e+00	4.999826e-215	
4.1	0.000000e+00	6.656759e-211	
4.4	0.000000e+00	8.774728e-207	
4.6	0.000000e+00	1.144860e-202	
4.9	0.000000e+00	1.478081e-198	
5.1	0.000000e+00	1.887757e-194	
5.4	0.000000e+00	2.384322e-190	
5.6	0.000000e+00	2.977268e-186	
5.9	0.000000e+00	3.674193e-182	
6.1	0.000000e+00	4.479683e-178	
6.4	0.000000e+00	5.394077e-174	
6.6	0.000000e+00	6.412201e-170	
6.9	0.000000e+00	7.522199e-166	
7.1	0.000000e+00	8.704606e-162	
7.4	0.000000e+00	9.931838e-158	
7.6	0.000000e+00	1.116827e-153	
7.9	0.000000e+00	1.237107e-149	
8.1	0.000000e+00	1.349183e-145	
8.4	0.000000e+00	1.447912e-141	
8.6	0.000000e+00	1.528171e-137	
8.9	0.000000e+00	1.585252e-133	
9.1	0.000000e+00	1.615257e-129	
9.4	0.000000e+00	1.615499e-125	
9.6	0.000000e+00	1.584816e-121	
9.9	0.000000e+00	1.523783e-117	
10.2	0.000000e+00	1.434770e-113	
10.4	0.000000e+00	1.321826e-109	
10.7	0.000000e+00	1.190395e-105	
10.9	0.000000e+00	1.046872e-101	
11.2	0.000000e+00	8.980713e-98	
11.4	0.000000e+00	7.506443e-94	
11.7	0.000000e+00	6.105412e-90	
11.9	0.000000e+00	4.825676e-86	
12.2	0.000000e+00	3.700988e-82	
12.4	0.000000e+00	2.749724e-78	
12.7	0.000000e+00	1.975613e-74	
12.9	0.000000e+00	1.369968e-70	
13.2	0.000000e+00	9.149184e-67	
13.4	0.000000e+00	5.870641e-63	
13.7	0.000000e+00	3.609701e-59	
13.9	0.000000e+00	2.120579e-55	
14.2	0.000000e+00	1.186285e-51	
14.4	0.000000e+00	6.295563e-48	
14.7	0.000000e+00	3.155868e-44	
14.9	0.000000e+00	1.486906e-40	
15.2	0.000000e+00	6.546598e-37	
15.4	0.000000e+00	2.675196e-33	
15.7	0.000000e+00	1.006392e-29	
15.9	0.000000e+00	3.451087e-26	
16.2	0.000000e+00	1.065611e-22	
16.4	0.000000e+00	2.916961e-19	
16.7	0.000000e+00	6.935443e-16	
16.9	0.000000e+00	1.392758e-12	
17.2	0.000000e+00	2.268260e-09	
17.4	0.000000e+00	2.809281e-06	
17.7	0.000000e+00	2.352688e-03	
17.9	1.000000e+00	1.000000e+00	
18.2	1.000000e+00	1.000000e+00	
18.4	1.000000e+00	1.000000e+00	
18.7	1.000000e+00	1.000000e+00	
18.9	1.000000e+00	1.000000e+00	
19.2	1.000000e+00	1.000000e+00	
19.4	1.000000e+00	1.000000e+00	
19.7	1.000000e+00	1.000000e+00	
19.9	1.000000e+00	1.000000e+00	
20.2	1.000000e+00	1.000000e+00	
20.4	1.000000e+00	1.000000e+00	
20.7	1.000000e+00	1.000000e+00	
20.9	1.000000e+00	1.000000e+00	
21.2	1.000000e+00	1.000000e+00	
21.4	1.000000e+00	1.000000e+00	
21.7	1.000000e+00	1.000000e+00	
21.9	1.000000e+00	1.000000e+00	
22.2	1.000000e+00	1.000000e+00	
22.4	1.000000e+00	1.000000e+00	
22.7	1.000000e+00	1.000000e+00	
22.9	1.000000e+00	1.000000e+00	
23.2	1.000000e+00	1.000000e+00	
23.4	1.000000e+00	1.000000e+00	
23.7	1.000000e+00	1.000000e+00	
23.9	1.000000e+00	1.000000e+00	
24.2	1.000000e+00	1.000000e+00	
24.4	1.000000e+00	1.000000e+00	
24.7	1.000000e+00	1.000000e+00	
24.9	1.000000e+00	1.000000e+00	
25.2	1.000000e+00	1.000000e+00	
25.4	1.000000e+00	1.000000e+00	
25.7	1.000000e+00	1.000000e+00	
25.9	1.000000e+00	1.000000e+00	
26.2	1.000000e+00	1.000000e+00	
26.4	1.000000e+00	1.000000e+00	
26.7	1.000000e+00	1.000000e+00	
26.9	1.000000e+00	1.000000e+00	
27.2	1.000000e+00	1.000000e+00	
27.4	1.000000e+00	1.000000e+00	
27.7	1.000000e+00	1.000000e+00	
27.9	1.000000e+00	1.000000e+00	
28.2	1.000000e+00	1.000000e+00	
28.4	1.000000e+00	1.000000e+00	
28.7	1.000000e+00	1.000000e+00	
28.9	1.000000e+00	1.000000e+00	
29.2	1.000000e+00	1.000000e+00	
29.4	1.000000e+00	1.000000e+00	
29.7	1.000000e+00	1.000000e+00	
29.9	1.000000e+00	1.000000e+00	
30.2	1.000000e+00	1.000000e+00	
30.5	1.000000e+00	1.000000e+00	
30.7	1.000000e+00	1.000000e+00	
31.0	1.000000e+00	1.000000e+00	
31.2	1.000000e+00	1.000000e+00	
31.5	1.000000e+00	1.000000e+00	
31.7	1.000000e+00	1.000000e+00	
32.0	1.000000e+00	1.000000e+00	
32.2	1.000000e+00	1.000000e+00	
32.5	1.000000e+00	1.000000e+00	
32.7	1.000000e+00	1.000000e+00	
33.0	1.000000e+00	1.000000e+00	
33.2	1.000000e+00	1.000000e+00	
33.5	1.000000e+00	1.000000e+00	
33.7	1.000000e+00	1.000000e+00	
34.0	1.000000e+00	1.000000e+00	
34.2	1.000000e+00	1.000000e+00	
34.5	1.000000e+00	1.000000e+00	
34.7	1.000000e+00	1.000000e+00	
35.0	1.000000e+00	1.000000e+00	
35.2	1.000000e+00	1.000000e+00	
35.5	1.000000e+00	1.000000e+00	
35.7	1.000000e+00	1.000000e+00	
36.0	1.000000e+00	1.000000e+00	
36.2	1.000000e+00	1.000000e+00	
36.5	1.000000e+00	1.000000e+00	
36.7	1.000000e+00	1.000000e+00	
37.0	1.000000e+00	1.000000e+00	
37.2	1.000000e+00	1.000000e+00	
37.5	1.000000e+00	1.000000e+00	
37.7	1.000000e+00	1.000000e+00	
38.0	1.000000e+00	1.000000e+00	
38.2	1.000000e+00	1.000000e+00	
38.5	1.000000e+00	1.000000e+00	
38.7	1.000000e+00	1.000000e+00	
39.0	1.000000e+00	1.000000e+00	
39.2	1.000000e+00	1.000000e+00	
39.5	1.000000e+00	1.000000e+00	
39.7	1.000000e+00	1.000000e+00	
40.0	1.000000e+00	1.000000e+00	
40.2	1.000000e+00	1.000000e+00	
40.5	1.000000e+00	1.000000e+00	
40.7	1.000000e+00	1.000000e+00	
41.0	1.000000e+00	1.000000e+00	
41.2	1.000000e+00	1.000000e+00	
41.5	1.000000e+00	1.000000e+00	
41.7	1.000000e+00	1.000000e+00	
42.0	1.000000e+00	1.000000e+00	
42.2	1.000000e+00	1.000000e+00	
42.5	1.000000e+00	1.000000e+00	
42.7	1.000000e+00	1.000000e+00	
43.0	1.000000e+00	1.000000e+00	
43.2	1.000000e+00	1.000000e+00	
43.5	1.000000e+00	1.000000e+00	
43.7	1.000000e+00	1.000000e+00	
44.0	1.000000e+00	1.000000e+00	
44.2	1.000000e+00	1.000000e+00	
44.5	1.000000e+00	1.000000e+00	
44.7	1.000000e+00	1.000000e+00	
45.0	1.000000e+00	1.000000e+00	
45.2	1.000000e+00	1.000000e+00	
45.5	1.000000e+00	1.000000e+00	
45.7	1.000000e+00	1.000000e+00	
46.0	1.000000e+00	1.000000e+00	
46.2	1.000000e+00	1.000000e+00	
46.5	1.000000e+00	1.000000e+00	
46.7	1.000000e+00	1.000000e+00	
47.0	1.000000e+00	1.000000e+00	
47.2	1.000000e+00	1.000000e+00	
47.5	1.000000e+00	1.000000e+00	
47.7	1.000000e+00	1.000000e+00	
48.0	1.000000e+00	1.000000e+00	
48.2	1.000000e+00	1.000000e+00	
48.5	1.000000e+00	1.000000e+00	
48.7	1.000000e+00	1.000000e+00	
49.0	1.000000e+00	1.000000e+00	
49.2	1.000000e+00	1.000000e+00	
49.5	1.000000e+00	1.000000e+00	
49.7	1.000000e+00	1.000000e+00	
50.0	1.000000e+00	1.000000e+00	
