-50.0	0.000000e+00	0.000000e+00	0.000000e+00	0.000000e+00	0.000000e+00	0.000000e+00	0.000000e+00	0.000000e+00	0.000000e+00	0.000000e+00	
-49.7	0.000000e+00	0.000000e+00	0.000000e+00	0.000000e+00	0.000000e+00	0.000000e+00	0.000000e+00	0.000000e+00	0.000000e+00	0.000000e+00	
-49.5	0.000000e+00	0.000000e+00	0.000000e+00	0.000000e+00	0.000000e+00	2.057483e-291	0.000000e+00	4.500816e-188	0.000000e+00	3.891522e-156	
-49.2	0.000000e+00	0.000000e+00	0.000000e+00	0.000000e+00	0.000000e+00	8.930458e-287	0.000000e+00	2.121186e-185	0.000000e+00	-6.452437e-155	
-49.0	0.000000e+00	0.000000e+00	0.000000e+00	0.000000e+00	0.000000e+00	3.418630e-282	0.000000e+00	8.816048e-183	0.000000e+00	-9.400117e-154	
-48.7	0.000000e+00	0.000000e+00	0.000000e+00	0.000000e+00	0.000000e+00	1.154173e-277	0.000000e+00	3.231224e-180	0.000000e+00	-4.136575e-153	
-48.5	0.000000e+00	0.000000e+00	0.000000e+00	0.000000e+00	0.000000e+00	3.436615e-273	0.000000e+00	1.044349e-177	0.000000e+00	2.622403e-152	
-48.2	0.000000e+00	0.000000e+00	0.000000e+00	0.000000e+00	0.000000e+00	9.024669e-269	0.000000e+00	2.976422e-175	0.000000e+00	4.757936e-151	
-48.0	0.000000e+00	0.000000e+00	0.000000e+00	0.000000e+00	0.000000e+00	2.090126e-264	0.000000e+00	7.479851e-173	0.000000e+00	2.247248e-150	
-47.7	0.000000e+00	0.000000e+00	0.000000e+00	0.000000e+00	0.000000e+00	4.269278e-260	0.000000e+00	1.657353e-170	0.000000e+00	-8.923529e-150	
-47.5	0.000000e+00	0.000000e+00	0.000000e+00	0.000000e+00	0.000000e+00	7.690899e-256	0.000000e+00	3.237628e-168	0.000000e+00	-1.798784e-148	
-47.2	0.000000e+00	0.000000e+00	0.000000e+00	0.000000e+00	0.000000e+00	1.221914e-251	0.000000e+00	5.575521e-166	0.000000e+00	-8.274612e-148	
-47.0	0.000000e+00	0.000000e+00	0.000000e+00	0.000000e+00	0.000000e+00	1.712161e-247	0.000000e+00	8.463204e-164	0.000000e+00	2.584829e-147	
-46.7	0.000000e+00	0.000000e+00	0.000000e+00	0.000000e+00	0.000000e+00	2.115872e-243	0.000000e+00	1.132147e-161	0.000000e+00	5.248482e-146	
-46.5	0.000000e+00	0.000000e+00	0.000000e+00	0.000000e+00	0.000000e+00	2.306082e-239	0.000000e+00	1.334430e-159	0.000000e+00	2.295340e-145	
-46.2	0.000000e+00	0.000000e+00	0.000000e+00	0.000000e+00	0.000000e+00	2.216670e-235	0.000000e+00	1.385459e-157	0.000000e+00	-6.010342e-145	
-46.0	0.000000e+00	0.000000e+00	0.000000e+00	0.000000e+00	0.000000e+00	1.879178e-231	0.000000e+00	1.266599e-155	0.000000e+00	-1.213946e-143	
-45.7	0.000000e+00	0.000000e+00	0.000000e+00	0.000000e+00	0.000000e+00	1.404997e-227	0.000000e+00	1.019129e-153	0.000000e+00	-5.166355e-143	
-45.5	0.000000e+00	0.000000e+00	0.000000e+00	0.000000e+00	0.000000e+00	9.264532e-224	0.000000e+00	7.212700e-152	0.000000e+00	1.050917e-142	
-45.2	0.000000e+00	0.000000e+00	0.000000e+00	0.000000e+00	0.000000e+00	5.387810e-220	0.000000e+00	4.486390e-150	0.000000e+00	2.293495e-141	
-45.0	0.000000e+00	0.000000e+00	0.000000e+00	0.000000e+00	0.000000e+00	2.763386e-216	0.000000e+00	2.450009e-148	0.000000e+00	9.939423e-141	
-44.7	0.000000e+00	0.000000e+00	0.000000e+00	0.000000e+00	0.000000e+00	1.250004e-212	0.000000e+00	1.173007e-146	0.000000e+00	-1.269321e-140	
-44.5	0.000000e+00	0.000000e+00	0.000000e+00	0.000000e+00	0.000000e+00	4.986797e-209	0.000000e+00	4.914488e-145	0.000000e+00	-3.631986e-139	
-44.2	0.000000e+00	0.000000e+00	0.000000e+00	0.000000e+00	0.000000e+00	1.754577e-205	0.000000e+00	1.797175e-143	0.000000e+00	-1.676393e-138	
-44.0	0.000000e+00	0.000000e+00	0.000000e+00	0.000000e+00	0.000000e+00	5.444567e-202	0.000000e+00	5.716104e-142	0.000000e+00	6.990734e-139	
-43.7	0.000000e+00	0.000000e+00	0.000000e+00	0.000000e+00	0.000000e+00	1.490028e-198	0.000000e+00	1.573361e-140	0.000000e+00	4.887337e-137	
-43.5	0.000000e+00	0.000000e+00	0.000000e+00	0.000000e+00	0.000000e+00	3.596380e-195	0.000000e+00	3.720291e-139	0.000000e+00	2.497983e-136	
-43.2	0.000000e+00	0.000000e+00	0.000000e+00	0.000000e+00	0.000000e+00	7.655551e-192	0.000000e+00	7.471600e-138	0.000000e+00	1.153358e-136	
-43.0	0.000000e+00	0.000000e+00	0.000000e+00	-1.863616e-320	0.000000e+00	1.437232e-188	0.000000e+00	1.250673e-136	0.000000e+00	-5.591204e-135	
-42.7	0.000000e+00	0.000000e+00	0.000000e+00	-3.652027e-315	0.000000e+00	2.379668e-185	0.000000e+00	1.684352e-135	0.000000e+00	-3.291060e-134	
-42.5	0.000000e+00	0.000000e+00	0.000000e+00	-6.312821e-310	0.000000e+00	3.474918e-182	0.000000e+00	1.681971e-134	0.000000e+00	-4.328682e-134	
-42.2	0.000000e+00	0.000000e+00	0.000000e+00	-9.623958e-305	0.000000e+00	4.475184e-179	0.000000e+00	9.171396e-134	0.000000e+00	5.352890e-133	
-42.0	0.000000e+00	0.000000e+00	0.000000e+00	-1.293971e-299	0.000000e+00	5.082936e-176	0.000000e+00	-5.218841e-133	0.000000e+00	3.822794e-132	
-41.7	0.000000e+00	0.000000e+00	0.000000e+00	-1.534392e-294	0.000000e+00	5.091606e-173	0.000000e+00	-1.926590e-131	0.000000e+00	8.195594e-132	
-41.5	0.000000e+00	0.000000e+00	0.000000e+00	-1.604681e-289	0.000000e+00	4.498110e-170	0.000000e+00	-2.324445e-130	0.000000e+00	-4.076617e-131	
-41.2	0.000000e+00	0.000000e+00	0.000000e+00	-1.480069e-284	0.000000e+00	3.504603e-167	0.000000e+00	-1.303105e-129	0.000000e+00	-3.891627e-130	
-41.0	0.000000e+00	0.000000e+00	0.000000e+00	-1.203971e-279	0.000000e+00	2.408126e-164	0.000000e+00	4.556347e-129	0.000000e+00	-1.162308e-129	
-40.7	0.000000e+00	0.000000e+00	0.000000e+00	-8.637549e-275	0.000000e+00	1.459313e-161	0.000000e+00	1.638451e-127	0.000000e+00	2.059178e-129	
-40.5	0.000000e+00	0.000000e+00	0.000000e+00	-5.465198e-270	0.000000e+00	7.799079e-159	0.000000e+00	1.457070e-126	0.000000e+00	3.432334e-128	
-40.2	0.000000e+00	0.000000e+00	0.000000e+00	-3.049734e-265	0.000000e+00	3.675863e-156	0.000000e+00	3.252886e-126	0.000000e+00	1.348568e-127	
-40.0	0.000000e+00	0.000000e+00	0.000000e+00	-1.500924e-260	0.000000e+00	1.527885e-153	0.000000e+00	-6.586512e-125	0.000000e+00	1.179456e-128	
-39.7	0.000000e+00	0.000000e+00	0.000000e+00	-6.514729e-256	0.000000e+00	5.600550e-151	0.000000e+00	-8.039969e-124	0.000000e+00	-2.560474e-126	
-39.5	0.000000e+00	0.000000e+00	0.000000e+00	-2.493875e-251	0.000000e+00	1.810380e-148	0.000000e+00	-3.138411e-123	0.000000e+00	-1.321140e-125	
-39.2	0.000000e+00	0.000000e+00	0.000000e+00	-8.419643e-247	0.000000e+00	5.160549e-146	0.000000e+00	1.762233e-122	0.000000e+00	-1.847971e-125	
-39.0	0.000000e+00	0.000000e+00	0.000000e+00	-2.506995e-242	0.000000e+00	1.297161e-143	0.000000e+00	2.960277e-121	0.000000e+00	1.524131e-124	
-38.7	0.000000e+00	0.000000e+00	0.000000e+00	-6.583456e-238	0.000000e+00	2.875042e-141	0.000000e+00	1.383262e-120	0.000000e+00	1.102735e-123	
-38.5	0.000000e+00	0.000000e+00	0.000000e+00	-1.524738e-233	0.000000e+00	5.618510e-139	0.000000e+00	-3.178473e-120	0.000000e+00	2.757598e-123	
-38.2	0.000000e+00	0.000000e+00	0.000000e+00	-3.114420e-229	0.000000e+00	9.680376e-137	0.000000e+00	-7.980455e-119	0.000000e+00	-5.913560e-123	
-38.0	0.000000e+00	0.000000e+00	0.000000e+00	-5.610477e-225	0.000000e+00	1.470331e-134	0.000000e+00	-4.112130e-118	0.000000e+00	-7.780853e-122	
-37.7	0.000000e+00	0.000000e+00	0.000000e+00	-8.913806e-221	0.000000e+00	1.968500e-132	0.000000e+00	2.901977e-118	0.000000e+00	-2.821334e-121	
-37.5	0.000000e+00	0.000000e+00	0.000000e+00	-1.249014e-216	0.000000e+00	2.322647e-130	0.000000e+00	1.642462e-116	0.000000e+00	-5.774183e-122	
-37.2	0.000000e+00	0.000000e+00	0.000000e+00	-1.543520e-212	0.000000e+00	2.414723e-128	0.000000e+00	9.271129e-116	0.000000e+00	4.487540e-120	
-37.0	0.000000e+00	0.000000e+00	0.000000e+00	-1.682278e-208	0.000000e+00	2.211416e-126	0.000000e+00	3.779340e-116	0.000000e+00	2.293100e-119	
-36.7	0.000000e+00	0.000000e+00	0.000000e+00	-1.617052e-204	0.000000e+00	1.783366e-124	0.000000e+00	-2.640013e-114	0.000000e+00	3.783241e-119	
-36.5	0.000000e+00	0.000000e+00	0.000000e+00	-1.370853e-200	0.000000e+00	1.265840e-122	0.000000e+00	-1.679248e-113	0.000000e+00	-1.899092e-118	
-36.2	0.000000e+00	0.000000e+00	0.000000e+00	-1.024940e-196	0.000000e+00	7.903636e-121	0.000000e+00	-2.273312e-113	0.000000e+00	-1.530385e-117	
-36.0	0.000000e+00	0.000000e+00	0.000000e+00	-6.758445e-193	0.000000e+00	4.337566e-119	0.000000e+00	3.328423e-112	0.000000e+00	-4.370725e-117	
-35.7	0.000000e+00	0.000000e+00	0.000000e+00	-3.930391e-189	0.000000e+00	2.090209e-117	0.000000e+00	2.512485e-111	0.000000e+00	3.048073e-117	
-35.5	0.000000e+00	-4.940656e-324	0.000000e+00	-2.015883e-185	0.000000e+00	8.832103e-116	0.000000e+00	5.599438e-111	0.000000e+00	8.272401e-116	
-35.2	0.000000e+00	-1.695530e-318	0.000000e+00	-9.118753e-182	0.000000e+00	3.266434e-114	0.000000e+00	-3.180335e-110	0.000000e+00	3.491835e-115	
-35.0	0.000000e+00	-6.228028e-313	0.000000e+00	-3.637862e-178	0.000000e+00	1.054720e-112	0.000000e+00	-3.136896e-109	0.000000e+00	4.063036e-115	
-34.7	0.000000e+00	-2.017606e-307	0.000000e+00	-1.279963e-174	0.000000e+00	2.963176e-111	0.000000e+00	-9.722919e-109	0.000000e+00	-3.331737e-114	
-34.5	0.000000e+00	-5.764517e-302	0.000000e+00	-3.971815e-171	0.000000e+00	7.207945e-110	0.000000e+00	1.955865e-108	0.000000e+00	-2.187745e-113	
-34.2	0.000000e+00	-1.452547e-296	0.000000e+00	-1.086979e-167	0.000000e+00	1.507244e-108	0.000000e+00	3.260315e-107	0.000000e+00	-5.433008e-113	
-34.0	0.000000e+00	-3.228035e-291	0.000000e+00	-2.623574e-164	0.000000e+00	2.679595e-107	0.000000e+00	1.325006e-106	0.000000e+00	6.346839e-113	
-33.7	0.000000e+00	-6.326842e-286	0.000000e+00	-5.584775e-161	0.000000e+00	3.976426e-106	0.000000e+00	5.619760e-108	0.000000e+00	1.085083e-111	
-33.5	0.000000e+00	-1.093645e-280	0.000000e+00	-1.048475e-157	0.000000e+00	4.759530e-105	0.000000e+00	-2.766460e-105	0.000000e+00	4.182250e-111	
-33.2	0.000000e+00	-1.667273e-275	0.000000e+00	-1.736001e-154	0.000000e+00	4.246778e-104	0.000000e+00	-1.473238e-104	0.000000e+00	4.170768e-111	
-33.0	0.000000e+00	-2.241701e-270	0.000000e+00	-2.535019e-151	0.000000e+00	2.116001e-103	0.000000e+00	-2.138648e-104	0.000000e+00	-3.932489e-110	
-32.7	0.000000e+00	-2.658211e-265	0.000000e+00	-3.264762e-148	0.000000e+00	-9.329641e-103	0.000000e+00	1.805581e-103	0.000000e+00	-2.410880e-109	
-32.5	0.000000e+00	-2.779981e-260	0.000000e+00	-3.708177e-145	0.000000e+00	-3.332851e-101	0.000000e+00	1.353380e-102	0.000000e+00	-5.765545e-109	
-32.2	0.000000e+00	-2.564100e-255	0.000000e+00	-3.714558e-142	0.000000e+00	-3.706750e-100	0.000000e+00	3.540007e-102	0.000000e+00	6.258640e-109	
-32.0	0.000000e+00	-2.085782e-250	0.000000e+00	-3.281640e-139	0.000000e+00	-2.021971e-99	0.000000e+00	-7.192467e-102	0.000000e+00	1.069655e-107	
-31.7	0.000000e+00	-1.496386e-245	0.000000e+00	-2.556882e-136	0.000000e+00	3.251367e-99	0.000000e+00	-1.019422e-100	0.000000e+00	4.085292e-107	
-31.5	0.000000e+00	-9.468014e-241	0.000000e+00	-1.756973e-133	0.000000e+00	1.693355e-97	0.000000e+00	-3.879803e-100	0.000000e+00	4.535520e-107	
-31.2	0.000000e+00	-5.283418e-236	0.000000e+00	-1.064762e-130	0.000000e+00	1.510804e-96	0.000000e+00	-1.478046e-100	0.000000e+00	-3.307763e-106	
-31.0	0.000000e+00	-2.600230e-231	0.000000e+00	-5.690763e-128	0.000000e+00	4.717488e-96	0.000000e+00	6.050153e-99	0.000000e+00	-2.103858e-105	
-30.7	0.000000e+00	-1.128624e-226	0.000000e+00	-2.682356e-125	0.000000e+00	-3.732660e-95	0.000000e+00	3.286050e-98	0.000000e+00	-5.302236e-105	
-30.5	0.000000e+00	-4.320437e-222	0.000000e+00	-1.115029e-122	0.000000e+00	-5.466217e-94	0.000000e+00	6.123248e-98	0.000000e+00	2.920606e-105	
-30.2	0.000000e+00	-1.458635e-217	0.000000e+00	-4.087668e-120	0.000000e+00	-2.697748e-93	0.000000e+00	-2.451044e-97	0.000000e+00	8.076741e-104	
-29.9	0.000000e+00	-4.343167e-213	0.000000e+00	-1.321533e-117	0.000000e+00	2.535452e-93	0.000000e+00	-2.219720e-96	0.000000e+00	3.283971e-103	
-29.7	0.000000e+00	-1.140531e-208	0.000000e+00	-3.767785e-115	0.000000e+00	1.262251e-91	0.000000e+00	-6.948358e-96	0.000000e+00	4.699749e-103	
-29.4	0.000000e+00	-2.641485e-204	0.000000e+00	-9.473038e-113	0.000000e+00	8.007251e-91	0.000000e+00	1.451063e-96	0.000000e+00	-1.964226e-102	
-29.2	0.000000e+00	-5.395481e-200	0.000000e+00	-2.100268e-110	0.000000e+00	1.038651e-90	0.000000e+00	1.166824e-94	0.000000e+00	-1.460843e-101	
-28.9	0.000000e+00	-9.719701e-196	0.000000e+00	-4.106064e-108	0.000000e+00	-1.980594e-89	0.000000e+00	5.445983e-94	0.000000e+00	-4.141511e-101	
-28.7	0.000000e+00	-1.544245e-191	0.000000e+00	-7.078165e-106	0.000000e+00	-1.613163e-88	0.000000e+00	8.453763e-94	0.000000e+00	-7.902699e-102	
-28.4	0.000000e+00	-2.163817e-187	0.000000e+00	-1.075801e-103	0.000000e+00	-4.249158e-88	0.000000e+00	-4.174116e-93	0.000000e+00	4.629558e-100	
-28.2	0.000000e+00	-2.674024e-183	0.000000e+00	-1.441529e-101	0.000000e+00	2.006090e-87	0.000000e+00	-3.269313e-92	0.000000e+00	2.152698e-99	
-27.9	0.000000e+00	-2.914412e-179	0.000000e+00	-1.702743e-99	0.000000e+00	2.392158e-86	0.000000e+00	-9.480397e-92	0.000000e+00	4.066113e-99	
-27.7	0.000000e+00	-2.801414e-175	0.000000e+00	-1.772758e-97	0.000000e+00	9.010321e-86	0.000000e+00	2.482326e-92	0.000000e+00	-7.303749e-99	
-27.4	0.000000e+00	-2.374894e-171	0.000000e+00	-1.626477e-95	0.000000e+00	-7.813317e-86	0.000000e+00	1.483524e-90	0.000000e+00	-7.966295e-98	
-27.2	0.000000e+00	-1.775628e-167	0.000000e+00	-1.314754e-93	0.000000e+00	-2.666936e-84	0.000000e+00	6.666628e-90	0.000000e+00	-2.663475e-97	
-26.9	0.000000e+00	-1.170848e-163	0.000000e+00	-9.360744e-92	0.000000e+00	-1.343887e-83	0.000000e+00	1.056819e-89	0.000000e+00	-2.553370e-97	
-26.7	0.000000e+00	-6.809098e-160	0.000000e+00	-5.867838e-90	0.000000e+00	-1.486049e-83	0.000000e+00	-4.301623e-89	0.000000e+00	1.917337e-96	
-26.4	0.000000e+00	-3.492363e-156	0.000000e+00	-3.236901e-88	0.000000e+00	2.160923e-82	0.000000e+00	-3.465871e-88	0.000000e+00	1.127663e-95	
-26.2	0.000000e+00	-1.579755e-152	0.000000e+00	-1.570285e-86	0.000000e+00	1.518745e-81	0.000000e+00	-1.032463e-87	0.000000e+00	2.767322e-95	
-25.9	0.000000e+00	-6.302327e-149	0.000000e+00	-6.693455e-85	0.000000e+00	3.788194e-81	0.000000e+00	-1.438396e-88	0.000000e+00	-5.270971e-96	
-25.7	0.000000e+00	-2.217444e-145	0.000000e+00	-2.504076e-83	0.000000e+00	-1.049491e-80	0.000000e+00	1.305156e-86	0.000000e+00	-3.293218e-94	
-25.4	0.000000e+00	-6.880896e-142	0.000000e+00	-8.209308e-82	0.000000e+00	-1.320437e-79	0.000000e+00	6.215729e-86	0.000000e+00	-1.369612e-93	
-25.2	0.000000e+00	-1.883119e-138	0.000000e+00	-2.353587e-80	0.000000e+00	-5.007748e-79	0.000000e+00	1.163593e-85	0.000000e+00	-2.329082e-93	
-24.9	0.000000e+00	-4.545181e-135	0.000000e+00	-5.884199e-79	0.000000e+00	-1.442336e-79	0.000000e+00	-2.659324e-85	0.000000e+00	4.793385e-93	
-24.7	0.000000e+00	-9.675310e-132	0.000000e+00	-1.277766e-77	0.000000e+00	8.532774e-78	0.000000e+00	-2.697319e-84	0.000000e+00	4.570818e-92	
-24.4	0.000000e+00	-1.816431e-128	0.000000e+00	-2.396228e-76	0.000000e+00	4.709829e-77	0.000000e+00	-8.941776e-84	0.000000e+00	1.451597e-91	
-24.2	0.000000e+00	-3.007552e-125	0.000000e+00	-3.847370e-75	0.000000e+00	9.225118e-77	0.000000e+00	-6.977667e-84	0.000000e+00	1.371805e-91	
-23.9	0.000000e+00	-4.391850e-122	0.000000e+00	-5.216184e-74	0.000000e+00	-3.447596e-76	0.000000e+00	7.881315e-83	0.000000e+00	-9.433373e-91	
-23.7	0.000000e+00	-5.656159e-119	0.000000e+00	-5.828428e-73	0.000000e+00	-3.331092e-75	0.000000e+00	4.410902e-82	0.000000e+00	-5.463019e-90	
-23.4	0.000000e+00	-6.424441e-116	0.000000e+00	-5.106909e-72	0.000000e+00	-1.113096e-74	0.000000e+00	1.030945e-81	0.000000e+00	-1.346015e-89	
-23.2	0.000000e+00	-6.435590e-113	0.000000e+00	-3.058879e-71	0.000000e+00	-1.496084e-75	0.000000e+00	-6.626784e-82	0.000000e+00	-7.842061e-91	
-22.9	0.000000e+00	-5.685651e-110	0.000000e+00	-4.679696e-71	0.000000e+00	1.715171e-73	0.000000e+00	-1.520489e-80	0.000000e+00	1.347708e-88	
-22.7	0.000000e+00	-4.430067e-107	0.000000e+00	1.511862e-69	0.000000e+00	8.771611e-73	0.000000e+00	-6.000852e-80	0.000000e+00	5.783769e-88	
-22.4	0.000000e+00	-3.044234e-104	0.000000e+00	2.126663e-68	0.000000e+00	1.678399e-72	0.000000e+00	-8.964489e-80	0.000000e+00	1.078214e-87	
-22.2	0.000000e+00	-1.844941e-101	0.000000e+00	1.505481e-67	0.000000e+00	-5.119839e-72	0.000000e+00	2.952755e-79	0.000000e+00	-1.273126e-87	
-21.9	0.000000e+00	-9.861037e-99	0.000000e+00	4.347234e-67	0.000000e+00	-5.020727e-71	0.000000e+00	2.330197e-78	0.000000e+00	-1.612778e-86	
-21.7	0.000000e+00	-4.648328e-96	0.000000e+00	-3.172054e-66	0.000000e+00	-1.687296e-70	0.000000e+00	6.922262e-78	0.000000e+00	-5.504586e-86	
-21.4	0.000000e+00	-1.932427e-93	0.000000e+00	-4.888337e-65	0.000000e+00	-8.781760e-71	0.000000e+00	4.247372e-78	0.000000e+00	-7.146318e-86	
-21.2	0.000000e+00	-7.084989e-91	0.000000e+00	-2.897019e-64	0.000000e+00	1.987459e-69	0.000000e+00	-5.843396e-77	0.000000e+00	2.407696e-85	
-20.9	0.000000e+00	-2.290878e-88	0.000000e+00	-4.680320e-64	0.000000e+00	1.075214e-68	0.000000e+00	-3.021317e-76	0.000000e+00	1.700032e-84	
-20.7	0.000000e+00	-6.532617e-86	0.000000e+00	6.870441e-63	0.000000e+00	2.369607e-68	0.000000e+00	-6.772193e-76	0.000000e+00	4.746194e-84	
-20.4	0.000000e+00	-1.642820e-83	0.000000e+00	6.717435e-62	0.000000e+00	-3.440645e-68	0.000000e+00	3.331011e-76	0.000000e+00	3.369167e-84	
-20.2	0.000000e+00	-3.643371e-81	0.000000e+00	2.633913e-61	0.000000e+00	-4.810517e-67	0.000000e+00	8.720289e-75	0.000000e+00	-3.137877e-83	
-19.9	0.000000e+00	-7.125560e-79	0.000000e+00	-1.851305e-61	0.000000e+00	-1.802586e-66	0.000000e+00	3.412050e-74	0.000000e+00	-1.617903e-82	
-19.7	0.000000e+00	-1.228926e-76	0.000000e+00	-8.660753e-60	0.000000e+00	-2.135374e-66	0.000000e+00	5.486476e-74	0.000000e+00	-3.718550e-82	
-19.4	0.000000e+00	-1.869000e-74	0.000000e+00	-5.135273e-59	0.000000e+00	1.330842e-65	0.000000e+00	-1.217149e-73	0.000000e+00	-1.497789e-83	
-19.2	0.000000e+00	-2.506406e-72	0.000000e+00	-1.056094e-58	0.000000e+00	8.879076e-65	0.000000e+00	-1.091370e-72	0.000000e+00	3.403639e-81	
-18.9	0.000000e+00	-2.963662e-70	0.000000e+00	5.875163e-58	0.000000e+00	2.423224e-64	0.000000e+00	-3.409142e-72	0.000000e+00	1.410507e-80	
-18.7	0.000000e+00	-3.089659e-68	0.000000e+00	5.993450e-57	0.000000e+00	1.250386e-65	0.000000e+00	-3.376129e-72	0.000000e+00	2.643176e-80	
-18.4	0.000000e+00	-2.839604e-66	0.000000e+00	2.255843e-56	0.000000e+00	-2.905474e-63	0.000000e+00	2.019985e-71	0.000000e+00	-2.102203e-80	
-18.2	8.893182e-323	-2.300489e-64	0.000000e+00	4.043238e-57	0.000000e+00	-1.337220e-62	0.000000e+00	1.195497e-70	0.000000e+00	-3.261072e-79	
-17.9	7.261528e-317	-1.642601e-62	0.000000e+00	-4.383662e-55	0.000000e+00	-2.596202e-62	0.000000e+00	3.039389e-70	0.000000e+00	-1.137487e-78	
-17.7	5.062135e-311	-1.033497e-60	0.000000e+00	-2.552361e-54	0.000000e+00	4.026559e-62	0.000000e+00	9.889106e-71	0.000000e+00	-1.691328e-78	
-17.4	3.112291e-305	-5.728516e-59	0.000000e+00	-5.830949e-54	0.000000e+00	4.828405e-61	0.000000e+00	-2.566698e-69	0.000000e+00	3.300979e-78	
-17.2	1.687592e-299	-2.796331e-57	0.000000e+00	1.511473e-53	0.000000e+00	1.698380e-60	0.000000e+00	-1.172736e-68	0.000000e+00	2.837338e-77	
-16.9	8.070404e-294	-1.201610e-55	0.000000e+00	1.860722e-52	0.000000e+00	2.089452e-60	0.000000e+00	-2.426329e-68	0.000000e+00	8.546272e-77	
-16.7	3.403799e-288	-4.542806e-54	0.000000e+00	7.328504e-52	0.000000e+00	-9.776763e-60	0.000000e+00	1.116671e-68	0.000000e+00	9.557150e-77	
-16.4	1.266116e-282	-1.509915e-52	0.000000e+00	7.377827e-52	0.000000e+00	-6.640579e-59	0.000000e+00	2.772230e-67	0.000000e+00	-3.608681e-76	
-16.2	4.153588e-277	-4.407848e-51	0.000000e+00	-8.156716e-51	0.000000e+00	-1.853619e-58	0.000000e+00	1.045341e-66	0.000000e+00	-2.277602e-75	
-15.9	1.201750e-271	-1.128714e-49	0.000000e+00	-5.397871e-50	0.000000e+00	-9.374821e-59	0.000000e+00	1.731791e-66	0.000000e+00	-6.016779e-75	
-15.7	3.066521e-266	-2.530839e-48	0.000000e+00	-1.496240e-49	0.000000e+00	1.576515e-57	0.000000e+00	-2.563592e-66	0.000000e+00	-4.547203e-75	
-15.4	6.901098e-261	-4.957090e-47	0.000000e+00	5.982767e-50	0.000000e+00	7.859284e-57	0.000000e+00	-2.653474e-65	0.000000e+00	3.310998e-74	
-15.2	1.369718e-255	-8.453051e-46	0.000000e+00	2.516398e-48	0.000000e+00	1.757621e-56	0.000000e+00	-8.556421e-65	0.000000e+00	1.704378e-73	
-14.9	2.397646e-250	-1.248903e-44	0.000000e+00	1.167029e-47	0.000000e+00	-5.502400e-57	0.000000e+00	-1.096022e-64	0.000000e+00	3.989207e-73	
-14.7	3.701516e-245	-1.587224e-43	0.000000e+00	2.205575e-47	0.000000e+00	-2.039581e-55	0.000000e+00	3.235925e-64	0.000000e+00	1.561493e-73	
-14.4	5.039818e-240	-1.715502e-42	0.000000e+00	-5.338329e-47	0.000000e+00	-8.193973e-55	0.000000e+00	2.300976e-63	0.000000e+00	-2.702726e-72	
-14.2	6.051888e-235	-1.546288e-41	0.000000e+00	-5.579000e-46	0.000000e+00	-1.455839e-54	0.000000e+00	6.485602e-63	0.000000e+00	-1.197893e-71	
-13.9	6.409255e-230	-1.118641e-40	0.000000e+00	-1.981642e-45	0.000000e+00	1.938102e-54	0.000000e+00	6.022405e-63	0.000000e+00	-2.502654e-71	
-13.7	5.986391e-225	-5.904226e-40	0.000000e+00	-2.234197e-45	0.000000e+00	2.254182e-53	0.000000e+00	-3.241684e-62	0.000000e+00	-5.337975e-73	
-13.4	4.931321e-220	-1.480224e-39	0.000000e+00	1.461756e-44	0.000000e+00	7.650115e-53	0.000000e+00	-1.832768e-61	0.000000e+00	2.015767e-70	
-13.2	3.582632e-215	9.874744e-39	0.000000e+00	9.679862e-44	0.000000e+00	1.053755e-52	0.000000e+00	-4.585661e-61	0.000000e+00	7.953036e-70	
-12.9	2.295524e-210	1.570967e-37	0.000000e+00	2.740672e-43	0.000000e+00	-2.867450e-52	0.000000e+00	-2.723552e-61	0.000000e+00	1.492764e-69	
-12.7	1.297186e-205	1.098840e-36	0.000000e+00	1.104428e-43	0.000000e+00	-2.195152e-51	0.000000e+00	2.809696e-60	0.000000e+00	-5.285298e-70	
-12.4	6.464923e-201	4.311281e-36	0.000000e+00	-2.724757e-42	0.000000e+00	-6.478892e-51	0.000000e+00	1.353843e-59	0.000000e+00	-1.394070e-68	
-12.2	2.841615e-196	1.489169e-36	0.000000e+00	-1.377884e-41	0.000000e+00	-6.627046e-51	0.000000e+00	3.045054e-59	0.000000e+00	-5.011032e-68	
-11.9	1.101559e-191	-1.114005e-34	0.000000e+00	-3.176180e-41	0.000000e+00	3.190201e-50	0.000000e+00	8.447868e-60	0.000000e+00	-8.509067e-68	
-11.7	3.766094e-187	-8.631598e-34	0.000000e+00	1.040739e-41	0.000000e+00	1.918916e-49	0.000000e+00	-2.182876e-58	0.000000e+00	6.198718e-68	
-11.4	1.135574e-182	-3.353315e-33	0.000000e+00	3.963923e-40	0.000000e+00	5.032233e-49	0.000000e+00	-9.341225e-58	0.000000e+00	9.022548e-67	
-11.2	3.019813e-178	-2.848368e-33	0.000000e+00	1.660476e-39	0.000000e+00	3.567797e-49	0.000000e+00	-1.911596e-57	0.000000e+00	3.007948e-66	
-10.9	7.082484e-174	5.390665e-32	0.000000e+00	3.163049e-39	0.000000e+00	-2.976995e-48	0.000000e+00	2.794247e-59	0.000000e+00	4.661241e-66	
-10.7	1.464981e-169	3.984172e-31	0.000000e+00	-3.411846e-39	0.000000e+00	-1.524897e-47	0.000000e+00	1.548358e-56	0.000000e+00	-5.073114e-66	
-10.4	2.672507e-165	1.401676e-30	0.000000e+00	-4.760000e-38	0.000000e+00	-3.620049e-47	0.000000e+00	6.053755e-56	0.000000e+00	-5.498522e-65	
-10.2	4.299784e-161	1.070103e-30	0.000000e+00	-1.733621e-37	0.000000e+00	-1.592982e-47	0.000000e+00	1.141903e-55	0.000000e+00	-1.725646e-64	
-9.9	6.101198e-157	-1.813443e-29	0.000000e+00	-2.776561e-37	0.000000e+00	2.429973e-46	0.000000e+00	-3.087673e-56	0.000000e+00	-2.468679e-64	
-9.6	7.635269e-153	-1.204665e-28	4.940656e-324	5.060162e-37	0.000000e+00	1.111640e-45	0.000000e+00	-1.013705e-54	0.000000e+00	3.485766e-64	
-9.4	8.427025e-149	-3.805046e-28	4.841330e-318	4.865102e-36	0.000000e+00	2.433427e-45	0.000000e+00	-3.700995e-54	0.000000e+00	3.168742e-63	
-9.1	8.202854e-145	-2.385333e-28	3.460911e-312	1.596147e-35	0.000000e+00	5.501285e-46	0.000000e+00	-6.531349e-54	0.000000e+00	9.486515e-63	
-8.9	7.042006e-141	4.270433e-27	2.182009e-306	2.208668e-35	0.000000e+00	-1.771595e-44	0.000000e+00	3.095439e-54	0.000000e+00	1.271845e-62	
-8.6	5.331735e-137	2.567949e-26	1.213287e-300	-5.457092e-35	0.000000e+00	-7.483751e-44	0.000000e+00	6.167692e-53	0.000000e+00	-2.125294e-62	
-8.4	3.560258e-133	7.446450e-26	5.949922e-295	-4.313526e-34	0.000000e+00	-1.540370e-43	0.000000e+00	2.141551e-52	0.000000e+00	-1.731954e-61	
-8.1	2.096694e-129	4.272051e-26	2.573355e-289	-1.313574e-33	0.000000e+00	-1.226834e-44	0.000000e+00	3.596889e-52	0.000000e+00	-5.007461e-61	
-7.9	1.089004e-125	-7.229165e-25	9.815872e-284	-1.638438e-33	0.000000e+00	1.167121e-42	0.000000e+00	-2.187640e-52	0.000000e+00	-6.409760e-61	
-7.6	4.988437e-122	-4.069969e-24	3.302165e-278	4.714850e-33	0.000000e+00	4.674790e-42	0.000000e+00	-3.502525e-51	0.000000e+00	1.176545e-60	
-7.4	2.015303e-118	-1.120821e-23	9.797368e-273	3.357999e-32	0.000000e+00	9.237559e-42	0.000000e+00	-1.175674e-50	0.000000e+00	8.995928e-60	
-7.1	7.180537e-115	-7.164099e-24	2.563662e-267	9.755920e-32	0.000000e+00	1.054891e-43	0.000000e+00	-1.915346e-50	0.000000e+00	2.541590e-59	
-6.9	2.256390e-111	9.014733e-23	5.916337e-262	1.160351e-31	0.000000e+00	-6.992789e-41	0.000000e+00	1.263774e-50	0.000000e+00	3.173266e-59	
-6.6	6.253343e-108	4.970139e-22	1.204164e-256	-3.372690e-31	0.000000e+00	-2.717764e-40	0.000000e+00	1.861116e-49	0.000000e+00	-5.973692e-59	
-6.4	1.528449e-104	1.348485e-21	2.161520e-251	-2.311684e-30	0.000000e+00	-5.267957e-40	0.000000e+00	6.132309e-49	0.000000e+00	-4.445320e-58	
-6.1	3.294811e-101	1.098953e-21	3.421950e-246	-6.576396e-30	0.000000e+00	-1.344446e-41	0.000000e+00	9.885181e-49	0.000000e+00	-1.241420e-57	
-5.9	6.263985e-98	-8.352872e-21	4.777808e-241	-7.920934e-30	0.000000e+00	3.821184e-39	0.000000e+00	-6.166099e-49	0.000000e+00	-1.546241e-57	
-5.6	1.050296e-94	-4.773502e-20	5.883347e-236	2.010826e-29	0.000000e+00	1.472632e-38	0.000000e+00	-9.262615e-48	0.000000e+00	2.789750e-57	
-5.4	1.553150e-91	-1.321808e-19	6.389413e-231	1.411385e-28	0.000000e+00	2.859797e-38	0.000000e+00	-3.040685e-47	0.000000e+00	2.090572e-56	
-5.1	2.025610e-88	-1.414644e-19	6.119814e-226	4.031035e-28	0.000000e+00	3.342669e-39	0.000000e+00	-4.945189e-47	0.000000e+00	5.836160e-56	
-4.9	2.329909e-85	5.629610e-19	5.169591e-221	5.173014e-28	0.000000e+00	-1.903881e-37	0.000000e+00	2.501708e-47	0.000000e+00	7.410632e-56	
-4.6	2.363540e-82	3.629983e-18	3.851367e-216	-9.830814e-28	0.000000e+00	-7.436414e-37	0.000000e+00	4.316040e-46	0.000000e+00	-1.194637e-55	
-4.4	2.114597e-79	1.060619e-17	2.530547e-211	-7.633627e-27	0.000000e+00	-1.475453e-36	0.000000e+00	1.432734e-45	0.000000e+00	-9.353338e-55	
-4.1	1.668526e-76	1.454260e-17	1.466407e-206	-2.242841e-26	0.000000e+00	-4.014365e-37	0.000000e+00	2.392985e-45	0.000000e+00	-2.639519e-54	
-3.9	1.161125e-73	-2.492095e-17	7.494376e-202	-3.172298e-26	0.000000e+00	8.617889e-36	0.000000e+00	-7.691134e-46	0.000000e+00	-3.482502e-54	
-3.6	7.126329e-71	-2.167271e-16	3.377981e-197	3.709761e-26	0.000000e+00	3.493852e-35	0.000000e+00	-1.879310e-44	0.000000e+00	4.641360e-54	
-3.4	3.857389e-68	-6.924706e-16	1.342825e-192	3.636434e-25	0.000000e+00	7.206594e-35	0.000000e+00	-6.407017e-44	0.000000e+00	3.976502e-53	
-3.1	1.841458e-65	-1.174528e-15	4.707850e-188	1.127161e-24	0.000000e+00	3.409935e-35	0.000000e+00	-1.115853e-43	0.000000e+00	1.147206e-52	
-2.9	7.753018e-63	3.637829e-16	1.455682e-183	1.788779e-24	0.000000e+00	-3.515087e-34	0.000000e+00	1.010255e-44	0.000000e+00	1.596997e-52	
-2.6	2.878860e-60	9.843834e-15	3.969640e-179	-8.465609e-25	0.000000e+00	-1.522332e-33	0.000000e+00	7.618047e-43	0.000000e+00	-1.596373e-52	
-2.4	9.427815e-58	3.620532e-14	9.547209e-175	-1.507288e-23	0.000000e+00	-3.314233e-33	0.000000e+00	2.713372e-42	0.000000e+00	-1.603151e-51	
-2.1	2.722967e-55	7.405785e-14	2.025081e-170	-5.076193e-23	0.000000e+00	-2.328348e-33	0.000000e+00	4.989633e-42	0.000000e+00	-4.783633e-51	
-1.9	6.936083e-53	4.484187e-14	3.788343e-166	-9.108252e-23	0.000000e+00	1.271659e-32	0.000000e+00	8.317119e-43	0.000000e+00	-7.106782e-51	
-1.6	1.558214e-50	-3.113308e-13	6.250242e-162	-1.221493e-23	0.000000e+00	6.120547e-32	0.000000e+00	-2.856732e-41	0.000000e+00	4.573369e-51	
-1.4	3.087312e-48	-1.470976e-12	9.094631e-158	5.310584e-22	0.000000e+00	1.425924e-31	0.000000e+00	-1.084922e-40	0.000000e+00	6.109519e-50	
-1.1	5.394791e-46	-3.609525e-12	1.167116e-153	2.025726e-21	0.000000e+00	1.349582e-31	0.000000e+00	-2.128131e-40	0.000000e+00	1.909498e-49	
-0.9	8.313991e-44	-4.539354e-12	1.320942e-149	4.127290e-21	0.000000e+00	-3.951173e-31	0.000000e+00	-9.239721e-41	0.000000e+00	3.051840e-49	
-0.6	1.130018e-41	4.670965e-12	1.318543e-145	2.676146e-21	0.000000e+00	-2.254011e-30	0.000000e+00	9.806205e-40	0.000000e+00	-8.782924e-50	
-0.4	1.354571e-39	4.366459e-11	1.160768e-141	-1.513740e-20	1.246345e-318	-5.699037e-30	0.000000e+00	4.079005e-39	0.000000e+00	-2.190542e-48	
-0.1	1.432052e-37	1.328710e-10	9.012337e-138	-7.049443e-20	9.022527e-313	-6.821470e-30	0.000000e+00	8.610415e-39	0.000000e+00	-7.276691e-48	
0.1	1.335232e-35	2.381475e-10	6.171207e-134	-1.643001e-19	5.760480e-307	9.739732e-30	0.000000e+00	6.038680e-39	0.000000e+00	-1.258070e-47	
0.4	1.097982e-33	1.323396e-10	3.726863e-130	-1.788638e-19	3.243620e-301	7.521547e-29	0.000000e+00	-3.024763e-38	0.000000e+00	-6.695881e-49	
0.6	7.962960e-32	-7.955888e-10	1.984987e-126	3.035701e-19	1.610801e-295	2.099566e-28	0.000000e+00	-1.434331e-37	0.000000e+00	7.337303e-47	
0.9	5.093245e-30	-3.501337e-09	9.324220e-123	2.086386e-18	7.054962e-290	3.048790e-28	0.000000e+00	-3.286849e-37	0.000000e+00	2.638467e-46	
1.1	2.873131e-28	-8.238027e-09	3.862852e-119	5.666472e-18	2.725136e-284	-1.380918e-28	0.000000e+00	-3.165296e-37	0.000000e+00	4.955221e-46	
1.4	1.429410e-26	-1.128121e-08	1.411382e-115	8.406383e-18	9.283727e-279	-2.235926e-27	0.000000e+00	8.078915e-37	0.000000e+00	1.847518e-46	
1.6	6.271901e-25	1.005407e-09	4.548011e-112	-1.433256e-18	2.789313e-273	-7.066450e-27	0.000000e+00	4.683288e-36	0.000000e+00	-2.270508e-45	
1.9	2.427069e-23	5.683511e-08	1.292526e-108	-5.014581e-17	7.391166e-268	-1.212901e-26	0.000000e+00	1.177225e-35	0.000000e+00	-9.065650e-45	
2.1	8.283348e-22	1.882754e-07	3.239648e-105	-1.661931e-16	1.727306e-262	-2.818651e-27	0.000000e+00	1.434857e-35	0.000000e+00	-1.856895e-44	
2.4	2.493276e-20	3.775557e-07	7.161387e-102	-3.108602e-16	3.560135e-257	5.744910e-26	0.000000e+00	-1.699328e-35	0.000000e+00	-1.244090e-44	
2.6	6.618744e-19	4.323061e-07	1.396166e-98	-2.087166e-16	6.471492e-252	2.148582e-25	0.000000e+00	-1.405421e-34	0.000000e+00	6.367720e-44	
2.9	1.549607e-17	-1.884419e-07	2.400590e-95	8.725541e-16	1.037488e-246	4.302409e-25	0.000000e+00	-3.932598e-34	0.000000e+00	2.936628e-43	
3.1	3.199692e-16	-2.426621e-06	3.640319e-92	4.021812e-15	1.466906e-241	3.230511e-25	0.000000e+00	-5.790690e-34	0.000000e+00	6.593686e-43	
3.4	5.826873e-15	-7.130981e-06	4.868572e-89	9.291818e-15	1.829205e-236	-1.193934e-24	0.000000e+00	1.792943e-34	0.000000e+00	6.246182e-43	
3.6	9.358446e-14	-1.338120e-05	5.742547e-86	1.161251e-14	2.011700e-231	-5.809648e-24	0.000000e+00	3.815123e-33	0.000000e+00	-1.557798e-42	
3.9	1.325600e-12	-1.525418e-05	5.973767e-83	-5.999485e-15	1.951213e-226	-1.357451e-23	0.000000e+00	1.216854e-32	0.000000e+00	-8.907811e-42	
4.1	1.656007e-11	1.938891e-06	5.480658e-80	-7.555622e-14	1.669118e-221	-1.594242e-23	0.000000e+00	2.107369e-32	0.000000e+00	-2.209582e-41	
4.4	1.824536e-10	6.187712e-05	4.434635e-77	-2.231568e-13	1.259244e-216	1.606322e-23	0.000000e+00	6.478303e-33	0.000000e+00	-2.673509e-41	
4.6	1.772897e-09	1.858890e-04	3.164636e-74	-3.876958e-13	8.378645e-212	1.361852e-22	0.000000e+00	-9.108290e-32	0.000000e+00	3.010530e-41	
4.9	1.519342e-08	3.603389e-04	1.991730e-71	-2.540167e-13	4.916752e-207	3.782935e-22	0.000000e+00	-3.457074e-31	0.000000e+00	2.506321e-40	
5.1	1.148333e-07	4.796727e-04	1.105548e-68	9.219031e-13	2.544623e-202	5.874978e-22	0.000000e+00	-6.950838e-31	0.000000e+00	6.956219e-40	
5.4	7.654578e-07	2.834054e-04	5.412100e-66	4.146409e-12	1.161474e-197	8.263104e-23	0.000000e+00	-5.420463e-31	0.000000e+00	1.019261e-39	
5.6	4.500029e-06	-6.584087e-04	2.336655e-63	9.421439e-12	4.675587e-193	-2.632011e-21	0.000000e+00	1.798805e-30	0.000000e+00	-2.802280e-40	
5.9	2.333190e-05	-2.820405e-03	8.897422e-61	1.247806e-11	1.659983e-188	-9.186863e-21	0.000000e+00	8.905715e-30	0.000000e+00	-6.445598e-39	
6.1	1.066904e-04	-6.364781e-03	2.987958e-58	-1.647857e-13	5.197706e-184	-1.775710e-20	0.000000e+00	2.078288e-29	0.000000e+00	-2.046236e-38	
6.4	4.302707e-04	-1.053306e-02	8.849639e-56	-5.322416e-11	1.435359e-179	-1.460401e-20	0.000000e+00	2.433591e-29	0.000000e+00	-3.525677e-38	
6.6	1.530378e-03	-1.293829e-02	2.311625e-53	-1.691142e-10	3.495829e-175	3.653602e-20	0.000000e+00	-2.408649e-29	0.000000e+00	-1.126401e-38	
6.9	4.800609e-03	-9.129696e-03	5.325370e-51	-3.185330e-10	7.508974e-171	1.895193e-19	0.000000e+00	-2.039098e-28	0.000000e+00	1.476454e-37	
7.1	1.328112e-02	7.058303e-03	1.081989e-48	-3.225764e-10	1.422498e-166	4.512209e-19	0.000000e+00	-5.610851e-28	0.000000e+00	5.584114e-37	
7.4	3.240514e-02	4.197699e-02	1.938818e-46	2.548869e-10	2.376641e-162	5.968747e-19	0.000000e+00	-8.547113e-28	0.000000e+00	1.115389e-36	
7.6	6.973228e-02	9.953291e-02	3.064021e-44	2.063421e-09	3.501999e-158	-1.293029e-19	0.000000e+00	-6.402442e-29	0.000000e+00	8.628993e-37	
7.9	1.323410e-01	1.782580e-01	4.270583e-42	5.437558e-09	4.551027e-154	-3.143959e-18	0.000000e+00	3.996148e-27	0.000000e+00	-2.849975e-36	
8.1	2.215113e-01	2.694825e-01	5.249565e-40	8.985183e-09	5.216070e-150	-9.614078e-18	8.246944e-320	1.355645e-26	0.000000e+00	-1.399300e-35	
8.4	3.269926e-01	3.580062e-01	5.691153e-38	7.304994e-09	5.272519e-146	-1.700838e-17	6.122174e-314	2.541060e-26	0.000000e+00	-3.234745e-35	
8.6	4.257168e-01	4.257756e-01	5.441490e-36	-1.075920e-08	4.700387e-142	-1.217112e-17	4.008261e-308	1.842127e-26	0.000000e+00	-3.719106e-35	
8.9	4.888148e-01	4.575769e-01	4.588558e-34	-5.933905e-08	3.695642e-138	3.563911e-17	2.314446e-302	-6.111148e-26	0.000000e+00	3.906183e-35	
9.1	4.950039e-01	4.464296e-01	3.412521e-32	-1.415760e-07	2.562636e-134	1.671131e-16	1.178633e-296	-2.882444e-25	0.000000e+00	3.167546e-34	
9.4	4.420930e-01	3.961473e-01	2.238284e-30	-2.186687e-07	1.567201e-130	3.797869e-16	5.293602e-291	-6.552532e-25	0.000000e+00	8.583989e-34	
9.6	3.482246e-01	3.197492e-01	1.294779e-28	-1.669709e-07	8.452847e-127	4.947806e-16	2.096836e-285	-7.884815e-25	0.000000e+00	1.277133e-33	
9.9	2.419056e-01	2.344874e-01	6.605673e-27	2.446907e-07	4.020890e-123	-3.698847e-17	7.325184e-280	4.826748e-25	0.000000e+00	-5.564553e-36	
10.2	1.482085e-01	1.559317e-01	2.972208e-25	1.284261e-06	1.686872e-119	-2.188961e-15	2.256905e-274	5.216588e-24	0.000000e+00	-6.286347e-33	
10.4	8.008314e-02	9.379228e-02	1.179456e-23	2.988738e-06	6.241410e-116	-6.742662e-15	6.132657e-269	1.470258e-23	0.000000e+00	-2.071820e-32	
10.7	3.816364e-02	5.088628e-02	4.127865e-22	4.634184e-06	2.036686e-112	-1.218332e-14	1.469687e-263	2.378020e-23	0.000000e+00	-3.773017e-32	
10.9	1.603981e-02	2.482989e-02	1.274118e-20	4.065830e-06	5.861465e-109	-1.071554e-14	3.106289e-258	1.017902e-23	0.000000e+00	-2.404211e-32	
11.2	5.945514e-03	1.086565e-02	3.468444e-19	-2.602224e-06	1.487747e-105	1.561307e-14	5.790279e-253	-7.413708e-23	0.000000e+00	1.021941e-31	
11.4	1.943660e-03	4.252936e-03	8.327227e-18	-1.990964e-05	3.330371e-102	9.122066e-14	9.519143e-248	-2.835526e-22	0.000000e+00	4.493962e-31	
11.7	5.603921e-04	1.485354e-03	1.763221e-16	-4.932761e-05	6.575018e-99	2.209989e-13	1.380184e-242	-5.799555e-22	0.000000e+00	9.838447e-31	
11.9	1.424966e-04	4.619164e-04	3.292714e-15	-8.225119e-05	1.144833e-95	3.261769e-13	1.764887e-237	-6.061047e-22	0.000000e+00	1.088789e-30	
12.2	3.195637e-05	1.276746e-04	5.423029e-14	-9.129618e-05	1.758036e-92	1.497429e-13	1.990387e-232	6.005665e-22	0.000000e+00	-1.071408e-30	
12.4	6.320498e-06	3.131800e-05	7.877177e-13	-2.551036e-05	2.380972e-89	-7.877987e-13	1.979697e-227	4.537646e-21	0.000000e+00	-8.560944e-30	
12.7	1.102519e-06	6.809061e-06	1.009113e-11	1.803156e-04	2.843947e-86	-2.973054e-12	1.736604e-222	1.180964e-20	0.000000e+00	-2.279309e-29	
12.9	1.696138e-07	1.310809e-06	1.140119e-10	5.702365e-04	2.995915e-83	-6.102148e-12	1.343518e-217	1.798386e-20	0.000000e+00	-3.428762e-29	
13.2	2.301321e-08	2.232497e-07	1.136059e-09	1.099553e-03	2.783417e-80	-7.502620e-12	9.166998e-213	6.685458e-21	0.000000e+00	-6.233318e-30	
13.4	2.753810e-09	3.361661e-08	9.983725e-09	1.546806e-03	2.280697e-77	-3.285822e-13	5.516345e-208	-5.464042e-20	0.000000e+00	1.362364e-28	
13.7	2.906240e-10	4.473002e-09	7.737932e-08	1.446203e-03	1.648154e-74	2.618710e-11	2.927632e-203	-1.995092e-19	0.000000e+00	4.665980e-28	
13.9	2.705016e-11	5.257081e-10	5.289297e-07	1.112220e-04	1.050434e-71	7.975362e-11	1.370320e-198	-3.983811e-19	0.000000e+00	8.843041e-28	
14.2	2.220490e-12	5.455662e-11	3.188686e-06	-3.169676e-03	5.904464e-69	1.456639e-10	5.656771e-194	-4.237704e-19	0.000000e+00	7.432839e-28	
14.4	1.607565e-13	4.997981e-12	1.695377e-05	-8.718731e-03	2.927068e-66	1.545242e-10	2.059472e-189	3.060496e-19	0.000000e+00	-1.561896e-27	
14.7	1.026429e-14	4.041081e-13	7.949898e-05	-1.588203e-02	1.279752e-63	-4.584452e-11	6.612775e-185	2.668162e-18	0.000000e+00	-8.277042e-27	
14.9	5.780031e-16	2.883282e-14	3.287741e-04	-2.245137e-02	4.934689e-61	-6.644271e-10	1.872632e-180	7.040604e-18	0.000000e+00	-1.949038e-26	
15.2	2.870596e-17	1.815136e-15	1.199152e-03	-2.439838e-02	1.678164e-58	-1.801666e-09	4.676940e-176	1.112416e-17	0.000000e+00	-2.573723e-26	
15.4	1.257346e-18	1.008141e-16	3.857374e-03	-1.625058e-02	5.033264e-56	-3.064432e-09	1.030177e-171	6.435668e-18	0.000000e+00	3.138861e-27	
15.7	4.857112e-20	4.939585e-18	1.094334e-02	7.703221e-03	1.331392e-53	-3.004365e-09	2.001257e-167	-2.389175e-17	0.000000e+00	1.212438e-25	
15.9	1.654788e-21	2.134966e-19	2.738098e-02	5.150889e-02	3.106008e-51	1.254213e-09	3.428739e-163	-9.835622e-17	0.000000e+00	3.696068e-25	
16.2	4.972183e-23	8.139594e-21	6.042110e-02	1.154711e-01	6.390578e-49	1.332044e-08	5.180919e-159	-2.085404e-16	0.000000e+00	6.473887e-25	
16.4	1.317628e-24	2.737223e-22	1.175896e-01	1.947192e-01	1.159627e-46	3.447621e-08	6.904304e-155	-2.591314e-16	0.000000e+00	4.673483e-25	
16.7	3.079492e-26	8.118971e-24	2.018321e-01	2.792084e-01	1.855827e-44	5.729490e-08	8.114723e-151	4.656654e-18	5.429781e-321	-1.265467e-24	
16.9	6.347550e-28	2.124055e-25	3.055287e-01	3.555271e-01	2.619372e-42	5.714128e-08	8.411399e-147	9.916174e-16	4.133306e-315	-5.926822e-24	
17.2	1.153915e-29	4.901142e-27	4.079009e-01	4.101778e-01	3.260601e-40	-1.248442e-08	7.689596e-143	2.983238e-15	2.775030e-309	-1.325756e-23	
17.4	1.850046e-31	9.974463e-29	4.802839e-01	4.333004e-01	3.579636e-38	-2.082002e-07	6.199827e-139	5.323137e-15	1.643155e-303	-1.680807e-23	
17.7	2.615964e-33	1.790351e-30	4.987490e-01	4.214901e-01	3.465938e-36	-5.517666e-07	4.408555e-135	5.041814e-15	8.580845e-298	2.268747e-24	
17.9	3.262284e-35	2.834261e-32	4.567798e-01	3.786292e-01	2.959671e-34	-9.417296e-07	2.764737e-131	-4.293178e-15	3.952049e-292	7.586320e-23	
18.2	3.588000e-37	3.957233e-34	3.689542e-01	3.144335e-01	2.228983e-32	-1.040257e-06	1.529157e-127	-3.108916e-14	1.605297e-286	2.260376e-22	
18.4	3.480358e-39	4.872945e-36	2.628323e-01	2.413425e-01	1.480509e-30	-2.104422e-07	7.459178e-124	-7.737136e-14	5.750812e-281	3.927780e-22	
18.7	2.977393e-41	5.292220e-38	1.651299e-01	1.710051e-01	8.672731e-29	2.349149e-06	3.209007e-120	-1.196547e-13	1.816953e-275	3.047452e-22	
18.9	2.246410e-43	5.069083e-40	9.149840e-02	1.116346e-01	4.480655e-27	7.087099e-06	1.217562e-116	-8.222572e-14	5.062894e-270	-6.291051e-22	
19.2	1.494799e-45	4.282183e-42	4.471384e-02	6.696944e-02	2.041587e-25	1.309271e-05	4.074293e-113	1.749389e-13	1.244213e-264	-3.143414e-21	
19.4	8.772374e-48	3.190394e-44	1.927131e-02	3.680452e-02	8.204174e-24	1.678762e-05	1.202414e-109	8.009215e-13	2.696693e-259	-7.164897e-21	
19.7	4.540381e-50	2.096363e-46	7.325228e-03	1.846600e-02	2.907654e-22	1.104298e-05	3.129657e-106	1.755091e-12	5.154766e-254	-9.624319e-21	
19.9	2.072565e-52	1.214873e-48	2.455680e-03	8.427407e-03	9.088480e-21	-1.390422e-05	7.184228e-103	2.421624e-12	8.690148e-249	-1.519686e-21	
20.2	8.343817e-55	6.209222e-51	7.260446e-04	3.485240e-03	2.505420e-19	-6.602034e-05	1.454468e-99	1.162273e-12	1.292070e-243	3.257839e-20	
20.4	2.962526e-57	2.798887e-53	1.893195e-04	1.301320e-03	6.091308e-18	-1.424368e-04	2.596983e-96	-4.703398e-12	1.694282e-238	1.049285e-19	
20.7	9.276843e-60	1.112692e-55	4.353799e-05	4.371438e-04	1.306115e-16	-2.169567e-04	4.089541e-93	-1.751812e-11	1.959413e-233	1.941290e-19	
20.9	2.561999e-62	3.901269e-58	8.830432e-06	1.316899e-04	2.469976e-15	-2.292579e-04	5.679641e-90	-3.533450e-11	1.998514e-228	1.900855e-19	
21.2	6.240201e-65	1.206363e-60	1.579561e-06	3.547453e-05	4.119505e-14	-8.565280e-05	6.956775e-87	-4.515524e-11	1.797749e-223	-1.567202e-19	
21.4	1.340475e-67	3.289965e-63	2.491905e-07	8.523651e-06	6.059516e-13	3.159786e-04	7.515116e-84	-1.632478e-11	1.426237e-218	-1.183529e-18	
21.7	2.539568e-70	7.913081e-66	3.467107e-08	1.822841e-06	7.860889e-12	1.027502e-03	7.159855e-81	9.706213e-11	9.979182e-214	-2.977655e-18	
21.9	4.243279e-73	1.678575e-68	4.254454e-09	3.463431e-07	8.993859e-11	1.960817e-03	6.016078e-78	3.293125e-10	6.157990e-209	-4.568386e-18	
22.2	6.252938e-76	3.140342e-71	4.604274e-10	5.837876e-08	9.075305e-10	2.791700e-03	4.458240e-75	6.360991e-10	3.351381e-204	-2.764340e-18	
22.4	8.126571e-79	5.181481e-74	4.394598e-11	8.719047e-09	8.076387e-09	2.907589e-03	2.913762e-72	7.897876e-10	1.608605e-199	8.373137e-18	
22.7	9.314752e-82	7.540007e-77	3.699286e-12	1.152724e-09	6.338898e-08	1.466865e-03	1.679521e-69	2.899154e-10	6.809505e-195	3.495197e-17	
22.9	9.416207e-85	9.676770e-80	2.746360e-13	1.347981e-10	4.387843e-07	-2.370743e-03	8.538031e-67	-1.576028e-09	2.542275e-190	7.387455e-17	
23.2	8.395014e-88	1.095292e-82	1.798199e-14	1.393396e-11	2.678732e-06	-9.028926e-03	3.827989e-64	-5.308473e-09	8.370863e-186	9.455218e-17	
23.4	6.600967e-91	1.093377e-85	1.038386e-15	1.272576e-12	1.442275e-05	-1.798411e-02	1.513646e-61	-1.021832e-08	2.430853e-181	1.831075e-17	
23.7	4.577564e-94	9.626115e-89	5.288352e-17	1.026459e-13	6.848692e-05	-2.728632e-02	5.278599e-59	-1.298207e-08	6.225696e-177	-2.783342e-16	
23.9	2.799639e-97	7.474340e-92	2.375324e-18	7.309976e-15	2.868190e-04	-3.336759e-02	1.623506e-56	-6.479228e-09	1.406235e-172	-8.838948e-16	
24.2	1.510117e-100	5.118413e-95	9.409487e-20	4.595178e-16	1.059373e-03	-3.136453e-02	4.403821e-54	1.934211e-08	2.801357e-168	-1.633199e-15	
24.4	7.183888e-104	3.091282e-98	3.287380e-21	2.549289e-17	3.450887e-03	-1.606150e-02	1.053528e-51	7.199070e-08	4.921754e-164	-1.747419e-15	
24.7	3.014043e-107	1.646579e-101	1.012919e-22	1.247965e-18	9.914098e-03	1.665650e-02	2.222816e-49	1.442163e-07	7.626267e-160	4.672370e-16	
24.9	1.115270e-110	7.735126e-105	2.752580e-24	5.390171e-20	2.511982e-02	6.820178e-02	4.136200e-47	1.962378e-07	1.042185e-155	7.288170e-15	
25.2	3.639580e-114	3.204741e-108	6.596993e-26	2.053905e-21	5.613328e-02	1.360656e-01	6.787977e-45	1.409751e-07	1.256083e-151	1.964181e-14	
25.4	1.047522e-117	1.171006e-111	1.394418e-27	6.904079e-23	1.106280e-01	2.135118e-01	9.824713e-43	-1.486753e-07	1.335158e-147	3.268645e-14	
25.7	2.658986e-121	3.773689e-115	2.599444e-29	2.047175e-24	1.922873e-01	2.904820e-01	1.254123e-40	-7.831771e-07	1.251664e-143	2.955293e-14	
25.9	5.952639e-125	1.072541e-118	4.273746e-31	5.354384e-26	2.947656e-01	3.556160e-01	1.411891e-38	-1.727640e-06	1.034865e-139	-2.216748e-14	
26.2	1.175287e-128	2.688452e-122	6.196947e-33	1.235251e-27	3.985141e-01	3.988653e-01	1.401854e-36	-2.610172e-06	7.546059e-136	-1.603930e-13	
26.4	2.046533e-132	5.943353e-126	7.924787e-35	2.513510e-29	4.751725e-01	4.139123e-01	1.227567e-34	-2.544659e-06	4.852857e-132	-3.892756e-13	
26.7	3.142928e-136	1.158781e-129	8.937954e-37	4.511048e-31	4.996889e-01	3.996244e-01	9.480440e-33	-1.402217e-07	2.752425e-128	-6.005662e-13	
26.9	4.256875e-140	1.992563e-133	8.890565e-39	7.140665e-33	4.634349e-01	3.600902e-01	6.457321e-31	6.053589e-06	1.376811e-124	-4.759165e-13	
27.2	5.084967e-144	3.021785e-137	7.799403e-41	9.969170e-35	3.790693e-01	3.032814e-01	3.878976e-29	1.644373e-05	6.073984e-121	5.430723e-13	
27.4	5.357054e-148	4.041622e-141	6.034400e-43	1.227537e-36	2.734571e-01	2.388484e-01	2.055050e-27	2.864754e-05	2.363273e-117	3.039661e-12	
27.7	4.977424e-152	4.767476e-145	4.117632e-45	1.333097e-38	1.739805e-01	1.758052e-01	9.602152e-26	3.563145e-05	8.109514e-114	6.935425e-12	
27.9	4.078721e-156	4.959777e-149	2.478002e-47	1.276846e-40	9.762310e-02	1.207971e-01	3.956903e-24	2.498355e-05	2.454237e-110	1.024092e-11	
28.2	2.947706e-160	4.550682e-153	1.315215e-49	1.078606e-42	4.831093e-02	7.734192e-02	1.438080e-22	-1.880028e-05	6.550567e-107	7.660169e-12	
28.4	1.878819e-164	3.682405e-157	6.156478e-52	8.035874e-45	2.108526e-02	4.603527e-02	4.609474e-21	-1.071440e-04	1.541992e-103	-9.553344e-12	
28.7	1.056152e-168	2.628012e-161	2.541609e-54	5.280173e-47	8.116207e-03	2.540129e-02	1.303048e-19	-2.347623e-04	3.201297e-100	-4.991172e-11	
28.9	5.236112e-173	1.654108e-165	9.253922e-57	3.059899e-49	2.755295e-03	1.295073e-02	3.248705e-18	-3.640178e-04	5.861524e-97	-1.112290e-10	
29.2	2.289454e-177	9.182083e-170	2.971555e-59	1.563901e-51	8.249428e-04	6.078955e-03	7.143331e-17	-4.130983e-04	9.465333e-94	-1.627619e-10	
29.4	8.828679e-182	4.495306e-174	8.415546e-62	7.049433e-54	2.178313e-04	2.616728e-03	1.385262e-15	-2.590943e-04	1.348038e-90	-1.265864e-10	
29.7	3.002619e-186	1.940966e-178	2.101946e-64	2.802472e-56	5.072914e-05	1.028730e-03	2.369213e-14	2.315891e-04	1.693202e-87	1.223741e-10	
29.9	9.006281e-191	7.391243e-183	4.630221e-67	9.825852e-59	1.041922e-05	3.678316e-04	3.573689e-13	1.137825e-03	1.875670e-84	7.043169e-10	
30.2	2.382492e-195	2.482320e-187	8.995442e-70	3.038371e-61	1.887357e-06	1.191306e-04	4.754121e-12	2.388707e-03	1.832503e-81	1.595106e-09	
30.5	5.558508e-200	7.352562e-192	1.541289e-72	8.286152e-64	3.015182e-07	3.481206e-05	5.577820e-11	3.664354e-03	1.578969e-78	2.395962e-09	
30.7	1.143736e-204	1.920704e-196	2.329090e-75	1.992995e-66	4.248285e-08	9.145339e-06	5.771642e-10	4.339471e-03	1.199895e-75	2.097922e-09	
31.0	2.075553e-209	4.425097e-201	3.104054e-78	4.227667e-69	5.279034e-09	2.152896e-06	5.267143e-09	3.528743e-03	8.041812e-73	-9.255385e-10	
31.2	3.321871e-214	8.991372e-206	3.648489e-81	7.909268e-72	5.785436e-10	4.528577e-07	4.239274e-08	2.839046e-04	4.753408e-70	-8.312757e-09	
31.5	4.688916e-219	1.611276e-210	3.782139e-84	1.305007e-74	5.591887e-11	8.490896e-08	3.009183e-07	-6.046235e-03	2.477976e-67	-2.009863e-08	
31.7	5.837177e-224	2.546563e-215	3.457823e-87	1.899023e-77	4.766740e-12	1.416130e-08	1.883851e-06	-1.534689e-02	1.139278e-64	-3.204977e-08	
32.0	6.408760e-229	3.549603e-220	2.788102e-90	2.437186e-80	3.583647e-13	2.097336e-09	1.040124e-05	-2.628842e-02	4.619587e-62	-3.285048e-08	
32.2	6.205630e-234	4.363610e-225	1.982692e-93	2.758595e-83	2.376128e-14	2.754485e-10	5.064825e-05	-3.608018e-02	1.652028e-59	-3.552533e-09	
32.5	5.299543e-239	4.730998e-230	1.243491e-96	2.753772e-86	1.389489e-15	3.204259e-11	2.175127e-04	-4.060960e-02	5.210414e-57	7.677248e-08	
32.7	3.991460e-244	4.523768e-235	6.878139e-100	2.424426e-89	7.166070e-17	3.298635e-12	8.238447e-04	-3.507217e-02	1.449332e-54	2.150561e-07	
33.0	2.651343e-249	3.814948e-240	3.355365e-103	1.882481e-92	3.259476e-18	3.002925e-13	2.751990e-03	-1.505130e-02	3.555529e-52	3.770118e-07	
33.2	1.553247e-254	2.837381e-245	1.443608e-106	1.289119e-95	1.307541e-19	2.416062e-14	8.107542e-03	2.217106e-02	7.692745e-50	4.561994e-07	
33.5	8.025206e-260	1.861176e-250	5.477719e-110	7.785674e-99	4.625977e-21	1.717225e-15	2.106552e-02	7.643571e-02	1.467909e-47	2.604584e-07	
33.7	3.656895e-265	1.076708e-255	1.833120e-113	4.147059e-102	1.443419e-22	1.077819e-16	4.827208e-02	1.440634e-01	2.470346e-45	-4.491476e-07	
34.0	1.469635e-270	5.493501e-261	5.410316e-117	1.948161e-105	3.972118e-24	5.972300e-18	9.755746e-02	2.180509e-01	3.666545e-43	-1.827976e-06	
34.2	5.208914e-276	2.471958e-266	1.408300e-120	8.071428e-109	9.640344e-26	2.920915e-19	1.738864e-01	2.891791e-01	4.799512e-41	-3.709578e-06	
34.5	1.628267e-281	9.810110e-272	3.233021e-124	2.949284e-112	2.063496e-27	1.260673e-20	2.733453e-01	3.478150e-01	5.540869e-39	-5.306276e-06	
34.7	4.488951e-287	3.433581e-277	6.545797e-128	9.504375e-116	3.895431e-29	4.801024e-22	3.789643e-01	3.859459e-01	5.641562e-37	-4.999212e-06	
35.0	1.091452e-292	1.059892e-282	1.168846e-131	2.701290e-119	6.485570e-31	1.613123e-23	4.633677e-01	3.988792e-01	5.065958e-35	-4.833663e-07	
35.2	2.340483e-298	2.885469e-288	1.840741e-135	6.771108e-123	9.523169e-33	4.781533e-25	4.996823e-01	3.861317e-01	4.012034e-33	1.041311e-05	
35.5	4.426362e-304	6.928067e-294	2.556637e-139	1.496887e-126	1.233263e-34	1.250275e-26	4.752289e-01	3.512845e-01	2.802259e-31	2.802801e-05	
35.7	7.382936e-310	1.467062e-299	3.131742e-143	2.918494e-130	1.408544e-36	2.883770e-28	3.986139e-01	3.009000e-01	1.726206e-29	4.845249e-05	
36.0	1.086055e-315	2.739842e-305	3.383325e-147	5.018449e-134	1.418816e-38	5.866995e-30	2.948783e-01	2.428774e-01	9.378165e-28	6.123751e-05	
36.2	1.408087e-321	4.512772e-311	3.223607e-151	7.610635e-138	1.260440e-40	1.052829e-31	1.923862e-01	1.847469e-01	4.493490e-26	4.884046e-05	
36.5	0.000000e+00	6.555442e-317	2.708827e-155	1.017919e-141	9.875504e-43	1.666389e-33	1.106995e-01	1.323559e-01	1.898849e-24	-1.002874e-05	
36.7	0.000000e+00	8.893182e-323	2.007526e-159	1.200732e-145	6.823969e-45	2.326288e-35	5.617697e-02	8.920758e-02	7.076815e-23	-1.312939e-04	
37.0	0.000000e+00	0.000000e+00	1.312145e-163	1.249164e-149	4.158680e-47	2.864265e-37	2.514268e-02	5.647548e-02	2.326087e-21	-3.104514e-04	
37.2	0.000000e+00	0.000000e+00	7.563854e-168	1.146130e-153	2.235191e-49	3.110430e-39	9.924432e-03	3.351423e-02	6.743025e-20	-5.046816e-04	
37.5	0.000000e+00	0.000000e+00	3.845433e-172	9.274467e-158	1.059533e-51	2.979076e-41	3.454939e-03	1.859665e-02	1.723949e-18	-6.195933e-04	
37.7	0.000000e+00	0.000000e+00	1.724202e-176	6.618884e-162	4.429507e-54	2.516481e-43	1.060757e-03	9.621064e-03	3.887180e-17	-5.118378e-04	
38.0	0.000000e+00	0.000000e+00	6.818230e-181	4.166020e-166	1.633190e-56	1.874798e-45	2.872316e-04	4.625625e-03	7.730111e-16	-1.952999e-05	
38.2	0.000000e+00	0.000000e+00	2.377913e-185	2.312590e-170	5.310788e-59	1.231863e-47	6.859448e-05	2.059188e-03	1.355744e-14	9.725851e-04	
38.5	0.000000e+00	0.000000e+00	7.314102e-190	1.132183e-174	1.523077e-61	7.138640e-50	1.444731e-05	8.454414e-04	2.097056e-13	2.438369e-03	
38.7	0.000000e+00	0.000000e+00	1.984115e-194	4.888497e-179	3.852348e-64	3.648491e-52	2.683647e-06	3.187946e-04	2.860772e-12	4.108871e-03	
39.0	0.000000e+00	0.000000e+00	4.746935e-199	1.861551e-183	8.593496e-67	1.644579e-54	4.396474e-07	1.099242e-04	3.441893e-11	5.405543e-03	
39.2	0.000000e+00	0.000000e+00	1.001614e-203	6.251944e-188	1.690655e-69	6.537911e-57	6.352203e-08	3.450909e-05	3.652179e-10	5.459863e-03	
39.5	0.000000e+00	0.000000e+00	1.863925e-208	1.851808e-192	2.933464e-72	2.292271e-59	8.094407e-09	9.821461e-06	3.417807e-09	3.264508e-03	
39.7	0.000000e+00	0.000000e+00	3.059125e-213	4.837464e-197	4.488977e-75	7.088183e-62	9.096754e-10	2.523832e-06	2.820874e-08	-2.028499e-03	
40.0	0.000000e+00	0.000000e+00	4.427990e-218	1.114500e-201	6.058354e-78	1.933062e-64	9.016304e-11	5.833943e-07	2.053339e-07	-1.069825e-02	
40.2	0.000000e+00	0.000000e+00	5.652712e-223	2.264557e-206	7.211120e-81	4.649412e-67	7.881546e-12	1.208992e-07	1.318191e-06	-2.202952e-02	
40.5	0.000000e+00	0.000000e+00	6.364257e-228	4.058142e-211	7.569923e-84	9.862608e-70	6.076241e-13	2.239582e-08	7.463399e-06	-3.401435e-02	
40.7	0.000000e+00	0.000000e+00	6.319451e-233	6.413748e-216	7.008434e-87	1.845129e-72	4.131420e-14	3.699110e-09	3.726798e-05	-4.333411e-02	
41.0	0.000000e+00	0.000000e+00	5.534161e-238	8.939994e-221	5.722571e-90	3.044408e-75	2.477447e-15	5.436158e-10	1.641254e-04	-4.573131e-02	
41.2	0.000000e+00	0.000000e+00	4.274299e-243	1.099014e-225	4.120996e-93	4.430166e-78	1.310238e-16	7.095566e-11	6.374649e-04	-3.678194e-02	
41.5	0.000000e+00	0.000000e+00	2.911513e-248	1.191544e-230	2.617302e-96	5.685623e-81	6.111343e-18	8.214036e-12	2.183623e-03	-1.294741e-02	
41.7	0.000000e+00	0.000000e+00	1.749095e-253	1.139351e-235	1.466042e-99	6.435423e-84	2.513992e-19	8.423528e-13	6.596897e-03	2.733715e-02	
42.0	0.000000e+00	0.000000e+00	9.267202e-259	9.608288e-241	7.242350e-103	6.424169e-87	9.120778e-21	7.645262e-14	1.757691e-02	8.284746e-02	
42.2	0.000000e+00	0.000000e+00	4.330367e-264	7.146198e-246	3.155393e-106	5.655848e-90	2.918372e-22	6.136590e-15	4.130342e-02	1.493097e-01	
42.5	0.000000e+00	0.000000e+00	1.784602e-269	4.687538e-251	1.212462e-109	4.391564e-93	8.235502e-24	4.353521e-16	8.559931e-02	2.198513e-01	
42.7	0.000000e+00	0.000000e+00	6.486330e-275	2.711786e-256	4.108880e-113	3.007334e-96	2.049653e-25	2.728535e-17	1.564571e-01	2.861240e-01	
43.0	0.000000e+00	0.000000e+00	2.079205e-280	1.383587e-261	1.228060e-116	1.816288e-99	4.498950e-27	1.510198e-18	2.522093e-01	3.398584e-01	
43.2	0.000000e+00	0.000000e+00	5.878090e-286	6.225849e-267	3.237102e-120	9.674504e-103	8.709292e-29	7.379508e-20	3.585647e-01	3.744674e-01	
43.5	0.000000e+00	0.000000e+00	1.465602e-291	2.470764e-272	7.525477e-124	4.544785e-106	1.486946e-30	3.182819e-21	4.495880e-01	3.862898e-01	
43.7	0.000000e+00	0.000000e+00	3.222823e-297	8.647781e-278	1.542952e-127	1.882950e-109	2.238971e-32	1.211463e-22	4.971674e-01	3.751648e-01	
44.0	0.000000e+00	0.000000e+00	6.250254e-303	2.669432e-283	2.790046e-131	6.880263e-113	2.973324e-34	4.068761e-24	4.848767e-01	3.442224e-01	
44.2	0.000000e+00	0.000000e+00	1.069054e-308	7.267312e-289	4.449500e-135	2.217236e-116	3.482386e-36	1.205648e-25	4.170621e-01	2.989979e-01	
44.5	0.000000e+00	0.000000e+00	1.612658e-314	1.744896e-294	6.258233e-139	6.301728e-120	3.597097e-38	3.151729e-27	3.163814e-01	2.461499e-01	
44.7	0.000000e+00	0.000000e+00	2.145233e-320	3.694927e-300	7.763060e-143	1.579604e-123	3.276938e-40	7.268057e-29	2.116712e-01	1.921398e-01	
45.0	0.000000e+00	0.000000e+00	0.000000e+00	6.900538e-306	8.492879e-147	3.492025e-127	2.632844e-42	1.478450e-30	1.248974e-01	1.421872e-01	
45.2	0.000000e+00	0.000000e+00	0.000000e+00	1.136582e-311	8.194410e-151	6.808434e-131	1.865618e-44	2.652753e-32	6.499587e-02	9.969297e-02	
45.5	0.000000e+00	0.000000e+00	0.000000e+00	1.651048e-317	6.973024e-155	1.170733e-134	1.165899e-46	4.198316e-34	2.983038e-02	6.615802e-02	
45.7	0.000000e+00	0.000000e+00	0.000000e+00	4.940656e-323	5.233176e-159	1.775453e-138	6.425988e-49	5.860449e-36	1.207460e-02	4.149540e-02	
46.0	0.000000e+00	0.000000e+00	0.000000e+00	0.000000e+00	3.463780e-163	2.374660e-142	3.123630e-51	7.215329e-38	4.310496e-03	2.455507e-02	
46.2	0.000000e+00	0.000000e+00	0.000000e+00	0.000000e+00	2.021976e-167	2.801137e-146	1.339122e-53	7.835097e-40	1.357133e-03	1.367956e-02	
46.5	0.000000e+00	0.000000e+00	0.000000e+00	0.000000e+00	1.040980e-171	2.914123e-150	5.063156e-56	7.503964e-42	3.768413e-04	7.156502e-03	
46.7	0.000000e+00	0.000000e+00	0.000000e+00	0.000000e+00	4.726607e-176	2.673759e-154	1.688353e-58	6.338571e-44	9.228589e-05	3.505716e-03	
47.0	0.000000e+00	0.000000e+00	0.000000e+00	0.000000e+00	1.892768e-180	2.163602e-158	4.965305e-61	4.722188e-46	1.993209e-05	1.602849e-03	
47.2	0.000000e+00	0.000000e+00	0.000000e+00	0.000000e+00	6.684762e-185	1.544092e-162	1.287862e-63	3.102730e-48	3.796741e-06	6.815370e-04	
47.5	0.000000e+00	0.000000e+00	0.000000e+00	0.000000e+00	2.082166e-189	9.718734e-167	2.946005e-66	1.798009e-50	6.378374e-07	2.684525e-04	
47.7	0.000000e+00	0.000000e+00	0.000000e+00	0.000000e+00	5.719859e-194	5.394944e-171	5.943447e-69	9.189362e-53	9.450388e-08	9.754552e-05	
48.0	0.000000e+00	0.000000e+00	0.000000e+00	0.000000e+00	1.385786e-198	2.641223e-175	1.057509e-71	4.142128e-55	1.234895e-08	3.255378e-05	
48.2	0.000000e+00	0.000000e+00	0.000000e+00	0.000000e+00	2.961063e-203	1.140417e-179	1.659474e-74	1.646665e-57	1.423152e-09	9.933381e-06	
48.5	0.000000e+00	0.000000e+00	0.000000e+00	0.000000e+00	5.580074e-208	4.342734e-184	2.296664e-77	5.773381e-60	1.446482e-10	2.758973e-06	
48.7	0.000000e+00	0.000000e+00	0.000000e+00	0.000000e+00	9.274125e-213	1.458490e-188	2.803272e-80	1.785244e-62	1.296629e-11	6.944900e-07	
49.0	0.000000e+00	0.000000e+00	0.000000e+00	0.000000e+00	1.359398e-217	4.320007e-193	3.017684e-83	4.868636e-65	1.025083e-12	1.577887e-07	
49.2	0.000000e+00	0.000000e+00	0.000000e+00	0.000000e+00	1.757362e-222	1.128512e-197	2.864990e-86	1.171005e-67	7.147320e-14	3.223718e-08	
49.5	0.000000e+00	0.000000e+00	0.000000e+00	0.000000e+00	2.003625e-227	2.599971e-202	2.398906e-89	2.484001e-70	4.395093e-15	5.902591e-09	
49.7	0.000000e+00	0.000000e+00	0.000000e+00	0.000000e+00	2.014709e-232	0.000000e+00	1.771511e-92	0.000000e+00	2.383602e-16	0.000000e+00	
50.0	0.000000e+00	0.000000e+00	0.000000e+00	0.000000e+00	1.786689e-237	0.000000e+00	1.153760e-95	0.000000e+00	1.140092e-17	0.000000e+00	
