-50.0	0.000000e+00	0.000000e+00	0.000000e+00	0.000000e+00	0.000000e+00	0.000000e+00	0.000000e+00	0.000000e+00	0.000000e+00	0.000000e+00	
-49.7	0.000000e+00	0.000000e+00	0.000000e+00	0.000000e+00	0.000000e+00	0.000000e+00	0.000000e+00	0.000000e+00	0.000000e+00	0.000000e+00	
-49.5	0.000000e+00	0.000000e+00	0.000000e+00	0.000000e+00	0.000000e+00	0.000000e+00	0.000000e+00	0.000000e+00	0.000000e+00	0.000000e+00	
-49.2	0.000000e+00	0.000000e+00	0.000000e+00	0.000000e+00	0.000000e+00	0.000000e+00	0.000000e+00	0.000000e+00	0.000000e+00	0.000000e+00	
-49.0	0.000000e+00	0.000000e+00	0.000000e+00	0.000000e+00	0.000000e+00	0.000000e+00	0.000000e+00	0.000000e+00	0.000000e+00	0.000000e+00	
-48.7	0.000000e+00	0.000000e+00	0.000000e+00	0.000000e+00	0.000000e+00	0.000000e+00	0.000000e+00	0.000000e+00	0.000000e+00	0.000000e+00	
-48.5	0.000000e+00	0.000000e+00	0.000000e+00	0.000000e+00	0.000000e+00	0.000000e+00	0.000000e+00	0.000000e+00	0.000000e+00	0.000000e+00	
-48.2	0.000000e+00	0.000000e+00	0.000000e+00	0.000000e+00	0.000000e+00	0.000000e+00	0.000000e+00	0.000000e+00	0.000000e+00	0.000000e+00	
-48.0	0.000000e+00	0.000000e+00	0.000000e+00	0.000000e+00	0.000000e+00	0.000000e+00	0.000000e+00	0.000000e+00	0.000000e+00	0.000000e+00	
-47.7	0.000000e+00	0.000000e+00	0.000000e+00	0.000000e+00	0.000000e+00	0.000000e+00	0.000000e+00	0.000000e+00	0.000000e+00	0.000000e+00	
-47.5	0.000000e+00	0.000000e+00	0.000000e+00	0.000000e+00	0.000000e+00	0.000000e+00	0.000000e+00	0.000000e+00	0.000000e+00	0.000000e+00	
-47.2	0.000000e+00	0.000000e+00	0.000000e+00	0.000000e+00	0.000000e+00	0.000000e+00	0.000000e+00	0.000000e+00	0.000000e+00	0.000000e+00	
-47.0	0.000000e+00	0.000000e+00	0.000000e+00	0.000000e+00	0.000000e+00	0.000000e+00	0.000000e+00	0.000000e+00	0.000000e+00	0.000000e+00	
-46.7	0.000000e+00	0.000000e+00	0.000000e+00	0.000000e+00	0.000000e+00	0.000000e+00	0.000000e+00	0.000000e+00	0.000000e+00	0.000000e+00	
-46.5	0.000000e+00	0.000000e+00	0.000000e+00	0.000000e+00	0.000000e+00	0.000000e+00	0.000000e+00	0.000000e+00	0.000000e+00	0.000000e+00	
-46.2	0.000000e+00	0.000000e+00	0.000000e+00	0.000000e+00	0.000000e+00	0.000000e+00	0.000000e+00	0.000000e+00	0.000000e+00	0.000000e+00	
-46.0	0.000000e+00	0.000000e+00	0.000000e+00	0.000000e+00	0.000000e+00	0.000000e+00	0.000000e+00	0.000000e+00	0.000000e+00	0.000000e+00	
-45.7	0.000000e+00	0.000000e+00	0.000000e+00	0.000000e+00	0.000000e+00	0.000000e+00	0.000000e+00	0.000000e+00	0.000000e+00	0.000000e+00	
-45.5	0.000000e+00	0.000000e+00	0.000000e+00	0.000000e+00	0.000000e+00	0.000000e+00	0.000000e+00	0.000000e+00	0.000000e+00	0.000000e+00	
-45.2	0.000000e+00	0.000000e+00	0.000000e+00	0.000000e+00	0.000000e+00	0.000000e+00	0.000000e+00	0.000000e+00	0.000000e+00	0.000000e+00	
-45.0	0.000000e+00	0.000000e+00	0.000000e+00	0.000000e+00	0.000000e+00	0.000000e+00	0.000000e+00	0.000000e+00	0.000000e+00	0.000000e+00	
-44.7	0.000000e+00	0.000000e+00	0.000000e+00	0.000000e+00	0.000000e+00	0.000000e+00	0.000000e+00	0.000000e+00	0.000000e+00	0.000000e+00	
-44.5	0.000000e+00	0.000000e+00	0.000000e+00	0.000000e+00	0.000000e+00	0.000000e+00	0.000000e+00	0.000000e+00	0.000000e+00	0.000000e+00	
-44.2	0.000000e+00	0.000000e+00	0.000000e+00	0.000000e+00	0.000000e+00	0.000000e+00	0.000000e+00	0.000000e+00	0.000000e+00	0.000000e+00	
-44.0	0.000000e+00	0.000000e+00	0.000000e+00	0.000000e+00	0.000000e+00	0.000000e+00	0.000000e+00	0.000000e+00	0.000000e+00	0.000000e+00	
-43.7	0.000000e+00	0.000000e+00	0.000000e+00	0.000000e+00	0.000000e+00	0.000000e+00	0.000000e+00	0.000000e+00	0.000000e+00	0.000000e+00	
-43.5	0.000000e+00	0.000000e+00	0.000000e+00	0.000000e+00	0.000000e+00	0.000000e+00	0.000000e+00	0.000000e+00	0.000000e+00	0.000000e+00	
-43.2	0.000000e+00	0.000000e+00	0.000000e+00	0.000000e+00	0.000000e+00	0.000000e+00	0.000000e+00	0.000000e+00	0.000000e+00	0.000000e+00	
-43.0	0.000000e+00	0.000000e+00	0.000000e+00	0.000000e+00	0.000000e+00	0.000000e+00	0.000000e+00	0.000000e+00	0.000000e+00	0.000000e+00	
-42.7	0.000000e+00	0.000000e+00	0.000000e+00	0.000000e+00	0.000000e+00	0.000000e+00	0.000000e+00	0.000000e+00	0.000000e+00	0.000000e+00	
-42.5	0.000000e+00	0.000000e+00	0.000000e+00	0.000000e+00	0.000000e+00	0.000000e+00	0.000000e+00	0.000000e+00	0.000000e+00	0.000000e+00	
-42.2	0.000000e+00	0.000000e+00	0.000000e+00	0.000000e+00	0.000000e+00	0.000000e+00	0.000000e+00	0.000000e+00	0.000000e+00	0.000000e+00	
-42.0	0.000000e+00	0.000000e+00	0.000000e+00	0.000000e+00	0.000000e+00	0.000000e+00	0.000000e+00	0.000000e+00	0.000000e+00	0.000000e+00	
-41.7	0.000000e+00	0.000000e+00	0.000000e+00	0.000000e+00	0.000000e+00	0.000000e+00	0.000000e+00	0.000000e+00	0.000000e+00	0.000000e+00	
-41.5	0.000000e+00	0.000000e+00	0.000000e+00	0.000000e+00	0.000000e+00	0.000000e+00	0.000000e+00	0.000000e+00	0.000000e+00	0.000000e+00	
-41.2	0.000000e+00	0.000000e+00	0.000000e+00	0.000000e+00	0.000000e+00	0.000000e+00	0.000000e+00	0.000000e+00	0.000000e+00	0.000000e+00	
-41.0	0.000000e+00	0.000000e+00	0.000000e+00	0.000000e+00	0.000000e+00	0.000000e+00	0.000000e+00	0.000000e+00	0.000000e+00	0.000000e+00	
-40.7	0.000000e+00	0.000000e+00	0.000000e+00	0.000000e+00	0.000000e+00	0.000000e+00	0.000000e+00	0.000000e+00	0.000000e+00	0.000000e+00	
-40.5	0.000000e+00	0.000000e+00	0.000000e+00	0.000000e+00	0.000000e+00	0.000000e+00	0.000000e+00	0.000000e+00	0.000000e+00	0.000000e+00	
-40.2	0.000000e+00	0.000000e+00	0.000000e+00	0.000000e+00	0.000000e+00	0.000000e+00	0.000000e+00	0.000000e+00	0.000000e+00	0.000000e+00	
-40.0	0.000000e+00	0.000000e+00	0.000000e+00	0.000000e+00	0.000000e+00	0.000000e+00	0.000000e+00	0.000000e+00	0.000000e+00	0.000000e+00	
-39.7	0.000000e+00	0.000000e+00	0.000000e+00	0.000000e+00	0.000000e+00	0.000000e+00	0.000000e+00	0.000000e+00	0.000000e+00	0.000000e+00	
-39.5	0.000000e+00	0.000000e+00	0.000000e+00	0.000000e+00	0.000000e+00	0.000000e+00	0.000000e+00	0.000000e+00	0.000000e+00	0.000000e+00	
-39.2	0.000000e+00	0.000000e+00	0.000000e+00	0.000000e+00	0.000000e+00	0.000000e+00	0.000000e+00	0.000000e+00	0.000000e+00	0.000000e+00	
-39.0	0.000000e+00	0.000000e+00	0.000000e+00	0.000000e+00	0.000000e+00	0.000000e+00	0.000000e+00	0.000000e+00	0.000000e+00	0.000000e+00	
-38.7	0.000000e+00	0.000000e+00	0.000000e+00	0.000000e+00	0.000000e+00	0.000000e+00	0.000000e+00	0.000000e+00	0.000000e+00	0.000000e+00	
-38.5	0.000000e+00	0.000000e+00	0.000000e+00	0.000000e+00	0.000000e+00	0.000000e+00	0.000000e+00	0.000000e+00	0.000000e+00	0.000000e+00	
-38.2	0.000000e+00	0.000000e+00	0.000000e+00	0.000000e+00	0.000000e+00	0.000000e+00	0.000000e+00	0.000000e+00	0.000000e+00	0.000000e+00	
-38.0	0.000000e+00	0.000000e+00	0.000000e+00	0.000000e+00	0.000000e+00	0.000000e+00	0.000000e+00	0.000000e+00	0.000000e+00	0.000000e+00	
-37.7	0.000000e+00	0.000000e+00	0.000000e+00	0.000000e+00	0.000000e+00	0.000000e+00	0.000000e+00	0.000000e+00	0.000000e+00	0.000000e+00	
-37.5	0.000000e+00	0.000000e+00	0.000000e+00	0.000000e+00	0.000000e+00	0.000000e+00	0.000000e+00	0.000000e+00	0.000000e+00	0.000000e+00	
-37.2	0.000000e+00	0.000000e+00	0.000000e+00	0.000000e+00	0.000000e+00	0.000000e+00	0.000000e+00	0.000000e+00	0.000000e+00	0.000000e+00	
-37.0	0.000000e+00	0.000000e+00	0.000000e+00	0.000000e+00	0.000000e+00	0.000000e+00	0.000000e+00	0.000000e+00	0.000000e+00	0.000000e+00	
-36.7	0.000000e+00	0.000000e+00	0.000000e+00	0.000000e+00	0.000000e+00	0.000000e+00	0.000000e+00	0.000000e+00	0.000000e+00	0.000000e+00	
-36.5	0.000000e+00	0.000000e+00	0.000000e+00	0.000000e+00	0.000000e+00	0.000000e+00	0.000000e+00	0.000000e+00	0.000000e+00	0.000000e+00	
-36.2	0.000000e+00	0.000000e+00	0.000000e+00	0.000000e+00	0.000000e+00	0.000000e+00	0.000000e+00	0.000000e+00	0.000000e+00	0.000000e+00	
-36.0	0.000000e+00	0.000000e+00	0.000000e+00	0.000000e+00	0.000000e+00	0.000000e+00	0.000000e+00	0.000000e+00	0.000000e+00	0.000000e+00	
-35.7	0.000000e+00	0.000000e+00	0.000000e+00	0.000000e+00	0.000000e+00	0.000000e+00	0.000000e+00	0.000000e+00	0.000000e+00	0.000000e+00	
-35.5	0.000000e+00	0.000000e+00	0.000000e+00	0.000000e+00	0.000000e+00	0.000000e+00	0.000000e+00	0.000000e+00	0.000000e+00	0.000000e+00	
-35.2	0.000000e+00	0.000000e+00	0.000000e+00	0.000000e+00	0.000000e+00	0.000000e+00	0.000000e+00	0.000000e+00	0.000000e+00	0.000000e+00	
-35.0	0.000000e+00	0.000000e+00	0.000000e+00	0.000000e+00	0.000000e+00	0.000000e+00	0.000000e+00	0.000000e+00	0.000000e+00	0.000000e+00	
-34.7	0.000000e+00	0.000000e+00	0.000000e+00	0.000000e+00	0.000000e+00	0.000000e+00	0.000000e+00	0.000000e+00	0.000000e+00	0.000000e+00	
-34.5	0.000000e+00	0.000000e+00	0.000000e+00	0.000000e+00	0.000000e+00	0.000000e+00	0.000000e+00	0.000000e+00	0.000000e+00	0.000000e+00	
-34.2	0.000000e+00	0.000000e+00	0.000000e+00	0.000000e+00	0.000000e+00	0.000000e+00	0.000000e+00	0.000000e+00	0.000000e+00	0.000000e+00	
-34.0	0.000000e+00	0.000000e+00	0.000000e+00	0.000000e+00	0.000000e+00	0.000000e+00	0.000000e+00	0.000000e+00	0.000000e+00	0.000000e+00	
-33.7	0.000000e+00	0.000000e+00	0.000000e+00	0.000000e+00	0.000000e+00	0.000000e+00	0.000000e+00	0.000000e+00	0.000000e+00	0.000000e+00	
-33.5	0.000000e+00	0.000000e+00	0.000000e+00	0.000000e+00	0.000000e+00	0.000000e+00	0.000000e+00	0.000000e+00	0.000000e+00	0.000000e+00	
-33.2	0.000000e+00	0.000000e+00	0.000000e+00	0.000000e+00	0.000000e+00	0.000000e+00	0.000000e+00	0.000000e+00	0.000000e+00	0.000000e+00	
-33.0	0.000000e+00	0.000000e+00	0.000000e+00	0.000000e+00	0.000000e+00	0.000000e+00	0.000000e+00	0.000000e+00	0.000000e+00	0.000000e+00	
-32.7	0.000000e+00	0.000000e+00	0.000000e+00	0.000000e+00	0.000000e+00	0.000000e+00	0.000000e+00	0.000000e+00	0.000000e+00	0.000000e+00	
-32.5	0.000000e+00	0.000000e+00	0.000000e+00	0.000000e+00	0.000000e+00	0.000000e+00	0.000000e+00	0.000000e+00	0.000000e+00	0.000000e+00	
-32.2	0.000000e+00	0.000000e+00	0.000000e+00	0.000000e+00	0.000000e+00	0.000000e+00	0.000000e+00	0.000000e+00	0.000000e+00	0.000000e+00	
-32.0	0.000000e+00	0.000000e+00	0.000000e+00	0.000000e+00	0.000000e+00	0.000000e+00	0.000000e+00	0.000000e+00	0.000000e+00	0.000000e+00	
-31.7	0.000000e+00	0.000000e+00	0.000000e+00	0.000000e+00	0.000000e+00	0.000000e+00	0.000000e+00	0.000000e+00	0.000000e+00	0.000000e+00	
-31.5	0.000000e+00	0.000000e+00	0.000000e+00	0.000000e+00	0.000000e+00	0.000000e+00	0.000000e+00	0.000000e+00	0.000000e+00	0.000000e+00	
-31.2	0.000000e+00	0.000000e+00	0.000000e+00	0.000000e+00	0.000000e+00	0.000000e+00	0.000000e+00	0.000000e+00	0.000000e+00	0.000000e+00	
-31.0	0.000000e+00	0.000000e+00	0.000000e+00	0.000000e+00	0.000000e+00	0.000000e+00	0.000000e+00	0.000000e+00	0.000000e+00	0.000000e+00	
-30.7	0.000000e+00	0.000000e+00	0.000000e+00	0.000000e+00	0.000000e+00	0.000000e+00	0.000000e+00	0.000000e+00	0.000000e+00	0.000000e+00	
-30.5	0.000000e+00	0.000000e+00	0.000000e+00	0.000000e+00	0.000000e+00	0.000000e+00	0.000000e+00	0.000000e+00	0.000000e+00	0.000000e+00	
-30.2	0.000000e+00	0.000000e+00	0.000000e+00	0.000000e+00	0.000000e+00	0.000000e+00	0.000000e+00	0.000000e+00	0.000000e+00	0.000000e+00	
-29.9	0.000000e+00	0.000000e+00	0.000000e+00	0.000000e+00	0.000000e+00	0.000000e+00	0.000000e+00	0.000000e+00	0.000000e+00	0.000000e+00	
-29.7	0.000000e+00	0.000000e+00	0.000000e+00	0.000000e+00	0.000000e+00	0.000000e+00	0.000000e+00	0.000000e+00	0.000000e+00	0.000000e+00	
-29.4	0.000000e+00	0.000000e+00	0.000000e+00	0.000000e+00	0.000000e+00	0.000000e+00	0.000000e+00	0.000000e+00	0.000000e+00	0.000000e+00	
-29.2	0.000000e+00	0.000000e+00	0.000000e+00	0.000000e+00	0.000000e+00	0.000000e+00	0.000000e+00	0.000000e+00	0.000000e+00	0.000000e+00	
-28.9	0.000000e+00	0.000000e+00	0.000000e+00	0.000000e+00	0.000000e+00	0.000000e+00	0.000000e+00	0.000000e+00	0.000000e+00	0.000000e+00	
-28.7	0.000000e+00	0.000000e+00	0.000000e+00	0.000000e+00	0.000000e+00	0.000000e+00	0.000000e+00	0.000000e+00	0.000000e+00	0.000000e+00	
-28.4	0.000000e+00	0.000000e+00	0.000000e+00	0.000000e+00	0.000000e+00	0.000000e+00	0.000000e+00	0.000000e+00	0.000000e+00	0.000000e+00	
-28.2	0.000000e+00	0.000000e+00	0.000000e+00	0.000000e+00	0.000000e+00	0.000000e+00	0.000000e+00	0.000000e+00	0.000000e+00	0.000000e+00	
-27.9	0.000000e+00	0.000000e+00	0.000000e+00	0.000000e+00	0.000000e+00	0.000000e+00	0.000000e+00	0.000000e+00	0.000000e+00	0.000000e+00	
-27.7	0.000000e+00	0.000000e+00	0.000000e+00	0.000000e+00	0.000000e+00	0.000000e+00	0.000000e+00	0.000000e+00	0.000000e+00	0.000000e+00	
-27.4	0.000000e+00	0.000000e+00	0.000000e+00	0.000000e+00	0.000000e+00	0.000000e+00	0.000000e+00	0.000000e+00	0.000000e+00	0.000000e+00	
-27.2	0.000000e+00	0.000000e+00	0.000000e+00	0.000000e+00	0.000000e+00	0.000000e+00	0.000000e+00	0.000000e+00	0.000000e+00	0.000000e+00	
-26.9	0.000000e+00	0.000000e+00	0.000000e+00	0.000000e+00	0.000000e+00	0.000000e+00	0.000000e+00	0.000000e+00	0.000000e+00	0.000000e+00	
-26.7	0.000000e+00	0.000000e+00	0.000000e+00	0.000000e+00	0.000000e+00	0.000000e+00	0.000000e+00	0.000000e+00	0.000000e+00	0.000000e+00	
-26.4	0.000000e+00	0.000000e+00	0.000000e+00	0.000000e+00	0.000000e+00	0.000000e+00	0.000000e+00	0.000000e+00	0.000000e+00	0.000000e+00	
-26.2	0.000000e+00	0.000000e+00	0.000000e+00	0.000000e+00	0.000000e+00	0.000000e+00	0.000000e+00	0.000000e+00	0.000000e+00	0.000000e+00	
-25.9	0.000000e+00	0.000000e+00	0.000000e+00	0.000000e+00	0.000000e+00	0.000000e+00	0.000000e+00	0.000000e+00	0.000000e+00	0.000000e+00	
-25.7	0.000000e+00	0.000000e+00	0.000000e+00	0.000000e+00	0.000000e+00	0.000000e+00	0.000000e+00	0.000000e+00	0.000000e+00	0.000000e+00	
-25.4	0.000000e+00	0.000000e+00	0.000000e+00	0.000000e+00	0.000000e+00	0.000000e+00	0.000000e+00	0.000000e+00	0.000000e+00	0.000000e+00	
-25.2	0.000000e+00	0.000000e+00	0.000000e+00	0.000000e+00	0.000000e+00	0.000000e+00	0.000000e+00	0.000000e+00	0.000000e+00	0.000000e+00	
-24.9	0.000000e+00	0.000000e+00	0.000000e+00	0.000000e+00	0.000000e+00	0.000000e+00	0.000000e+00	0.000000e+00	0.000000e+00	0.000000e+00	
-24.7	0.000000e+00	0.000000e+00	0.000000e+00	0.000000e+00	0.000000e+00	0.000000e+00	0.000000e+00	0.000000e+00	0.000000e+00	0.000000e+00	
-24.4	0.000000e+00	0.000000e+00	0.000000e+00	0.000000e+00	0.000000e+00	0.000000e+00	0.000000e+00	0.000000e+00	0.000000e+00	0.000000e+00	
-24.2	0.000000e+00	0.000000e+00	0.000000e+00	0.000000e+00	0.000000e+00	0.000000e+00	0.000000e+00	0.000000e+00	0.000000e+00	0.000000e+00	
-23.9	0.000000e+00	0.000000e+00	0.000000e+00	0.000000e+00	0.000000e+00	0.000000e+00	0.000000e+00	0.000000e+00	0.000000e+00	0.000000e+00	
-23.7	0.000000e+00	0.000000e+00	0.000000e+00	0.000000e+00	0.000000e+00	0.000000e+00	0.000000e+00	0.000000e+00	0.000000e+00	0.000000e+00	
-23.4	0.000000e+00	0.000000e+00	0.000000e+00	0.000000e+00	0.000000e+00	0.000000e+00	0.000000e+00	0.000000e+00	0.000000e+00	0.000000e+00	
-23.2	0.000000e+00	0.000000e+00	0.000000e+00	0.000000e+00	0.000000e+00	0.000000e+00	0.000000e+00	0.000000e+00	0.000000e+00	0.000000e+00	
-22.9	0.000000e+00	0.000000e+00	0.000000e+00	0.000000e+00	0.000000e+00	0.000000e+00	0.000000e+00	0.000000e+00	0.000000e+00	0.000000e+00	
-22.7	0.000000e+00	0.000000e+00	0.000000e+00	0.000000e+00	0.000000e+00	0.000000e+00	0.000000e+00	0.000000e+00	0.000000e+00	0.000000e+00	
-22.4	0.000000e+00	0.000000e+00	0.000000e+00	0.000000e+00	0.000000e+00	0.000000e+00	0.000000e+00	0.000000e+00	0.000000e+00	0.000000e+00	
-22.2	0.000000e+00	0.000000e+00	0.000000e+00	0.000000e+00	0.000000e+00	0.000000e+00	0.000000e+00	0.000000e+00	0.000000e+00	0.000000e+00	
-21.9	0.000000e+00	0.000000e+00	0.000000e+00	0.000000e+00	0.000000e+00	0.000000e+00	0.000000e+00	0.000000e+00	0.000000e+00	0.000000e+00	
-21.7	0.000000e+00	0.000000e+00	0.000000e+00	0.000000e+00	0.000000e+00	0.000000e+00	0.000000e+00	0.000000e+00	0.000000e+00	0.000000e+00	
-21.4	0.000000e+00	0.000000e+00	0.000000e+00	0.000000e+00	0.000000e+00	0.000000e+00	0.000000e+00	0.000000e+00	0.000000e+00	0.000000e+00	
-21.2	0.000000e+00	0.000000e+00	0.000000e+00	0.000000e+00	0.000000e+00	0.000000e+00	0.000000e+00	0.000000e+00	0.000000e+00	0.000000e+00	
-20.9	0.000000e+00	0.000000e+00	0.000000e+00	0.000000e+00	0.000000e+00	0.000000e+00	0.000000e+00	0.000000e+00	0.000000e+00	0.000000e+00	
-20.7	0.000000e+00	0.000000e+00	0.000000e+00	0.000000e+00	0.000000e+00	0.000000e+00	0.000000e+00	0.000000e+00	0.000000e+00	0.000000e+00	
-20.4	0.000000e+00	0.000000e+00	0.000000e+00	0.000000e+00	0.000000e+00	0.000000e+00	0.000000e+00	0.000000e+00	0.000000e+00	0.000000e+00	
-20.2	0.000000e+00	0.000000e+00	0.000000e+00	0.000000e+00	0.000000e+00	0.000000e+00	0.000000e+00	0.000000e+00	0.000000e+00	0.000000e+00	
-19.9	0.000000e+00	0.000000e+00	0.000000e+00	0.000000e+00	0.000000e+00	0.000000e+00	0.000000e+00	0.000000e+00	0.000000e+00	0.000000e+00	
-19.7	0.000000e+00	0.000000e+00	0.000000e+00	0.000000e+00	0.000000e+00	0.000000e+00	0.000000e+00	0.000000e+00	0.000000e+00	0.000000e+00	
-19.4	0.000000e+00	0.000000e+00	0.000000e+00	0.000000e+00	0.000000e+00	0.000000e+00	0.000000e+00	0.000000e+00	0.000000e+00	0.000000e+00	
-19.2	0.000000e+00	0.000000e+00	0.000000e+00	0.000000e+00	0.000000e+00	0.000000e+00	0.000000e+00	0.000000e+00	0.000000e+00	0.000000e+00	
-18.9	0.000000e+00	0.000000e+00	0.000000e+00	0.000000e+00	0.000000e+00	0.000000e+00	0.000000e+00	0.000000e+00	0.000000e+00	0.000000e+00	
-18.7	0.000000e+00	0.000000e+00	0.000000e+00	0.000000e+00	0.000000e+00	0.000000e+00	0.000000e+00	0.000000e+00	0.000000e+00	0.000000e+00	
-18.4	0.000000e+00	0.000000e+00	0.000000e+00	0.000000e+00	0.000000e+00	0.000000e+00	0.000000e+00	0.000000e+00	0.000000e+00	0.000000e+00	
-18.2	0.000000e+00	0.000000e+00	0.000000e+00	0.000000e+00	0.000000e+00	0.000000e+00	0.000000e+00	0.000000e+00	0.000000e+00	0.000000e+00	
-17.9	0.000000e+00	0.000000e+00	0.000000e+00	0.000000e+00	0.000000e+00	0.000000e+00	0.000000e+00	0.000000e+00	0.000000e+00	0.000000e+00	
-17.7	0.000000e+00	0.000000e+00	0.000000e+00	0.000000e+00	0.000000e+00	0.000000e+00	0.000000e+00	0.000000e+00	0.000000e+00	0.000000e+00	
-17.4	0.000000e+00	0.000000e+00	0.000000e+00	0.000000e+00	0.000000e+00	0.000000e+00	0.000000e+00	0.000000e+00	0.000000e+00	0.000000e+00	
-17.2	0.000000e+00	0.000000e+00	0.000000e+00	0.000000e+00	0.000000e+00	0.000000e+00	0.000000e+00	0.000000e+00	0.000000e+00	0.000000e+00	
-16.9	0.000000e+00	0.000000e+00	0.000000e+00	0.000000e+00	0.000000e+00	0.000000e+00	0.000000e+00	0.000000e+00	0.000000e+00	0.000000e+00	
-16.7	0.000000e+00	0.000000e+00	0.000000e+00	0.000000e+00	0.000000e+00	0.000000e+00	0.000000e+00	0.000000e+00	0.000000e+00	0.000000e+00	
-16.4	0.000000e+00	0.000000e+00	0.000000e+00	0.000000e+00	0.000000e+00	0.000000e+00	0.000000e+00	0.000000e+00	0.000000e+00	0.000000e+00	
-16.2	0.000000e+00	0.000000e+00	0.000000e+00	0.000000e+00	0.000000e+00	0.000000e+00	0.000000e+00	0.000000e+00	0.000000e+00	0.000000e+00	
-15.9	0.000000e+00	0.000000e+00	0.000000e+00	0.000000e+00	0.000000e+00	0.000000e+00	0.000000e+00	0.000000e+00	0.000000e+00	0.000000e+00	
-15.7	0.000000e+00	0.000000e+00	0.000000e+00	0.000000e+00	0.000000e+00	0.000000e+00	0.000000e+00	0.000000e+00	0.000000e+00	0.000000e+00	
-15.4	0.000000e+00	0.000000e+00	0.000000e+00	0.000000e+00	0.000000e+00	0.000000e+00	0.000000e+00	0.000000e+00	0.000000e+00	0.000000e+00	
-15.2	0.000000e+00	0.000000e+00	0.000000e+00	0.000000e+00	0.000000e+00	0.000000e+00	0.000000e+00	0.000000e+00	0.000000e+00	0.000000e+00	
-14.9	0.000000e+00	0.000000e+00	0.000000e+00	0.000000e+00	0.000000e+00	0.000000e+00	0.000000e+00	0.000000e+00	0.000000e+00	0.000000e+00	
-14.7	0.000000e+00	0.000000e+00	0.000000e+00	0.000000e+00	0.000000e+00	0.000000e+00	0.000000e+00	0.000000e+00	0.000000e+00	0.000000e+00	
-14.4	0.000000e+00	0.000000e+00	0.000000e+00	0.000000e+00	0.000000e+00	0.000000e+00	0.000000e+00	0.000000e+00	0.000000e+00	0.000000e+00	
-14.2	0.000000e+00	0.000000e+00	0.000000e+00	0.000000e+00	0.000000e+00	0.000000e+00	0.000000e+00	0.000000e+00	0.000000e+00	0.000000e+00	
-13.9	0.000000e+00	0.000000e+00	0.000000e+00	0.000000e+00	0.000000e+00	0.000000e+00	0.000000e+00	0.000000e+00	0.000000e+00	0.000000e+00	
-13.7	0.000000e+00	0.000000e+00	0.000000e+00	0.000000e+00	0.000000e+00	0.000000e+00	0.000000e+00	0.000000e+00	0.000000e+00	0.000000e+00	
-13.4	0.000000e+00	0.000000e+00	0.000000e+00	0.000000e+00	0.000000e+00	0.000000e+00	0.000000e+00	0.000000e+00	0.000000e+00	0.000000e+00	
-13.2	0.000000e+00	0.000000e+00	0.000000e+00	0.000000e+00	0.000000e+00	0.000000e+00	0.000000e+00	0.000000e+00	0.000000e+00	0.000000e+00	
-12.9	0.000000e+00	0.000000e+00	0.000000e+00	0.000000e+00	0.000000e+00	0.000000e+00	0.000000e+00	0.000000e+00	0.000000e+00	0.000000e+00	
-12.7	0.000000e+00	0.000000e+00	0.000000e+00	0.000000e+00	0.000000e+00	0.000000e+00	0.000000e+00	0.000000e+00	0.000000e+00	0.000000e+00	
-12.4	0.000000e+00	0.000000e+00	0.000000e+00	0.000000e+00	0.000000e+00	0.000000e+00	0.000000e+00	0.000000e+00	0.000000e+00	0.000000e+00	
-12.2	0.000000e+00	0.000000e+00	0.000000e+00	0.000000e+00	0.000000e+00	0.000000e+00	0.000000e+00	0.000000e+00	0.000000e+00	0.000000e+00	
-11.9	0.000000e+00	0.000000e+00	0.000000e+00	0.000000e+00	0.000000e+00	0.000000e+00	0.000000e+00	0.000000e+00	0.000000e+00	0.000000e+00	
-11.7	0.000000e+00	0.000000e+00	0.000000e+00	0.000000e+00	0.000000e+00	0.000000e+00	0.000000e+00	0.000000e+00	0.000000e+00	0.000000e+00	
-11.4	0.000000e+00	0.000000e+00	0.000000e+00	0.000000e+00	0.000000e+00	0.000000e+00	0.000000e+00	0.000000e+00	0.000000e+00	0.000000e+00	
-11.2	0.000000e+00	0.000000e+00	0.000000e+00	0.000000e+00	0.000000e+00	0.000000e+00	0.000000e+00	0.000000e+00	0.000000e+00	0.000000e+00	
-10.9	0.000000e+00	0.000000e+00	0.000000e+00	0.000000e+00	0.000000e+00	0.000000e+00	0.000000e+00	0.000000e+00	0.000000e+00	0.000000e+00	
-10.7	0.000000e+00	0.000000e+00	0.000000e+00	0.000000e+00	0.000000e+00	0.000000e+00	0.000000e+00	0.000000e+00	0.000000e+00	0.000000e+00	
-10.4	0.000000e+00	0.000000e+00	0.000000e+00	0.000000e+00	0.000000e+00	0.000000e+00	0.000000e+00	0.000000e+00	0.000000e+00	0.000000e+00	
-10.2	0.000000e+00	0.000000e+00	0.000000e+00	0.000000e+00	0.000000e+00	0.000000e+00	0.000000e+00	0.000000e+00	0.000000e+00	0.000000e+00	
-9.9	0.000000e+00	0.000000e+00	0.000000e+00	0.000000e+00	0.000000e+00	0.000000e+00	0.000000e+00	0.000000e+00	0.000000e+00	0.000000e+00	
-9.6	0.000000e+00	0.000000e+00	0.000000e+00	0.000000e+00	0.000000e+00	0.000000e+00	0.000000e+00	0.000000e+00	0.000000e+00	0.000000e+00	
-9.4	0.000000e+00	0.000000e+00	0.000000e+00	0.000000e+00	0.000000e+00	0.000000e+00	0.000000e+00	0.000000e+00	0.000000e+00	0.000000e+00	
-9.1	0.000000e+00	0.000000e+00	0.000000e+00	0.000000e+00	0.000000e+00	0.000000e+00	0.000000e+00	0.000000e+00	0.000000e+00	0.000000e+00	
-8.9	0.000000e+00	0.000000e+00	0.000000e+00	0.000000e+00	0.000000e+00	0.000000e+00	0.000000e+00	0.000000e+00	0.000000e+00	0.000000e+00	
-8.6	0.000000e+00	0.000000e+00	0.000000e+00	0.000000e+00	0.000000e+00	0.000000e+00	0.000000e+00	0.000000e+00	0.000000e+00	0.000000e+00	
-8.4	0.000000e+00	0.000000e+00	0.000000e+00	0.000000e+00	0.000000e+00	0.000000e+00	0.000000e+00	0.000000e+00	0.000000e+00	0.000000e+00	
-8.1	0.000000e+00	0.000000e+00	0.000000e+00	0.000000e+00	0.000000e+00	0.000000e+00	0.000000e+00	0.000000e+00	0.000000e+00	0.000000e+00	
-7.9	0.000000e+00	0.000000e+00	0.000000e+00	0.000000e+00	0.000000e+00	0.000000e+00	0.000000e+00	0.000000e+00	0.000000e+00	0.000000e+00	
-7.6	0.000000e+00	0.000000e+00	0.000000e+00	0.000000e+00	0.000000e+00	0.000000e+00	0.000000e+00	0.000000e+00	0.000000e+00	0.000000e+00	
-7.4	0.000000e+00	0.000000e+00	0.000000e+00	0.000000e+00	0.000000e+00	0.000000e+00	0.000000e+00	0.000000e+00	0.000000e+00	0.000000e+00	
-7.1	0.000000e+00	0.000000e+00	0.000000e+00	0.000000e+00	0.000000e+00	0.000000e+00	0.000000e+00	0.000000e+00	0.000000e+00	0.000000e+00	
-6.9	0.000000e+00	0.000000e+00	0.000000e+00	0.000000e+00	0.000000e+00	0.000000e+00	0.000000e+00	0.000000e+00	0.000000e+00	0.000000e+00	
-6.6	0.000000e+00	0.000000e+00	0.000000e+00	0.000000e+00	0.000000e+00	0.000000e+00	0.000000e+00	0.000000e+00	0.000000e+00	0.000000e+00	
-6.4	0.000000e+00	0.000000e+00	0.000000e+00	0.000000e+00	0.000000e+00	0.000000e+00	0.000000e+00	0.000000e+00	0.000000e+00	0.000000e+00	
-6.1	0.000000e+00	0.000000e+00	0.000000e+00	0.000000e+00	0.000000e+00	0.000000e+00	0.000000e+00	0.000000e+00	0.000000e+00	0.000000e+00	
-5.9	0.000000e+00	0.000000e+00	0.000000e+00	0.000000e+00	0.000000e+00	0.000000e+00	0.000000e+00	0.000000e+00	0.000000e+00	0.000000e+00	
-5.6	0.000000e+00	0.000000e+00	0.000000e+00	0.000000e+00	0.000000e+00	0.000000e+00	0.000000e+00	0.000000e+00	0.000000e+00	0.000000e+00	
-5.4	0.000000e+00	0.000000e+00	0.000000e+00	0.000000e+00	0.000000e+00	0.000000e+00	0.000000e+00	0.000000e+00	0.000000e+00	0.000000e+00	
-5.1	0.000000e+00	0.000000e+00	0.000000e+00	0.000000e+00	0.000000e+00	0.000000e+00	0.000000e+00	0.000000e+00	0.000000e+00	0.000000e+00	
-4.9	0.000000e+00	0.000000e+00	0.000000e+00	0.000000e+00	0.000000e+00	0.000000e+00	0.000000e+00	0.000000e+00	0.000000e+00	0.000000e+00	
-4.6	0.000000e+00	0.000000e+00	0.000000e+00	0.000000e+00	0.000000e+00	0.000000e+00	0.000000e+00	0.000000e+00	0.000000e+00	0.000000e+00	
-4.4	0.000000e+00	0.000000e+00	0.000000e+00	0.000000e+00	0.000000e+00	0.000000e+00	0.000000e+00	0.000000e+00	0.000000e+00	0.000000e+00	
-4.1	0.000000e+00	0.000000e+00	0.000000e+00	0.000000e+00	0.000000e+00	0.000000e+00	0.000000e+00	0.000000e+00	0.000000e+00	0.000000e+00	
-3.9	0.000000e+00	0.000000e+00	0.000000e+00	0.000000e+00	0.000000e+00	0.000000e+00	0.000000e+00	0.000000e+00	0.000000e+00	0.000000e+00	
-3.6	0.000000e+00	0.000000e+00	0.000000e+00	0.000000e+00	0.000000e+00	0.000000e+00	0.000000e+00	0.000000e+00	0.000000e+00	0.000000e+00	
-3.4	0.000000e+00	0.000000e+00	0.000000e+00	0.000000e+00	0.000000e+00	0.000000e+00	0.000000e+00	0.000000e+00	0.000000e+00	0.000000e+00	
-3.1	0.000000e+00	0.000000e+00	0.000000e+00	0.000000e+00	0.000000e+00	0.000000e+00	0.000000e+00	0.000000e+00	0.000000e+00	0.000000e+00	
-2.9	0.000000e+00	0.000000e+00	0.000000e+00	0.000000e+00	0.000000e+00	0.000000e+00	0.000000e+00	0.000000e+00	0.000000e+00	0.000000e+00	
-2.6	0.000000e+00	0.000000e+00	0.000000e+00	0.000000e+00	0.000000e+00	0.000000e+00	0.000000e+00	0.000000e+00	0.000000e+00	0.000000e+00	
-2.4	0.000000e+00	0.000000e+00	0.000000e+00	0.000000e+00	0.000000e+00	0.000000e+00	0.000000e+00	0.000000e+00	0.000000e+00	0.000000e+00	
-2.1	0.000000e+00	0.000000e+00	0.000000e+00	0.000000e+00	0.000000e+00	0.000000e+00	0.000000e+00	0.000000e+00	0.000000e+00	0.000000e+00	
-1.9	0.000000e+00	0.000000e+00	0.000000e+00	0.000000e+00	0.000000e+00	0.000000e+00	0.000000e+00	0.000000e+00	0.000000e+00	0.000000e+00	
-1.6	0.000000e+00	0.000000e+00	0.000000e+00	0.000000e+00	0.000000e+00	0.000000e+00	0.000000e+00	0.000000e+00	0.000000e+00	0.000000e+00	
-1.4	0.000000e+00	0.000000e+00	0.000000e+00	0.000000e+00	0.000000e+00	0.000000e+00	0.000000e+00	0.000000e+00	0.000000e+00	0.000000e+00	
-1.1	0.000000e+00	0.000000e+00	0.000000e+00	0.000000e+00	0.000000e+00	0.000000e+00	0.000000e+00	0.000000e+00	0.000000e+00	0.000000e+00	
-0.9	0.000000e+00	0.000000e+00	0.000000e+00	0.000000e+00	0.000000e+00	0.000000e+00	0.000000e+00	0.000000e+00	0.000000e+00	0.000000e+00	
-0.6	0.000000e+00	0.000000e+00	0.000000e+00	0.000000e+00	0.000000e+00	0.000000e+00	0.000000e+00	0.000000e+00	0.000000e+00	0.000000e+00	
-0.4	0.000000e+00	0.000000e+00	0.000000e+00	0.000000e+00	0.000000e+00	0.000000e+00	0.000000e+00	0.000000e+00	0.000000e+00	0.000000e+00	
-0.1	0.000000e+00	0.000000e+00	0.000000e+00	0.000000e+00	0.000000e+00	0.000000e+00	0.000000e+00	0.000000e+00	0.000000e+00	0.000000e+00	
0.1	0.000000e+00	1.010023e-39	0.000000e+00	1.020146e-78	0.000000e+00	1.030371e-117	0.000000e+00	1.040698e-156	0.000000e+00	1.050860e-194	
0.4	0.000000e+00	3.554273e-37	0.000000e+00	7.169593e-76	0.000000e+00	1.085703e-114	0.000000e+00	1.461766e-153	0.000000e+00	1.835332e-191	
0.6	0.000000e+00	6.094357e-35	0.000000e+00	2.487194e-73	0.000000e+00	5.671239e-112	0.000000e+00	1.020028e-150	0.000000e+00	1.594456e-188	
0.9	0.000000e+00	6.784317e-33	0.000000e+00	5.677721e-71	0.000000e+00	1.957948e-109	0.000000e+00	4.714640e-148	0.000000e+00	9.186831e-186	
1.1	0.000000e+00	5.512228e-31	0.000000e+00	9.593251e-69	0.000000e+00	5.025747e-107	0.000000e+00	1.623758e-145	0.000000e+00	3.949256e-183	
1.4	0.000000e+00	3.484110e-29	0.000000e+00	1.279491e-66	0.000000e+00	1.022991e-104	0.000000e+00	4.444682e-143	0.000000e+00	1.351070e-180	
1.6	0.000000e+00	1.783128e-27	0.000000e+00	1.402938e-64	0.000000e+00	1.719926e-102	0.000000e+00	1.007202e-140	0.000000e+00	3.831513e-178	
1.9	0.000000e+00	7.593938e-26	0.000000e+00	1.300539e-62	0.000000e+00	2.456486e-100	0.000000e+00	1.943412e-138	0.000000e+00	9.264351e-176	
2.1	0.000000e+00	2.744806e-24	0.000000e+00	1.040313e-60	0.000000e+00	3.042325e-98	0.000000e+00	3.259275e-136	0.000000e+00	1.949640e-173	
2.4	0.000000e+00	8.545617e-23	0.000000e+00	7.293140e-59	0.000000e+00	3.318847e-96	0.000000e+00	4.826195e-134	0.000000e+00	3.627570e-171	
2.6	0.000000e+00	2.318029e-21	0.000000e+00	4.536099e-57	0.000000e+00	3.228628e-94	0.000000e+00	6.388396e-132	0.000000e+00	6.042012e-169	
2.9	0.000000e+00	5.527583e-20	0.000000e+00	2.527800e-55	0.000000e+00	2.828954e-92	0.000000e+00	7.635311e-130	0.000000e+00	9.099214e-167	
3.1	0.000000e+00	1.167074e-18	0.000000e+00	1.272349e-53	0.000000e+00	2.251009e-90	0.000000e+00	8.307941e-128	0.000000e+00	1.249321e-164	
3.4	0.000000e+00	2.194324e-17	0.000000e+00	5.823772e-52	0.000000e+00	1.637797e-88	0.000000e+00	8.287008e-126	0.000000e+00	1.574729e-162	
3.6	0.000000e+00	3.691033e-16	0.000000e+00	2.437900e-50	0.000000e+00	1.096006e-86	0.000000e+00	7.622482e-124	0.000000e+00	1.833004e-160	
3.9	0.000000e+00	5.575026e-15	0.000000e+00	9.379098e-49	0.000000e+00	6.779805e-85	0.000000e+00	6.498149e-122	0.000000e+00	1.980410e-158	
4.1	0.000000e+00	7.583501e-14	0.000000e+00	3.330196e-47	0.000000e+00	3.893740e-83	0.000000e+00	5.156923e-120	0.000000e+00	1.994812e-156	
4.4	0.000000e+00	9.311106e-13	0.000000e+00	1.095303e-45	0.000000e+00	2.084110e-81	0.000000e+00	3.824524e-118	0.000000e+00	1.880574e-154	
4.6	0.000000e+00	1.033647e-11	0.000000e+00	3.347712e-44	0.000000e+00	1.043137e-79	0.000000e+00	2.659704e-116	0.000000e+00	1.664991e-152	
4.9	0.000000e+00	1.038685e-10	0.000000e+00	9.535409e-43	0.000000e+00	4.896981e-78	0.000000e+00	1.739717e-114	0.000000e+00	1.388659e-150	
5.1	0.000000e+00	9.454172e-10	0.000000e+00	2.537430e-41	0.000000e+00	2.161936e-76	0.000000e+00	1.073235e-112	0.000000e+00	1.094037e-148	
5.4	0.000000e+00	7.796082e-09	0.000000e+00	6.322320e-40	0.000000e+00	8.997599e-75	0.000000e+00	6.259603e-111	0.000000e+00	8.161950e-147	
5.6	0.000000e+00	5.822755e-08	0.000000e+00	1.477903e-38	0.000000e+00	3.537694e-73	0.000000e+00	3.459367e-109	0.000000e+00	5.779007e-145	
5.9	0.000000e+00	3.936112e-07	0.000000e+00	3.246904e-37	0.000000e+00	1.316664e-71	0.000000e+00	1.815177e-107	0.000000e+00	3.891290e-143	
6.1	0.000000e+00	2.405341e-06	0.000000e+00	6.714796e-36	0.000000e+00	4.646922e-70	0.000000e+00	9.059655e-106	0.000000e+00	2.496446e-141	
6.4	0.000000e+00	1.326560e-05	0.000000e+00	1.309032e-34	0.000000e+00	1.557747e-68	0.000000e+00	4.308289e-104	0.000000e+00	1.528548e-139	
6.6	0.000000e+00	6.588111e-05	0.000000e+00	2.408635e-33	0.000000e+00	4.967247e-67	0.000000e+00	1.955101e-102	0.000000e+00	8.946318e-138	
6.9	0.000000e+00	2.938169e-04	0.000000e+00	4.187810e-32	0.000000e+00	1.508738e-65	0.000000e+00	8.478567e-101	0.000000e+00	5.012404e-136	
7.1	0.000000e+00	1.172748e-03	0.000000e+00	6.887116e-31	0.000000e+00	4.370542e-64	0.000000e+00	3.518320e-99	0.000000e+00	2.691937e-134	
7.4	0.000000e+00	4.172385e-03	0.000000e+00	1.072293e-29	0.000000e+00	1.208876e-62	0.000000e+00	1.398738e-97	0.000000e+00	1.387522e-132	
7.6	0.000000e+00	1.316874e-02	0.000000e+00	1.581841e-28	0.000000e+00	3.196063e-61	0.000000e+00	5.333541e-96	0.000000e+00	6.871822e-131	
7.9	0.000000e+00	3.666866e-02	0.000000e+00	2.212542e-27	0.000000e+00	8.084698e-60	0.000000e+00	1.952673e-94	0.000000e+00	3.273618e-129	
8.1	0.000000e+00	8.952847e-02	0.000000e+00	2.936088e-26	0.000000e+00	1.958495e-58	0.000000e+00	6.870727e-93	0.000000e+00	1.501565e-127	
8.4	0.000000e+00	1.904140e-01	0.000000e+00	3.698523e-25	0.000000e+00	4.547342e-57	0.000000e+00	2.325585e-91	0.000000e+00	6.637865e-126	
8.6	0.000000e+00	3.505984e-01	0.000000e+00	4.424554e-24	0.000000e+00	1.012766e-55	0.000000e+00	7.578600e-90	0.000000e+00	2.830502e-124	
8.9	1.000000e+00	5.564912e-01	0.000000e+00	5.028757e-23	0.000000e+00	2.165168e-54	0.000000e+00	2.379689e-88	0.000000e+00	1.165221e-122	
9.1	1.000000e+00	7.623256e-01	0.000000e+00	5.431750e-22	0.000000e+00	4.446293e-53	0.000000e+00	7.205297e-87	0.000000e+00	4.634480e-121	
9.4	1.000000e+00	9.124864e-01	0.000000e+00	5.577189e-21	0.000000e+00	8.776064e-52	0.000000e+00	2.105182e-85	0.000000e+00	1.782213e-119	
9.6	1.000000e+00	9.835950e-01	0.000000e+00	5.444622e-20	0.000000e+00	1.665900e-50	0.000000e+00	5.939103e-84	0.000000e+00	6.631075e-118	
9.9	1.000000e+00	1.000000e+00	0.000000e+00	5.054168e-19	0.000000e+00	3.042842e-49	0.000000e+00	1.618886e-82	0.000000e+00	2.388678e-116	
10.2	1.000000e+00	1.000000e+00	0.000000e+00	4.461560e-18	0.000000e+00	5.350672e-48	0.000000e+00	4.266092e-81	0.000000e+00	8.335823e-115	
10.4	1.000000e+00	1.000000e+00	0.000000e+00	3.745221e-17	0.000000e+00	9.062270e-47	0.000000e+00	1.087434e-79	0.000000e+00	2.819746e-113	
10.7	1.000000e+00	1.000000e+00	0.000000e+00	2.989466e-16	0.000000e+00	1.478944e-45	0.000000e+00	2.682632e-78	0.000000e+00	9.250870e-112	
10.9	1.000000e+00	1.000000e+00	0.000000e+00	2.268717e-15	0.000000e+00	2.326617e-44	0.000000e+00	6.407936e-77	0.000000e+00	2.945058e-110	
11.2	1.000000e+00	1.000000e+00	0.000000e+00	1.636647e-14	0.000000e+00	3.529518e-43	0.000000e+00	1.482778e-75	0.000000e+00	9.102491e-109	
11.4	1.000000e+00	1.000000e+00	0.000000e+00	1.122040e-13	0.000000e+00	5.164995e-42	0.000000e+00	3.325260e-74	0.000000e+00	2.732670e-107	
11.7	1.000000e+00	1.000000e+00	0.000000e+00	7.308052e-13	0.000000e+00	7.293278e-41	0.000000e+00	7.230142e-73	0.000000e+00	7.972049e-106	
11.9	1.000000e+00	1.000000e+00	0.000000e+00	4.520306e-12	0.000000e+00	9.940246e-40	0.000000e+00	1.524791e-71	0.000000e+00	2.260968e-104	
12.2	1.000000e+00	1.000000e+00	0.000000e+00	2.654052e-11	0.000000e+00	1.307992e-38	0.000000e+00	3.120161e-70	0.000000e+00	6.236453e-103	
12.4	1.000000e+00	1.000000e+00	0.000000e+00	1.478419e-10	0.000000e+00	1.662066e-37	0.000000e+00	6.197255e-69	0.000000e+00	1.673663e-101	
12.7	1.000000e+00	1.000000e+00	0.000000e+00	7.808554e-10	0.000000e+00	2.039945e-36	0.000000e+00	1.195148e-67	0.000000e+00	4.371661e-100	
12.9	1.000000e+00	1.000000e+00	0.000000e+00	3.907798e-09	0.000000e+00	2.418785e-35	0.000000e+00	2.238616e-66	0.000000e+00	1.111799e-98	
13.2	1.000000e+00	1.000000e+00	0.000000e+00	1.851609e-08	0.000000e+00	2.771132e-34	0.000000e+00	4.073827e-65	0.000000e+00	2.753932e-97	
13.4	1.000000e+00	1.000000e+00	0.000000e+00	8.299475e-08	0.000000e+00	3.068044e-33	0.000000e+00	7.204636e-64	0.000000e+00	6.646106e-96	
13.7	1.000000e+00	1.000000e+00	0.000000e+00	3.515795e-07	0.000000e+00	3.282951e-32	0.000000e+00	1.238577e-62	0.000000e+00	1.563153e-94	
13.9	1.000000e+00	1.000000e+00	0.000000e+00	1.406086e-06	0.000000e+00	3.395560e-31	0.000000e+00	2.070350e-61	0.000000e+00	3.584127e-93	
14.2	1.000000e+00	1.000000e+00	0.000000e+00	5.302884e-06	0.000000e+00	3.394998e-30	0.000000e+00	3.365711e-60	0.000000e+00	8.013723e-92	
14.4	1.000000e+00	1.000000e+00	0.000000e+00	1.883529e-05	0.000000e+00	3.281537e-29	0.000000e+00	5.322537e-59	0.000000e+00	1.747715e-90	
14.7	1.000000e+00	1.000000e+00	0.000000e+00	6.291973e-05	0.000000e+00	3.066514e-28	0.000000e+00	8.189553e-58	0.000000e+00	3.718805e-89	
14.9	1.000000e+00	1.000000e+00	0.000000e+00	1.973764e-04	0.000000e+00	2.770475e-27	0.000000e+00	1.226272e-56	0.000000e+00	7.722160e-88	
15.2	1.000000e+00	1.000000e+00	0.000000e+00	5.804691e-04	0.000000e+00	2.419965e-26	0.000000e+00	1.787222e-55	0.000000e+00	1.565230e-86	
15.4	1.000000e+00	1.000000e+00	0.000000e+00	1.597574e-03	0.000000e+00	2.043643e-25	0.000000e+00	2.535773e-54	0.000000e+00	3.097554e-85	
15.7	1.000000e+00	1.000000e+00	0.000000e+00	4.106813e-03	0.000000e+00	1.668513e-24	0.000000e+00	3.503103e-53	0.000000e+00	5.986229e-84	
15.9	1.000000e+00	1.000000e+00	0.000000e+00	9.840586e-03	0.000000e+00	1.316927e-23	0.000000e+00	4.712719e-52	0.000000e+00	1.129979e-82	
16.2	1.000000e+00	1.000000e+00	0.000000e+00	2.193183e-02	0.000000e+00	1.004783e-22	0.000000e+00	6.174864e-51	0.000000e+00	2.083793e-81	
16.4	1.000000e+00	1.000000e+00	0.000000e+00	4.536358e-02	0.000000e+00	7.410103e-22	0.000000e+00	7.880921e-50	0.000000e+00	3.754803e-80	
16.7	1.000000e+00	1.000000e+00	0.000000e+00	8.688988e-02	0.000000e+00	5.281674e-21	0.000000e+00	9.798794e-49	0.000000e+00	6.612190e-79	
16.9	1.000000e+00	1.000000e+00	0.000000e+00	1.538088e-01	0.000000e+00	3.637977e-20	0.000000e+00	1.187032e-47	0.000000e+00	1.138159e-77	
17.2	1.000000e+00	1.000000e+00	0.000000e+00	2.512072e-01	0.000000e+00	2.421176e-19	0.000000e+00	1.401168e-46	0.000000e+00	1.915272e-76	
17.4	1.000000e+00	1.000000e+00	0.000000e+00	3.782124e-01	0.000000e+00	1.556677e-18	0.000000e+00	1.611746e-45	0.000000e+00	3.151340e-75	
17.7	1.000000e+00	1.000000e+00	1.000000e+00	5.251339e-01	0.000000e+00	9.667080e-18	0.000000e+00	1.806829e-44	0.000000e+00	5.070625e-74	
17.9	1.000000e+00	1.000000e+00	1.000000e+00	6.740824e-01	0.000000e+00	5.797308e-17	0.000000e+00	1.974168e-43	0.000000e+00	7.979767e-73	
18.2	1.000000e+00	1.000000e+00	1.000000e+00	8.043753e-01	0.000000e+00	3.356537e-16	0.000000e+00	2.102454e-42	0.000000e+00	1.228400e-71	
18.4	1.000000e+00	1.000000e+00	1.000000e+00	9.007289e-01	0.000000e+00	1.875773e-15	0.000000e+00	2.182572e-41	0.000000e+00	1.849972e-70	
18.7	1.000000e+00	1.000000e+00	1.000000e+00	9.593057e-01	0.000000e+00	1.011515e-14	0.000000e+00	2.208676e-40	0.000000e+00	2.725961e-69	
18.9	1.000000e+00	1.000000e+00	1.000000e+00	9.874146e-01	0.000000e+00	5.261826e-14	0.000000e+00	2.178883e-39	0.000000e+00	3.930544e-68	
19.2	1.000000e+00	1.000000e+00	1.000000e+00	9.973978e-01	0.000000e+00	2.639552e-13	0.000000e+00	2.095504e-38	0.000000e+00	5.546408e-67	
19.4	1.000000e+00	1.000000e+00	1.000000e+00	9.997309e-01	0.000000e+00	1.276438e-12	0.000000e+00	1.964744e-37	0.000000e+00	7.660234e-66	
19.7	1.000000e+00	1.000000e+00	1.000000e+00	1.000000e+00	0.000000e+00	5.948109e-12	0.000000e+00	1.795946e-36	0.000000e+00	1.035585e-64	
19.9	1.000000e+00	1.000000e+00	1.000000e+00	1.000000e+00	0.000000e+00	2.669862e-11	0.000000e+00	1.600494e-35	0.000000e+00	1.370512e-63	
20.2	1.000000e+00	1.000000e+00	1.000000e+00	1.000000e+00	0.000000e+00	1.153819e-10	0.000000e+00	1.390554e-34	0.000000e+00	1.775707e-62	
20.4	1.000000e+00	1.000000e+00	1.000000e+00	1.000000e+00	0.000000e+00	4.798650e-10	0.000000e+00	1.177853e-33	0.000000e+00	2.252612e-61	
20.7	1.000000e+00	1.000000e+00	1.000000e+00	1.000000e+00	0.000000e+00	1.919609e-09	0.000000e+00	9.726498e-33	0.000000e+00	2.798087e-60	
20.9	1.000000e+00	1.000000e+00	1.000000e+00	1.000000e+00	0.000000e+00	7.382143e-09	0.000000e+00	7.830217e-32	0.000000e+00	3.403509e-59	
21.2	1.000000e+00	1.000000e+00	1.000000e+00	1.000000e+00	0.000000e+00	2.727572e-08	0.000000e+00	6.145095e-31	0.000000e+00	4.054268e-58	
21.4	1.000000e+00	1.000000e+00	1.000000e+00	1.000000e+00	0.000000e+00	9.676649e-08	0.000000e+00	4.701140e-30	0.000000e+00	4.729819e-57	
21.7	1.000000e+00	1.000000e+00	1.000000e+00	1.000000e+00	0.000000e+00	3.294136e-07	0.000000e+00	3.505713e-29	0.000000e+00	5.404405e-56	
21.9	1.000000e+00	1.000000e+00	1.000000e+00	1.000000e+00	0.000000e+00	1.075277e-06	0.000000e+00	2.548139e-28	0.000000e+00	6.048465e-55	
22.2	1.000000e+00	1.000000e+00	1.000000e+00	1.000000e+00	0.000000e+00	3.363071e-06	0.000000e+00	1.805157e-27	0.000000e+00	6.630665e-54	
22.4	1.000000e+00	1.000000e+00	1.000000e+00	1.000000e+00	0.000000e+00	1.007031e-05	0.000000e+00	1.246292e-26	0.000000e+00	7.120367e-53	
22.7	1.000000e+00	1.000000e+00	1.000000e+00	1.000000e+00	0.000000e+00	2.884526e-05	0.000000e+00	8.384961e-26	0.000000e+00	7.490277e-52	
22.9	1.000000e+00	1.000000e+00	1.000000e+00	1.000000e+00	0.000000e+00	7.896631e-05	0.000000e+00	5.496919e-25	0.000000e+00	7.718951e-51	
23.2	1.000000e+00	1.000000e+00	1.000000e+00	1.000000e+00	0.000000e+00	2.064119e-04	0.000000e+00	3.511000e-24	0.000000e+00	7.792855e-50	
23.4	1.000000e+00	1.000000e+00	1.000000e+00	1.000000e+00	0.000000e+00	5.146604e-04	0.000000e+00	2.184679e-23	0.000000e+00	7.707684e-49	
23.7	1.000000e+00	1.000000e+00	1.000000e+00	1.000000e+00	0.000000e+00	1.222775e-03	0.000000e+00	1.324153e-22	0.000000e+00	7.468773e-48	
23.9	1.000000e+00	1.000000e+00	1.000000e+00	1.000000e+00	0.000000e+00	2.765281e-03	0.000000e+00	7.816754e-22	0.000000e+00	7.090553e-47	
24.2	1.000000e+00	1.000000e+00	1.000000e+00	1.000000e+00	0.000000e+00	5.945795e-03	0.000000e+00	4.493577e-21	0.000000e+00	6.595107e-46	
24.4	1.000000e+00	1.000000e+00	1.000000e+00	1.000000e+00	0.000000e+00	1.214112e-02	0.000000e+00	2.515190e-20	0.000000e+00	6.010049e-45	
24.7	1.000000e+00	1.000000e+00	1.000000e+00	1.000000e+00	0.000000e+00	2.351705e-02	0.000000e+00	1.370545e-19	0.000000e+00	5.365998e-44	
24.9	1.000000e+00	1.000000e+00	1.000000e+00	1.000000e+00	0.000000e+00	4.316081e-02	0.000000e+00	7.269186e-19	0.000000e+00	4.693958e-43	
25.2	1.000000e+00	1.000000e+00	1.000000e+00	1.000000e+00	0.000000e+00	7.497466e-02	0.000000e+00	3.752062e-18	0.000000e+00	4.022927e-42	
25.4	1.000000e+00	1.000000e+00	1.000000e+00	1.000000e+00	0.000000e+00	1.231542e-01	0.000000e+00	1.884354e-17	0.000000e+00	3.377969e-41	
25.7	1.000000e+00	1.000000e+00	1.000000e+00	1.000000e+00	0.000000e+00	1.911531e-01	0.000000e+00	9.206078e-17	0.000000e+00	2.778908e-40	
25.9	1.000000e+00	1.000000e+00	1.000000e+00	1.000000e+00	0.000000e+00	2.802526e-01	0.000000e+00	4.374343e-16	0.000000e+00	2.239703e-39	
26.2	1.000000e+00	1.000000e+00	1.000000e+00	1.000000e+00	0.000000e+00	3.881693e-01	0.000000e+00	2.021053e-15	0.000000e+00	1.768458e-38	
26.4	1.000000e+00	1.000000e+00	1.000000e+00	1.000000e+00	1.000000e+00	5.083852e-01	0.000000e+00	9.077463e-15	0.000000e+00	1.367969e-37	
26.7	1.000000e+00	1.000000e+00	1.000000e+00	1.000000e+00	1.000000e+00	6.308345e-01	0.000000e+00	3.962437e-14	0.000000e+00	1.036626e-36	
26.9	1.000000e+00	1.000000e+00	1.000000e+00	1.000000e+00	1.000000e+00	7.440966e-01	0.000000e+00	1.680562e-13	0.000000e+00	7.695152e-36	
27.2	1.000000e+00	1.000000e+00	1.000000e+00	1.000000e+00	1.000000e+00	8.384548e-01	0.000000e+00	6.923370e-13	0.000000e+00	5.595575e-35	
27.4	1.000000e+00	1.000000e+00	1.000000e+00	1.000000e+00	1.000000e+00	9.085543e-01	0.000000e+00	2.769631e-12	0.000000e+00	3.985529e-34	
27.7	1.000000e+00	1.000000e+00	1.000000e+00	1.000000e+00	1.000000e+00	9.544246e-01	0.000000e+00	1.075550e-11	0.000000e+00	2.780483e-33	
27.9	1.000000e+00	1.000000e+00	1.000000e+00	1.000000e+00	1.000000e+00	9.804517e-01	0.000000e+00	4.053217e-11	0.000000e+00	1.899875e-32	
28.2	1.000000e+00	1.000000e+00	1.000000e+00	1.000000e+00	1.000000e+00	9.929969e-01	0.000000e+00	1.481761e-10	0.000000e+00	1.271381e-31	
28.4	1.000000e+00	1.000000e+00	1.000000e+00	1.000000e+00	1.000000e+00	9.979913e-01	0.000000e+00	5.252992e-10	0.000000e+00	8.331926e-31	
28.7	1.000000e+00	1.000000e+00	1.000000e+00	1.000000e+00	1.000000e+00	9.995681e-01	0.000000e+00	1.805169e-09	0.000000e+00	5.346942e-30	
28.9	1.000000e+00	1.000000e+00	1.000000e+00	1.000000e+00	1.000000e+00	9.999382e-01	0.000000e+00	6.010850e-09	0.000000e+00	3.359891e-29	
29.2	1.000000e+00	1.000000e+00	1.000000e+00	1.000000e+00	1.000000e+00	9.999956e-01	0.000000e+00	1.938547e-08	0.000000e+00	2.067148e-28	
29.4	1.000000e+00	1.000000e+00	1.000000e+00	1.000000e+00	1.000000e+00	1.000000e+00	0.000000e+00	6.052644e-08	0.000000e+00	1.245115e-27	
29.7	1.000000e+00	1.000000e+00	1.000000e+00	1.000000e+00	1.000000e+00	1.000000e+00	0.000000e+00	1.828686e-07	0.000000e+00	7.341785e-27	
29.9	1.000000e+00	1.000000e+00	1.000000e+00	1.000000e+00	1.000000e+00	1.000000e+00	0.000000e+00	5.343740e-07	0.000000e+00	4.237487e-26	
30.2	1.000000e+00	1.000000e+00	1.000000e+00	1.000000e+00	1.000000e+00	1.000000e+00	0.000000e+00	1.509524e-06	0.000000e+00	2.393800e-25	
30.5	1.000000e+00	1.000000e+00	1.000000e+00	1.000000e+00	1.000000e+00	1.000000e+00	0.000000e+00	4.119929e-06	0.000000e+00	1.323414e-24	
30.7	1.000000e+00	1.000000e+00	1.000000e+00	1.000000e+00	1.000000e+00	1.000000e+00	0.000000e+00	1.085799e-05	0.000000e+00	7.159546e-24	
31.0	1.000000e+00	1.000000e+00	1.000000e+00	1.000000e+00	1.000000e+00	1.000000e+00	0.000000e+00	2.761622e-05	0.000000e+00	3.789726e-23	
31.2	1.000000e+00	1.000000e+00	1.000000e+00	1.000000e+00	1.000000e+00	1.000000e+00	0.000000e+00	6.774348e-05	0.000000e+00	1.962507e-22	
31.5	1.000000e+00	1.000000e+00	1.000000e+00	1.000000e+00	1.000000e+00	1.000000e+00	0.000000e+00	1.601704e-04	0.000000e+00	9.941251e-22	
31.7	1.000000e+00	1.000000e+00	1.000000e+00	1.000000e+00	1.000000e+00	1.000000e+00	0.000000e+00	3.647719e-04	0.000000e+00	4.925389e-21	
32.0	1.000000e+00	1.000000e+00	1.000000e+00	1.000000e+00	1.000000e+00	1.000000e+00	0.000000e+00	7.996279e-04	0.000000e+00	2.386436e-20	
32.2	1.000000e+00	1.000000e+00	1.000000e+00	1.000000e+00	1.000000e+00	1.000000e+00	0.000000e+00	1.686074e-03	0.000000e+00	1.130593e-19	
32.5	1.000000e+00	1.000000e+00	1.000000e+00	1.000000e+00	1.000000e+00	1.000000e+00	0.000000e+00	3.417246e-03	0.000000e+00	5.236545e-19	
32.7	1.000000e+00	1.000000e+00	1.000000e+00	1.000000e+00	1.000000e+00	1.000000e+00	0.000000e+00	6.652285e-03	0.000000e+00	2.370808e-18	
33.0	1.000000e+00	1.000000e+00	1.000000e+00	1.000000e+00	1.000000e+00	1.000000e+00	0.000000e+00	1.242926e-02	0.000000e+00	1.049033e-17	
33.2	1.000000e+00	1.000000e+00	1.000000e+00	1.000000e+00	1.000000e+00	1.000000e+00	0.000000e+00	2.227359e-02	0.000000e+00	4.535748e-17	
33.5	1.000000e+00	1.000000e+00	1.000000e+00	1.000000e+00	1.000000e+00	1.000000e+00	0.000000e+00	3.825682e-02	0.000000e+00	1.916006e-16	
33.7	1.000000e+00	1.000000e+00	1.000000e+00	1.000000e+00	1.000000e+00	1.000000e+00	0.000000e+00	6.294032e-02	0.000000e+00	7.905908e-16	
34.0	1.000000e+00	1.000000e+00	1.000000e+00	1.000000e+00	1.000000e+00	1.000000e+00	0.000000e+00	9.913250e-02	0.000000e+00	3.185871e-15	
34.2	1.000000e+00	1.000000e+00	1.000000e+00	1.000000e+00	1.000000e+00	1.000000e+00	0.000000e+00	1.494147e-01	0.000000e+00	1.253537e-14	
34.5	1.000000e+00	1.000000e+00	1.000000e+00	1.000000e+00	1.000000e+00	1.000000e+00	0.000000e+00	2.154601e-01	0.000000e+00	4.814891e-14	
34.7	1.000000e+00	1.000000e+00	1.000000e+00	1.000000e+00	1.000000e+00	1.000000e+00	0.000000e+00	2.972758e-01	0.000000e+00	1.805007e-13	
35.0	1.000000e+00	1.000000e+00	1.000000e+00	1.000000e+00	1.000000e+00	1.000000e+00	0.000000e+00	3.926022e-01	0.000000e+00	6.602588e-13	
35.2	1.000000e+00	1.000000e+00	1.000000e+00	1.000000e+00	1.000000e+00	1.000000e+00	1.000000e+00	4.967508e-01	0.000000e+00	2.356064e-12	
35.5	1.000000e+00	1.000000e+00	1.000000e+00	1.000000e+00	1.000000e+00	1.000000e+00	1.000000e+00	6.030850e-01	0.000000e+00	8.199521e-12	
35.7	1.000000e+00	1.000000e+00	1.000000e+00	1.000000e+00	1.000000e+00	1.000000e+00	1.000000e+00	7.041487e-01	0.000000e+00	2.782302e-11	
36.0	1.000000e+00	1.000000e+00	1.000000e+00	1.000000e+00	1.000000e+00	1.000000e+00	1.000000e+00	7.931726e-01	0.000000e+00	9.202713e-11	
36.2	1.000000e+00	1.000000e+00	1.000000e+00	1.000000e+00	1.000000e+00	1.000000e+00	1.000000e+00	8.654839e-01	0.000000e+00	2.966196e-10	
36.5	1.000000e+00	1.000000e+00	1.000000e+00	1.000000e+00	1.000000e+00	1.000000e+00	1.000000e+00	9.193281e-01	0.000000e+00	9.313814e-10	
36.7	1.000000e+00	1.000000e+00	1.000000e+00	1.000000e+00	1.000000e+00	1.000000e+00	1.000000e+00	9.558285e-01	0.000000e+00	2.848165e-09	
37.0	1.000000e+00	1.000000e+00	1.000000e+00	1.000000e+00	1.000000e+00	1.000000e+00	1.000000e+00	9.781693e-01	0.000000e+00	8.479562e-09	
37.2	1.000000e+00	1.000000e+00	1.000000e+00	1.000000e+00	1.000000e+00	1.000000e+00	1.000000e+00	9.903929e-01	0.000000e+00	2.457013e-08	
37.5	1.000000e+00	1.000000e+00	1.000000e+00	1.000000e+00	1.000000e+00	1.000000e+00	1.000000e+00	9.962980e-01	0.000000e+00	6.926545e-08	
37.7	1.000000e+00	1.000000e+00	1.000000e+00	1.000000e+00	1.000000e+00	1.000000e+00	1.000000e+00	9.987774e-01	0.000000e+00	1.899085e-07	
38.0	1.000000e+00	1.000000e+00	1.000000e+00	1.000000e+00	1.000000e+00	1.000000e+00	1.000000e+00	9.996638e-01	0.000000e+00	5.062071e-07	
38.2	1.000000e+00	1.000000e+00	1.000000e+00	1.000000e+00	1.000000e+00	1.000000e+00	1.000000e+00	9.999261e-01	0.000000e+00	1.311291e-06	
38.5	1.000000e+00	1.000000e+00	1.000000e+00	1.000000e+00	1.000000e+00	1.000000e+00	1.000000e+00	9.999879e-01	0.000000e+00	3.299757e-06	
38.7	1.000000e+00	1.000000e+00	1.000000e+00	1.000000e+00	1.000000e+00	1.000000e+00	1.000000e+00	9.999987e-01	0.000000e+00	8.062975e-06	
39.0	1.000000e+00	1.000000e+00	1.000000e+00	1.000000e+00	1.000000e+00	1.000000e+00	1.000000e+00	9.999999e-01	0.000000e+00	1.912279e-05	
39.2	1.000000e+00	1.000000e+00	1.000000e+00	1.000000e+00	1.000000e+00	1.000000e+00	1.000000e+00	1.000000e+00	0.000000e+00	4.400030e-05	
39.5	1.000000e+00	1.000000e+00	1.000000e+00	1.000000e+00	1.000000e+00	1.000000e+00	1.000000e+00	1.000000e+00	0.000000e+00	9.817669e-05	
39.7	1.000000e+00	1.000000e+00	1.000000e+00	1.000000e+00	1.000000e+00	1.000000e+00	1.000000e+00	1.000000e+00	0.000000e+00	2.123261e-04	
40.0	1.000000e+00	1.000000e+00	1.000000e+00	1.000000e+00	1.000000e+00	1.000000e+00	1.000000e+00	1.000000e+00	0.000000e+00	4.448664e-04	
40.2	1.000000e+00	1.000000e+00	1.000000e+00	1.000000e+00	1.000000e+00	1.000000e+00	1.000000e+00	1.000000e+00	0.000000e+00	9.025501e-04	
40.5	1.000000e+00	1.000000e+00	1.000000e+00	1.000000e+00	1.000000e+00	1.000000e+00	1.000000e+00	1.000000e+00	0.000000e+00	1.772186e-03	
40.7	1.000000e+00	1.000000e+00	1.000000e+00	1.000000e+00	1.000000e+00	1.000000e+00	1.000000e+00	1.000000e+00	0.000000e+00	3.366066e-03	
41.0	1.000000e+00	1.000000e+00	1.000000e+00	1.000000e+00	1.000000e+00	1.000000e+00	1.000000e+00	1.000000e+00	0.000000e+00	6.181447e-03	
41.2	1.000000e+00	1.000000e+00	1.000000e+00	1.000000e+00	1.000000e+00	1.000000e+00	1.000000e+00	1.000000e+00	0.000000e+00	1.096967e-02	
41.5	1.000000e+00	1.000000e+00	1.000000e+00	1.000000e+00	1.000000e+00	1.000000e+00	1.000000e+00	1.000000e+00	0.000000e+00	1.880271e-02	
41.7	1.000000e+00	1.000000e+00	1.000000e+00	1.000000e+00	1.000000e+00	1.000000e+00	1.000000e+00	1.000000e+00	0.000000e+00	3.111502e-02	
42.0	1.000000e+00	1.000000e+00	1.000000e+00	1.000000e+00	1.000000e+00	1.000000e+00	1.000000e+00	1.000000e+00	0.000000e+00	4.968879e-02	
42.2	1.000000e+00	1.000000e+00	1.000000e+00	1.000000e+00	1.000000e+00	1.000000e+00	1.000000e+00	1.000000e+00	0.000000e+00	7.654680e-02	
42.5	1.000000e+00	1.000000e+00	1.000000e+00	1.000000e+00	1.000000e+00	1.000000e+00	1.000000e+00	1.000000e+00	0.000000e+00	1.137242e-01	
42.7	1.000000e+00	1.000000e+00	1.000000e+00	1.000000e+00	1.000000e+00	1.000000e+00	1.000000e+00	1.000000e+00	0.000000e+00	1.629157e-01	
43.0	1.000000e+00	1.000000e+00	1.000000e+00	1.000000e+00	1.000000e+00	1.000000e+00	1.000000e+00	1.000000e+00	0.000000e+00	2.250346e-01	
43.2	1.000000e+00	1.000000e+00	1.000000e+00	1.000000e+00	1.000000e+00	1.000000e+00	1.000000e+00	1.000000e+00	0.000000e+00	2.997728e-01	
43.5	1.000000e+00	1.000000e+00	1.000000e+00	1.000000e+00	1.000000e+00	1.000000e+00	1.000000e+00	1.000000e+00	0.000000e+00	3.852870e-01	
43.7	1.000000e+00	1.000000e+00	1.000000e+00	1.000000e+00	1.000000e+00	1.000000e+00	1.000000e+00	1.000000e+00	0.000000e+00	4.781467e-01	
44.0	1.000000e+00	1.000000e+00	1.000000e+00	1.000000e+00	1.000000e+00	1.000000e+00	1.000000e+00	1.000000e+00	1.000000e+00	5.736324e-01	
44.2	1.000000e+00	1.000000e+00	1.000000e+00	1.000000e+00	1.000000e+00	1.000000e+00	1.000000e+00	1.000000e+00	1.000000e+00	6.663791e-01	
44.5	1.000000e+00	1.000000e+00	1.000000e+00	1.000000e+00	1.000000e+00	1.000000e+00	1.000000e+00	1.000000e+00	1.000000e+00	7.512418e-01	
44.7	1.000000e+00	1.000000e+00	1.000000e+00	1.000000e+00	1.000000e+00	1.000000e+00	1.000000e+00	1.000000e+00	1.000000e+00	8.241648e-01	
45.0	1.000000e+00	1.000000e+00	1.000000e+00	1.000000e+00	1.000000e+00	1.000000e+00	1.000000e+00	1.000000e+00	1.000000e+00	8.828125e-01	
45.2	1.000000e+00	1.000000e+00	1.000000e+00	1.000000e+00	1.000000e+00	1.000000e+00	1.000000e+00	1.000000e+00	1.000000e+00	9.267858e-01	
45.5	1.000000e+00	1.000000e+00	1.000000e+00	1.000000e+00	1.000000e+00	1.000000e+00	1.000000e+00	1.000000e+00	1.000000e+00	9.573883e-01	
45.7	1.000000e+00	1.000000e+00	1.000000e+00	1.000000e+00	1.000000e+00	1.000000e+00	1.000000e+00	1.000000e+00	1.000000e+00	9.770558e-01	
46.0	1.000000e+00	1.000000e+00	1.000000e+00	1.000000e+00	1.000000e+00	1.000000e+00	1.000000e+00	1.000000e+00	1.000000e+00	9.886595e-01	
46.2	1.000000e+00	1.000000e+00	1.000000e+00	1.000000e+00	1.000000e+00	1.000000e+00	1.000000e+00	1.000000e+00	1.000000e+00	9.949011e-01	
46.5	1.000000e+00	1.000000e+00	1.000000e+00	1.000000e+00	1.000000e+00	1.000000e+00	1.000000e+00	1.000000e+00	1.000000e+00	9.979366e-01	
46.7	1.000000e+00	1.000000e+00	1.000000e+00	1.000000e+00	1.000000e+00	1.000000e+00	1.000000e+00	1.000000e+00	1.000000e+00	9.992582e-01	
47.0	1.000000e+00	1.000000e+00	1.000000e+00	1.000000e+00	1.000000e+00	1.000000e+00	1.000000e+00	1.000000e+00	1.000000e+00	9.997669e-01	
47.2	1.000000e+00	1.000000e+00	1.000000e+00	1.000000e+00	1.000000e+00	1.000000e+00	1.000000e+00	1.000000e+00	1.000000e+00	9.999373e-01	
47.5	1.000000e+00	1.000000e+00	1.000000e+00	1.000000e+00	1.000000e+00	1.000000e+00	1.000000e+00	1.000000e+00	1.000000e+00	9.999860e-01	
47.7	1.000000e+00	1.000000e+00	1.000000e+00	1.000000e+00	1.000000e+00	1.000000e+00	1.000000e+00	1.000000e+00	1.000000e+00	9.999975e-01	
48.0	1.000000e+00	1.000000e+00	1.000000e+00	1.000000e+00	1.000000e+00	1.000000e+00	1.000000e+00	1.000000e+00	1.000000e+00	9.999997e-01	
48.2	1.000000e+00	1.000000e+00	1.000000e+00	1.000000e+00	1.000000e+00	1.000000e+00	1.000000e+00	1.000000e+00	1.000000e+00	1.000000e+00	
48.5	1.000000e+00	1.000000e+00	1.000000e+00	1.000000e+00	1.000000e+00	1.000000e+00	1.000000e+00	1.000000e+00	1.000000e+00	1.000000e+00	
48.7	1.000000e+00	1.000000e+00	1.000000e+00	1.000000e+00	1.000000e+00	1.000000e+00	1.000000e+00	1.000000e+00	1.000000e+00	1.000000e+00	
49.0	1.000000e+00	1.000000e+00	1.000000e+00	1.000000e+00	1.000000e+00	1.000000e+00	1.000000e+00	1.000000e+00	1.000000e+00	1.000000e+00	
49.2	1.000000e+00	1.000000e+00	1.000000e+00	1.000000e+00	1.000000e+00	1.000000e+00	1.000000e+00	1.000000e+00	1.000000e+00	1.000000e+00	
49.5	1.000000e+00	1.000000e+00	1.000000e+00	1.000000e+00	1.000000e+00	1.000000e+00	1.000000e+00	1.000000e+00	1.000000e+00	1.000000e+00	
49.7	1.000000e+00	1.000000e+00	1.000000e+00	1.000000e+00	1.000000e+00	1.000000e+00	1.000000e+00	1.000000e+00	1.000000e+00	1.000000e+00	
50.0	1.000000e+00	1.000000e+00	1.000000e+00	1.000000e+00	1.000000e+00	1.000000e+00	1.000000e+00	1.000000e+00	1.000000e+00	1.000000e+00	
