-50.0	0.000000e+00	0.000000e+00	0.000000e+00	0.000000e+00	0.000000e+00	0.000000e+00	0.000000e+00	0.000000e+00	0.000000e+00	0.000000e+00	
-49.7	0.000000e+00	0.000000e+00	0.000000e+00	0.000000e+00	0.000000e+00	0.000000e+00	0.000000e+00	0.000000e+00	0.000000e+00	0.000000e+00	
-49.5	0.000000e+00	0.000000e+00	0.000000e+00	0.000000e+00	0.000000e+00	0.000000e+00	0.000000e+00	0.000000e+00	0.000000e+00	0.000000e+00	
-49.2	0.000000e+00	0.000000e+00	0.000000e+00	0.000000e+00	0.000000e+00	0.000000e+00	0.000000e+00	0.000000e+00	0.000000e+00	0.000000e+00	
-49.0	0.000000e+00	0.000000e+00	0.000000e+00	0.000000e+00	0.000000e+00	0.000000e+00	0.000000e+00	0.000000e+00	0.000000e+00	0.000000e+00	
-48.7	0.000000e+00	0.000000e+00	0.000000e+00	0.000000e+00	0.000000e+00	0.000000e+00	0.000000e+00	0.000000e+00	0.000000e+00	0.000000e+00	
-48.5	0.000000e+00	0.000000e+00	0.000000e+00	0.000000e+00	0.000000e+00	0.000000e+00	0.000000e+00	0.000000e+00	0.000000e+00	0.000000e+00	
-48.2	0.000000e+00	0.000000e+00	0.000000e+00	0.000000e+00	0.000000e+00	0.000000e+00	0.000000e+00	0.000000e+00	0.000000e+00	0.000000e+00	
-48.0	0.000000e+00	0.000000e+00	0.000000e+00	0.000000e+00	0.000000e+00	0.000000e+00	0.000000e+00	0.000000e+00	0.000000e+00	0.000000e+00	
-47.7	0.000000e+00	0.000000e+00	0.000000e+00	0.000000e+00	0.000000e+00	0.000000e+00	0.000000e+00	0.000000e+00	0.000000e+00	0.000000e+00	
-47.5	0.000000e+00	0.000000e+00	0.000000e+00	0.000000e+00	0.000000e+00	0.000000e+00	0.000000e+00	0.000000e+00	0.000000e+00	0.000000e+00	
-47.2	0.000000e+00	0.000000e+00	0.000000e+00	0.000000e+00	0.000000e+00	0.000000e+00	0.000000e+00	0.000000e+00	0.000000e+00	0.000000e+00	
-47.0	0.000000e+00	0.000000e+00	0.000000e+00	0.000000e+00	0.000000e+00	0.000000e+00	0.000000e+00	0.000000e+00	0.000000e+00	0.000000e+00	
-46.7	0.000000e+00	0.000000e+00	0.000000e+00	0.000000e+00	0.000000e+00	0.000000e+00	0.000000e+00	0.000000e+00	0.000000e+00	0.000000e+00	
-46.5	0.000000e+00	0.000000e+00	0.000000e+00	0.000000e+00	0.000000e+00	0.000000e+00	0.000000e+00	0.000000e+00	0.000000e+00	0.000000e+00	
-46.2	0.000000e+00	0.000000e+00	0.000000e+00	0.000000e+00	0.000000e+00	0.000000e+00	0.000000e+00	0.000000e+00	0.000000e+00	0.000000e+00	
-46.0	0.000000e+00	0.000000e+00	0.000000e+00	0.000000e+00	0.000000e+00	0.000000e+00	0.000000e+00	0.000000e+00	0.000000e+00	3.614064e-150	
-45.7	0.000000e+00	0.000000e+00	0.000000e+00	0.000000e+00	0.000000e+00	0.000000e+00	0.000000e+00	0.000000e+00	0.000000e+00	3.614064e-150	
-45.5	0.000000e+00	0.000000e+00	0.000000e+00	0.000000e+00	0.000000e+00	0.000000e+00	0.000000e+00	0.000000e+00	0.000000e+00	-1.361358e-147	
-45.2	0.000000e+00	0.000000e+00	0.000000e+00	0.000000e+00	0.000000e+00	0.000000e+00	0.000000e+00	0.000000e+00	0.000000e+00	-1.361358e-147	
-45.0	0.000000e+00	0.000000e+00	0.000000e+00	0.000000e+00	0.000000e+00	0.000000e+00	0.000000e+00	0.000000e+00	0.000000e+00	2.406321e-145	
-44.7	0.000000e+00	0.000000e+00	0.000000e+00	0.000000e+00	0.000000e+00	0.000000e+00	0.000000e+00	0.000000e+00	0.000000e+00	2.406321e-145	
-44.5	0.000000e+00	0.000000e+00	0.000000e+00	0.000000e+00	0.000000e+00	0.000000e+00	0.000000e+00	0.000000e+00	0.000000e+00	-2.631517e-143	
-44.2	0.000000e+00	0.000000e+00	0.000000e+00	0.000000e+00	0.000000e+00	0.000000e+00	0.000000e+00	0.000000e+00	0.000000e+00	-2.631517e-143	
-44.0	0.000000e+00	0.000000e+00	0.000000e+00	0.000000e+00	0.000000e+00	0.000000e+00	0.000000e+00	0.000000e+00	0.000000e+00	1.969890e-141	
-43.7	0.000000e+00	0.000000e+00	0.000000e+00	0.000000e+00	0.000000e+00	0.000000e+00	0.000000e+00	0.000000e+00	0.000000e+00	1.969890e-141	
-43.5	0.000000e+00	0.000000e+00	0.000000e+00	0.000000e+00	0.000000e+00	0.000000e+00	0.000000e+00	0.000000e+00	0.000000e+00	-1.047663e-139	
-43.2	0.000000e+00	0.000000e+00	0.000000e+00	0.000000e+00	0.000000e+00	0.000000e+00	0.000000e+00	0.000000e+00	0.000000e+00	-1.047663e-139	
-43.0	0.000000e+00	0.000000e+00	0.000000e+00	0.000000e+00	0.000000e+00	0.000000e+00	0.000000e+00	0.000000e+00	0.000000e+00	3.913076e-138	
-42.7	0.000000e+00	0.000000e+00	0.000000e+00	0.000000e+00	0.000000e+00	0.000000e+00	0.000000e+00	0.000000e+00	0.000000e+00	3.913076e-138	
-42.5	0.000000e+00	0.000000e+00	0.000000e+00	0.000000e+00	0.000000e+00	0.000000e+00	0.000000e+00	0.000000e+00	0.000000e+00	-9.227551e-137	
-42.2	0.000000e+00	0.000000e+00	0.000000e+00	0.000000e+00	0.000000e+00	0.000000e+00	0.000000e+00	0.000000e+00	0.000000e+00	-9.227551e-137	
-42.0	0.000000e+00	0.000000e+00	0.000000e+00	0.000000e+00	0.000000e+00	0.000000e+00	0.000000e+00	0.000000e+00	0.000000e+00	6.165377e-136	
-41.7	0.000000e+00	0.000000e+00	0.000000e+00	0.000000e+00	0.000000e+00	0.000000e+00	0.000000e+00	0.000000e+00	0.000000e+00	6.165377e-136	
-41.5	0.000000e+00	0.000000e+00	0.000000e+00	0.000000e+00	0.000000e+00	0.000000e+00	0.000000e+00	0.000000e+00	0.000000e+00	4.724061e-134	
-41.2	0.000000e+00	0.000000e+00	0.000000e+00	0.000000e+00	0.000000e+00	0.000000e+00	0.000000e+00	0.000000e+00	0.000000e+00	4.724061e-134	
-41.0	0.000000e+00	0.000000e+00	0.000000e+00	0.000000e+00	0.000000e+00	0.000000e+00	0.000000e+00	0.000000e+00	0.000000e+00	-2.027980e-132	
-40.7	0.000000e+00	0.000000e+00	0.000000e+00	0.000000e+00	0.000000e+00	0.000000e+00	0.000000e+00	0.000000e+00	0.000000e+00	-2.027980e-132	
-40.5	0.000000e+00	0.000000e+00	0.000000e+00	0.000000e+00	0.000000e+00	0.000000e+00	0.000000e+00	0.000000e+00	0.000000e+00	3.254906e-131	
-40.2	0.000000e+00	0.000000e+00	0.000000e+00	0.000000e+00	0.000000e+00	0.000000e+00	0.000000e+00	0.000000e+00	0.000000e+00	3.254906e-131	
-40.0	0.000000e+00	0.000000e+00	0.000000e+00	0.000000e+00	0.000000e+00	0.000000e+00	0.000000e+00	0.000000e+00	0.000000e+00	2.480373e-130	
-39.7	0.000000e+00	0.000000e+00	0.000000e+00	0.000000e+00	0.000000e+00	0.000000e+00	0.000000e+00	0.000000e+00	0.000000e+00	2.480373e-130	
-39.5	0.000000e+00	0.000000e+00	0.000000e+00	0.000000e+00	0.000000e+00	0.000000e+00	0.000000e+00	0.000000e+00	0.000000e+00	-2.314284e-128	
-39.2	0.000000e+00	0.000000e+00	0.000000e+00	0.000000e+00	0.000000e+00	0.000000e+00	0.000000e+00	0.000000e+00	0.000000e+00	-2.314284e-128	
-39.0	0.000000e+00	0.000000e+00	0.000000e+00	0.000000e+00	0.000000e+00	0.000000e+00	0.000000e+00	0.000000e+00	0.000000e+00	4.154570e-127	
-38.7	0.000000e+00	0.000000e+00	0.000000e+00	0.000000e+00	0.000000e+00	0.000000e+00	0.000000e+00	0.000000e+00	0.000000e+00	4.154570e-127	
-38.5	0.000000e+00	0.000000e+00	0.000000e+00	0.000000e+00	0.000000e+00	0.000000e+00	0.000000e+00	0.000000e+00	0.000000e+00	1.452968e-126	
-38.2	0.000000e+00	0.000000e+00	0.000000e+00	0.000000e+00	0.000000e+00	0.000000e+00	0.000000e+00	0.000000e+00	0.000000e+00	1.452968e-126	
-38.0	0.000000e+00	0.000000e+00	0.000000e+00	0.000000e+00	0.000000e+00	0.000000e+00	0.000000e+00	0.000000e+00	0.000000e+00	-2.008045e-124	
-37.7	0.000000e+00	0.000000e+00	0.000000e+00	0.000000e+00	0.000000e+00	0.000000e+00	0.000000e+00	0.000000e+00	0.000000e+00	-2.008045e-124	
-37.5	0.000000e+00	0.000000e+00	0.000000e+00	0.000000e+00	0.000000e+00	0.000000e+00	0.000000e+00	0.000000e+00	0.000000e+00	3.108925e-123	
-37.2	0.000000e+00	0.000000e+00	0.000000e+00	0.000000e+00	0.000000e+00	0.000000e+00	0.000000e+00	0.000000e+00	0.000000e+00	3.108925e-123	
-37.0	0.000000e+00	0.000000e+00	0.000000e+00	0.000000e+00	0.000000e+00	0.000000e+00	0.000000e+00	6.261073e-121	0.000000e+00	2.012309e-122	
-36.7	0.000000e+00	0.000000e+00	0.000000e+00	0.000000e+00	0.000000e+00	0.000000e+00	0.000000e+00	6.261073e-121	0.000000e+00	2.012309e-122	
-36.5	0.000000e+00	0.000000e+00	0.000000e+00	0.000000e+00	0.000000e+00	0.000000e+00	0.000000e+00	-1.895783e-118	0.000000e+00	-1.386549e-120	
-36.2	0.000000e+00	0.000000e+00	0.000000e+00	0.000000e+00	0.000000e+00	0.000000e+00	0.000000e+00	-1.895783e-118	0.000000e+00	-1.386549e-120	
-36.0	0.000000e+00	0.000000e+00	0.000000e+00	0.000000e+00	0.000000e+00	0.000000e+00	0.000000e+00	2.650389e-116	0.000000e+00	1.418333e-119	
-35.7	0.000000e+00	0.000000e+00	0.000000e+00	0.000000e+00	0.000000e+00	0.000000e+00	0.000000e+00	2.650389e-116	0.000000e+00	1.418333e-119	
-35.5	0.000000e+00	0.000000e+00	0.000000e+00	0.000000e+00	0.000000e+00	0.000000e+00	0.000000e+00	-2.239989e-114	0.000000e+00	2.261150e-118	
-35.2	0.000000e+00	0.000000e+00	0.000000e+00	0.000000e+00	0.000000e+00	0.000000e+00	0.000000e+00	-2.239989e-114	0.000000e+00	2.261150e-118	
-35.0	0.000000e+00	0.000000e+00	0.000000e+00	0.000000e+00	0.000000e+00	0.000000e+00	0.000000e+00	1.249141e-112	0.000000e+00	-7.108683e-117	
-34.7	0.000000e+00	0.000000e+00	0.000000e+00	0.000000e+00	0.000000e+00	0.000000e+00	0.000000e+00	1.249141e-112	0.000000e+00	-7.108683e-117	
-34.5	0.000000e+00	0.000000e+00	0.000000e+00	0.000000e+00	0.000000e+00	0.000000e+00	0.000000e+00	-4.619468e-111	0.000000e+00	2.595323e-116	
-34.2	0.000000e+00	0.000000e+00	0.000000e+00	0.000000e+00	0.000000e+00	0.000000e+00	0.000000e+00	-4.619468e-111	0.000000e+00	2.595323e-116	
-34.0	0.000000e+00	0.000000e+00	0.000000e+00	0.000000e+00	0.000000e+00	0.000000e+00	0.000000e+00	1.003388e-109	0.000000e+00	1.566782e-114	
-33.7	0.000000e+00	0.000000e+00	0.000000e+00	0.000000e+00	0.000000e+00	0.000000e+00	0.000000e+00	1.003388e-109	0.000000e+00	1.566782e-114	
-33.5	0.000000e+00	0.000000e+00	0.000000e+00	0.000000e+00	0.000000e+00	0.000000e+00	0.000000e+00	-3.051239e-109	0.000000e+00	-2.394308e-113	
-33.2	0.000000e+00	0.000000e+00	0.000000e+00	0.000000e+00	0.000000e+00	0.000000e+00	0.000000e+00	-3.051239e-109	0.000000e+00	-2.394308e-113	
-33.0	0.000000e+00	0.000000e+00	0.000000e+00	0.000000e+00	0.000000e+00	0.000000e+00	0.000000e+00	-5.902805e-107	0.000000e+00	-1.239058e-112	
-32.7	0.000000e+00	0.000000e+00	0.000000e+00	0.000000e+00	0.000000e+00	0.000000e+00	0.000000e+00	-5.902805e-107	0.000000e+00	-1.239058e-112	
-32.5	0.000000e+00	0.000000e+00	0.000000e+00	0.000000e+00	0.000000e+00	0.000000e+00	0.000000e+00	1.956596e-105	0.000000e+00	6.738476e-111	
-32.2	0.000000e+00	0.000000e+00	0.000000e+00	0.000000e+00	0.000000e+00	0.000000e+00	0.000000e+00	1.956596e-105	0.000000e+00	6.738476e-111	
-32.0	0.000000e+00	0.000000e+00	0.000000e+00	0.000000e+00	0.000000e+00	0.000000e+00	0.000000e+00	-1.976324e-104	0.000000e+00	-3.665965e-110	
-31.7	0.000000e+00	0.000000e+00	0.000000e+00	0.000000e+00	0.000000e+00	0.000000e+00	0.000000e+00	-1.976324e-104	0.000000e+00	-3.665965e-110	
-31.5	0.000000e+00	0.000000e+00	0.000000e+00	0.000000e+00	0.000000e+00	0.000000e+00	0.000000e+00	-4.944008e-103	0.000000e+00	-1.092507e-108	
-31.2	0.000000e+00	0.000000e+00	0.000000e+00	0.000000e+00	0.000000e+00	0.000000e+00	0.000000e+00	-4.944008e-103	0.000000e+00	-1.092507e-108	
-31.0	0.000000e+00	0.000000e+00	0.000000e+00	0.000000e+00	0.000000e+00	0.000000e+00	0.000000e+00	1.947742e-101	0.000000e+00	1.681186e-107	
-30.7	0.000000e+00	0.000000e+00	0.000000e+00	0.000000e+00	0.000000e+00	0.000000e+00	0.000000e+00	1.947742e-101	0.000000e+00	1.681186e-107	
-30.5	0.000000e+00	0.000000e+00	0.000000e+00	0.000000e+00	0.000000e+00	0.000000e+00	0.000000e+00	-1.764567e-100	0.000000e+00	7.571526e-107	
-30.2	0.000000e+00	0.000000e+00	0.000000e+00	0.000000e+00	0.000000e+00	0.000000e+00	0.000000e+00	-1.764567e-100	0.000000e+00	7.571526e-107	
-29.9	0.000000e+00	0.000000e+00	0.000000e+00	0.000000e+00	0.000000e+00	0.000000e+00	0.000000e+00	-4.238840e-99	0.000000e+00	-3.745946e-105	
-29.7	0.000000e+00	0.000000e+00	0.000000e+00	0.000000e+00	0.000000e+00	0.000000e+00	0.000000e+00	-4.238840e-99	0.000000e+00	-3.745946e-105	
-29.4	0.000000e+00	0.000000e+00	0.000000e+00	0.000000e+00	0.000000e+00	0.000000e+00	0.000000e+00	1.312482e-97	0.000000e+00	1.412762e-104	
-29.2	0.000000e+00	0.000000e+00	0.000000e+00	0.000000e+00	0.000000e+00	0.000000e+00	0.000000e+00	1.312482e-97	0.000000e+00	1.412762e-104	
-28.9	0.000000e+00	0.000000e+00	0.000000e+00	0.000000e+00	0.000000e+00	0.000000e+00	0.000000e+00	-5.927856e-97	0.000000e+00	5.531725e-103	
-28.7	0.000000e+00	0.000000e+00	0.000000e+00	0.000000e+00	0.000000e+00	0.000000e+00	0.000000e+00	-5.927856e-97	0.000000e+00	5.531725e-103	
-28.4	0.000000e+00	0.000000e+00	0.000000e+00	0.000000e+00	0.000000e+00	0.000000e+00	0.000000e+00	-3.179476e-95	0.000000e+00	-6.121551e-102	
-28.2	0.000000e+00	0.000000e+00	0.000000e+00	0.000000e+00	0.000000e+00	0.000000e+00	0.000000e+00	-3.179476e-95	0.000000e+00	-6.121551e-102	
-27.9	0.000000e+00	0.000000e+00	0.000000e+00	0.000000e+00	0.000000e+00	1.084680e-91	0.000000e+00	5.809209e-94	0.000000e+00	-5.033800e-101	
-27.7	0.000000e+00	0.000000e+00	0.000000e+00	0.000000e+00	0.000000e+00	1.084680e-91	0.000000e+00	5.809209e-94	0.000000e+00	-5.033800e-101	
-27.4	0.000000e+00	0.000000e+00	0.000000e+00	0.000000e+00	0.000000e+00	-2.482771e-89	0.000000e+00	1.557990e-93	0.000000e+00	1.272774e-99	
-27.2	0.000000e+00	0.000000e+00	0.000000e+00	0.000000e+00	0.000000e+00	-2.482771e-89	0.000000e+00	1.557990e-93	0.000000e+00	1.272774e-99	
-26.9	0.000000e+00	0.000000e+00	0.000000e+00	0.000000e+00	0.000000e+00	2.553415e-87	0.000000e+00	-1.648089e-91	0.000000e+00	1.278900e-100	
-26.7	0.000000e+00	0.000000e+00	0.000000e+00	0.000000e+00	0.000000e+00	2.553415e-87	0.000000e+00	-1.648089e-91	0.000000e+00	1.278900e-100	
-26.4	0.000000e+00	0.000000e+00	0.000000e+00	0.000000e+00	0.000000e+00	-1.519789e-85	0.000000e+00	1.357324e-90	0.000000e+00	-1.878779e-97	
-26.2	0.000000e+00	0.000000e+00	0.000000e+00	0.000000e+00	0.000000e+00	-1.519789e-85	0.000000e+00	1.357324e-90	0.000000e+00	-1.878779e-97	
-25.9	0.000000e+00	0.000000e+00	0.000000e+00	0.000000e+00	0.000000e+00	5.488352e-84	0.000000e+00	2.405682e-89	0.000000e+00	9.977601e-97	
-25.7	0.000000e+00	0.000000e+00	0.000000e+00	0.000000e+00	0.000000e+00	5.488352e-84	0.000000e+00	2.405682e-89	0.000000e+00	9.977601e-97	
-25.4	0.000000e+00	0.000000e+00	0.000000e+00	0.000000e+00	0.000000e+00	-1.039293e-82	0.000000e+00	-5.144423e-88	0.000000e+00	2.075773e-95	
-25.2	0.000000e+00	0.000000e+00	0.000000e+00	0.000000e+00	0.000000e+00	-1.039293e-82	0.000000e+00	-5.144423e-88	0.000000e+00	2.075773e-95	
-24.9	0.000000e+00	0.000000e+00	0.000000e+00	0.000000e+00	0.000000e+00	-2.456771e-82	0.000000e+00	-4.648621e-88	0.000000e+00	-2.362946e-94	
-24.7	0.000000e+00	0.000000e+00	0.000000e+00	0.000000e+00	0.000000e+00	-2.456771e-82	0.000000e+00	-4.648621e-88	0.000000e+00	-2.362946e-94	
-24.4	0.000000e+00	0.000000e+00	0.000000e+00	0.000000e+00	0.000000e+00	6.914479e-80	0.000000e+00	1.041441e-85	0.000000e+00	-1.572277e-93	
-24.2	0.000000e+00	0.000000e+00	0.000000e+00	0.000000e+00	0.000000e+00	6.914479e-80	0.000000e+00	1.041441e-85	0.000000e+00	-1.572277e-93	
-23.9	0.000000e+00	0.000000e+00	0.000000e+00	0.000000e+00	0.000000e+00	-1.602402e-78	0.000000e+00	-7.144198e-85	0.000000e+00	3.689174e-92	
-23.7	0.000000e+00	0.000000e+00	0.000000e+00	0.000000e+00	0.000000e+00	-1.602402e-78	0.000000e+00	-7.144198e-85	0.000000e+00	3.689174e-92	
-23.4	0.000000e+00	0.000000e+00	0.000000e+00	0.000000e+00	0.000000e+00	3.420322e-78	0.000000e+00	-1.332742e-83	0.000000e+00	3.173072e-92	
-23.2	0.000000e+00	0.000000e+00	0.000000e+00	0.000000e+00	0.000000e+00	3.420322e-78	0.000000e+00	-1.332742e-83	0.000000e+00	3.173072e-92	
-22.9	0.000000e+00	0.000000e+00	0.000000e+00	0.000000e+00	0.000000e+00	5.845440e-76	0.000000e+00	2.126972e-82	0.000000e+00	-4.512511e-90	
-22.7	0.000000e+00	0.000000e+00	0.000000e+00	0.000000e+00	0.000000e+00	5.845440e-76	0.000000e+00	2.126972e-82	0.000000e+00	-4.512511e-90	
-22.4	0.000000e+00	0.000000e+00	0.000000e+00	0.000000e+00	0.000000e+00	-1.122621e-74	0.000000e+00	7.934831e-82	0.000000e+00	1.434116e-89	
-22.2	0.000000e+00	0.000000e+00	0.000000e+00	0.000000e+00	0.000000e+00	-1.122621e-74	0.000000e+00	7.934831e-82	0.000000e+00	1.434116e-89	
-21.9	0.000000e+00	0.000000e+00	0.000000e+00	0.000000e+00	0.000000e+00	-2.206156e-74	0.000000e+00	-3.804568e-80	0.000000e+00	4.513448e-88	
-21.7	0.000000e+00	0.000000e+00	0.000000e+00	0.000000e+00	0.000000e+00	-2.206156e-74	0.000000e+00	-3.804568e-80	0.000000e+00	4.513448e-88	
-21.4	0.000000e+00	0.000000e+00	0.000000e+00	0.000000e+00	0.000000e+00	3.707448e-72	0.000000e+00	1.013064e-79	0.000000e+00	-3.215594e-87	
-21.2	0.000000e+00	0.000000e+00	0.000000e+00	0.000000e+00	0.000000e+00	3.707448e-72	0.000000e+00	1.013064e-79	0.000000e+00	-3.215594e-87	
-20.9	0.000000e+00	0.000000e+00	0.000000e+00	0.000000e+00	0.000000e+00	-4.029926e-71	0.000000e+00	4.918600e-78	0.000000e+00	-3.663058e-86	
-20.7	0.000000e+00	0.000000e+00	0.000000e+00	0.000000e+00	0.000000e+00	-4.029926e-71	0.000000e+00	4.918600e-78	0.000000e+00	-3.663058e-86	
-20.4	0.000000e+00	0.000000e+00	0.000000e+00	0.000000e+00	0.000000e+00	-4.945102e-70	0.000000e+00	-3.952132e-77	0.000000e+00	4.549276e-85	
-20.2	0.000000e+00	0.000000e+00	0.000000e+00	0.000000e+00	0.000000e+00	-4.945102e-70	0.000000e+00	-3.952132e-77	0.000000e+00	4.549276e-85	
-19.9	0.000000e+00	0.000000e+00	0.000000e+00	0.000000e+00	0.000000e+00	1.479663e-68	0.000000e+00	-4.605601e-76	0.000000e+00	2.222320e-84	
-19.7	0.000000e+00	0.000000e+00	0.000000e+00	0.000000e+00	0.000000e+00	1.479663e-68	0.000000e+00	-4.605601e-76	0.000000e+00	2.222320e-84	
-19.4	0.000000e+00	0.000000e+00	0.000000e+00	0.000000e+00	0.000000e+00	-3.182328e-68	0.000000e+00	7.209965e-75	0.000000e+00	-5.136536e-83	
-19.2	0.000000e+00	0.000000e+00	0.000000e+00	0.000000e+00	0.000000e+00	-3.182328e-68	0.000000e+00	7.209965e-75	0.000000e+00	-5.136536e-83	
-18.9	0.000000e+00	0.000000e+00	0.000000e+00	0.000000e+00	0.000000e+00	-2.797973e-66	0.000000e+00	2.509899e-74	0.000000e+00	-6.098827e-83	
-18.7	0.000000e+00	0.000000e+00	0.000000e+00	0.000000e+00	0.000000e+00	-2.797973e-66	0.000000e+00	2.509899e-74	0.000000e+00	-6.098827e-83	
-18.4	0.000000e+00	0.000000e+00	0.000000e+00	-7.912694e-61	0.000000e+00	2.900516e-65	0.000000e+00	-9.640222e-73	0.000000e+00	4.944526e-81	
-18.2	0.000000e+00	0.000000e+00	0.000000e+00	-7.912694e-61	0.000000e+00	2.900516e-65	0.000000e+00	-9.640222e-73	0.000000e+00	4.944526e-81	
-17.9	0.000000e+00	0.000000e+00	0.000000e+00	1.193981e-58	0.000000e+00	2.945465e-64	0.000000e+00	9.332479e-73	0.000000e+00	-7.761143e-81	
-17.7	0.000000e+00	0.000000e+00	0.000000e+00	1.193981e-58	0.000000e+00	2.945465e-64	0.000000e+00	9.332479e-73	0.000000e+00	-7.761143e-81	
-17.4	0.000000e+00	0.000000e+00	0.000000e+00	-7.620050e-57	0.000000e+00	-7.067532e-63	0.000000e+00	1.035452e-70	0.000000e+00	-4.166571e-79	
-17.2	0.000000e+00	0.000000e+00	0.000000e+00	-7.620050e-57	0.000000e+00	-7.067532e-63	0.000000e+00	1.035452e-70	0.000000e+00	-4.166571e-79	
-16.9	0.000000e+00	0.000000e+00	0.000000e+00	2.489888e-55	0.000000e+00	-2.296133e-63	0.000000e+00	-4.685459e-70	0.000000e+00	1.689959e-78	
-16.7	0.000000e+00	0.000000e+00	0.000000e+00	2.489888e-55	0.000000e+00	-2.296133e-63	0.000000e+00	-4.685459e-70	0.000000e+00	1.689959e-78	
-16.4	0.000000e+00	0.000000e+00	0.000000e+00	-3.271747e-54	0.000000e+00	1.104843e-60	0.000000e+00	-9.160928e-69	0.000000e+00	3.103557e-77	
-16.2	0.000000e+00	0.000000e+00	0.000000e+00	-3.271747e-54	0.000000e+00	1.104843e-60	0.000000e+00	-9.160928e-69	0.000000e+00	3.103557e-77	
-15.9	0.000000e+00	0.000000e+00	0.000000e+00	-5.000029e-53	0.000000e+00	-5.842527e-60	0.000000e+00	7.625416e-68	0.000000e+00	-2.077697e-76	
-15.7	0.000000e+00	0.000000e+00	0.000000e+00	-5.000029e-53	0.000000e+00	-5.842527e-60	0.000000e+00	7.625416e-68	0.000000e+00	-2.077697e-76	
-15.4	0.000000e+00	0.000000e+00	0.000000e+00	2.575174e-51	0.000000e+00	-1.230639e-58	0.000000e+00	6.589401e-67	0.000000e+00	-2.038922e-75	
-15.2	0.000000e+00	0.000000e+00	0.000000e+00	2.575174e-51	0.000000e+00	-1.230639e-58	0.000000e+00	6.589401e-67	0.000000e+00	-2.038922e-75	
-14.9	0.000000e+00	0.000000e+00	0.000000e+00	-2.718630e-50	0.000000e+00	1.367831e-57	0.000000e+00	-9.052185e-66	0.000000e+00	2.034811e-74	
-14.7	0.000000e+00	0.000000e+00	0.000000e+00	-2.718630e-50	0.000000e+00	1.367831e-57	0.000000e+00	-9.052185e-66	0.000000e+00	2.034811e-74	
-14.4	0.000000e+00	0.000000e+00	0.000000e+00	-4.393346e-49	0.000000e+00	9.299313e-57	0.000000e+00	-3.550324e-65	0.000000e+00	1.160248e-73	
-14.2	0.000000e+00	0.000000e+00	0.000000e+00	-4.393346e-49	0.000000e+00	9.299313e-57	0.000000e+00	-3.550324e-65	0.000000e+00	1.160248e-73	
-13.9	0.000000e+00	0.000000e+00	0.000000e+00	1.365405e-47	0.000000e+00	-2.030271e-55	0.000000e+00	8.892934e-64	0.000000e+00	-1.726426e-72	
-13.7	0.000000e+00	0.000000e+00	0.000000e+00	1.365405e-47	0.000000e+00	-2.030271e-55	0.000000e+00	8.892934e-64	0.000000e+00	-1.726426e-72	
-13.4	0.000000e+00	0.000000e+00	0.000000e+00	-4.224953e-47	0.000000e+00	-2.681557e-55	0.000000e+00	8.884417e-64	0.000000e+00	-5.414908e-72	
-13.2	0.000000e+00	0.000000e+00	0.000000e+00	-4.224953e-47	0.000000e+00	-2.681557e-55	0.000000e+00	8.884417e-64	0.000000e+00	-5.414908e-72	
-12.9	0.000000e+00	0.000000e+00	0.000000e+00	-2.727088e-45	0.000000e+00	2.316044e-53	0.000000e+00	-7.575846e-62	0.000000e+00	1.314369e-70	
-12.7	0.000000e+00	0.000000e+00	0.000000e+00	-2.727088e-45	0.000000e+00	2.316044e-53	0.000000e+00	-7.575846e-62	0.000000e+00	1.314369e-70	
-12.4	0.000000e+00	0.000000e+00	0.000000e+00	3.278270e-44	0.000000e+00	-5.070568e-53	0.000000e+00	9.126982e-62	0.000000e+00	1.689378e-70	
-12.2	0.000000e+00	0.000000e+00	0.000000e+00	3.278270e-44	0.000000e+00	-5.070568e-53	0.000000e+00	9.126982e-62	0.000000e+00	1.689378e-70	
-11.9	0.000000e+00	0.000000e+00	0.000000e+00	2.599194e-43	0.000000e+00	-2.155389e-51	0.000000e+00	5.727377e-60	0.000000e+00	-9.150078e-69	
-11.7	0.000000e+00	0.000000e+00	0.000000e+00	2.599194e-43	0.000000e+00	-2.155389e-51	0.000000e+00	5.727377e-60	0.000000e+00	-9.150078e-69	
-11.4	0.000000e+00	0.000000e+00	0.000000e+00	-7.472128e-42	0.000000e+00	1.120002e-50	0.000000e+00	-1.780700e-59	0.000000e+00	1.676523e-69	
-11.2	0.000000e+00	0.000000e+00	0.000000e+00	-7.472128e-42	0.000000e+00	1.120002e-50	0.000000e+00	-1.780700e-59	0.000000e+00	1.676523e-69	
-10.9	0.000000e+00	0.000000e+00	0.000000e+00	5.172108e-42	0.000000e+00	1.672626e-49	0.000000e+00	-3.893618e-58	0.000000e+00	5.893974e-67	
-10.7	0.000000e+00	0.000000e+00	0.000000e+00	5.172108e-42	0.000000e+00	1.672626e-49	0.000000e+00	-3.893618e-58	0.000000e+00	5.893974e-67	
-10.4	0.000000e+00	0.000000e+00	0.000000e+00	1.064704e-39	0.000000e+00	-1.411204e-48	0.000000e+00	1.923754e-57	0.000000e+00	-8.421757e-67	
-10.2	0.000000e+00	0.000000e+00	0.000000e+00	1.064704e-39	0.000000e+00	-1.411204e-48	0.000000e+00	1.923754e-57	0.000000e+00	-8.421757e-67	
-9.9	0.000000e+00	0.000000e+00	0.000000e+00	-6.019968e-39	0.000000e+00	-1.081958e-47	0.000000e+00	2.399416e-56	0.000000e+00	-3.542283e-65	
-9.6	0.000000e+00	0.000000e+00	0.000000e+00	-6.019968e-39	0.000000e+00	-1.081958e-47	0.000000e+00	2.399416e-56	0.000000e+00	-3.542283e-65	
-9.4	0.000000e+00	-1.370810e-31	0.000000e+00	-1.068629e-37	0.000000e+00	1.381805e-46	0.000000e+00	-1.647857e-55	0.000000e+00	8.990200e-65	
-9.1	0.000000e+00	-1.370810e-31	0.000000e+00	-1.068629e-37	0.000000e+00	1.381805e-46	0.000000e+00	-1.647857e-55	0.000000e+00	8.990200e-65	
-8.9	0.000000e+00	1.055522e-29	0.000000e+00	1.136098e-36	0.000000e+00	5.662529e-46	0.000000e+00	-1.346786e-54	0.000000e+00	1.999165e-63	
-8.6	0.000000e+00	1.055522e-29	0.000000e+00	1.136098e-36	0.000000e+00	5.662529e-46	0.000000e+00	-1.346786e-54	0.000000e+00	1.999165e-63	
-8.4	0.000000e+00	-2.829107e-28	0.000000e+00	7.556655e-36	0.000000e+00	-1.142076e-44	0.000000e+00	1.219891e-53	0.000000e+00	-7.116306e-63	
-8.1	0.000000e+00	-2.829107e-28	0.000000e+00	7.556655e-36	0.000000e+00	-1.142076e-44	0.000000e+00	1.219891e-53	0.000000e+00	-7.116306e-63	
-7.9	0.000000e+00	1.400598e-27	0.000000e+00	-1.407509e-34	0.000000e+00	-2.139461e-44	0.000000e+00	6.902689e-53	0.000000e+00	-1.065276e-61	
-7.6	0.000000e+00	1.400598e-27	0.000000e+00	-1.407509e-34	0.000000e+00	-2.139461e-44	0.000000e+00	6.902689e-53	0.000000e+00	-1.065276e-61	
-7.4	0.000000e+00	7.677075e-26	0.000000e+00	-3.126313e-34	0.000000e+00	8.270194e-43	0.000000e+00	-8.091148e-52	0.000000e+00	4.815609e-61	
-7.1	0.000000e+00	7.677075e-26	0.000000e+00	-3.126313e-34	0.000000e+00	8.270194e-43	0.000000e+00	-8.091148e-52	0.000000e+00	4.815609e-61	
-6.9	0.000000e+00	-1.311106e-24	0.000000e+00	1.347699e-32	0.000000e+00	2.499850e-43	0.000000e+00	-3.232578e-51	0.000000e+00	5.385934e-60	
-6.6	0.000000e+00	-1.311106e-24	0.000000e+00	1.347699e-32	0.000000e+00	2.499850e-43	0.000000e+00	-3.232578e-51	0.000000e+00	5.385934e-60	
-6.4	0.000000e+00	-4.674920e-24	0.000000e+00	-5.020363e-33	0.000000e+00	-5.361720e-41	0.000000e+00	4.902262e-50	0.000000e+00	-2.924911e-59	
-6.1	0.000000e+00	-4.674920e-24	0.000000e+00	-5.020363e-33	0.000000e+00	-5.361720e-41	0.000000e+00	4.902262e-50	0.000000e+00	-2.924911e-59	
-5.9	0.000000e+00	2.761631e-22	0.000000e+00	-1.062727e-30	0.000000e+00	4.752450e-41	0.000000e+00	1.382040e-49	0.000000e+00	-2.595984e-58	
-5.6	0.000000e+00	2.761631e-22	0.000000e+00	-1.062727e-30	0.000000e+00	4.752450e-41	0.000000e+00	1.382040e-49	0.000000e+00	-2.595984e-58	
-5.4	0.000000e+00	-9.284059e-22	0.000000e+00	2.328761e-30	0.000000e+00	3.158326e-39	0.000000e+00	-2.746081e-48	0.000000e+00	1.631636e-57	
-5.1	0.000000e+00	-9.284059e-22	0.000000e+00	2.328761e-30	0.000000e+00	3.158326e-39	0.000000e+00	-2.746081e-48	0.000000e+00	1.631636e-57	
-4.9	0.000000e+00	-3.261348e-20	0.000000e+00	7.152477e-29	0.000000e+00	-5.727042e-39	0.000000e+00	-5.385003e-48	0.000000e+00	1.198493e-56	
-4.6	0.000000e+00	-3.261348e-20	0.000000e+00	7.152477e-29	0.000000e+00	-5.727042e-39	0.000000e+00	-5.385003e-48	0.000000e+00	1.198493e-56	
-4.4	0.000000e+00	2.384081e-19	0.000000e+00	-2.566917e-28	0.000000e+00	-1.709277e-37	0.000000e+00	1.433924e-46	0.000000e+00	-8.467465e-56	
-4.1	0.000000e+00	2.384081e-19	0.000000e+00	-2.566917e-28	0.000000e+00	-1.709277e-37	0.000000e+00	1.433924e-46	0.000000e+00	-8.467465e-56	
-3.9	0.000000e+00	2.586160e-18	0.000000e+00	-4.212557e-27	0.000000e+00	4.327504e-37	0.000000e+00	1.911031e-46	0.000000e+00	-5.325022e-55	
-3.6	0.000000e+00	2.586160e-18	0.000000e+00	-4.212557e-27	0.000000e+00	4.327504e-37	0.000000e+00	1.911031e-46	0.000000e+00	-5.325022e-55	
-3.4	0.000000e+00	-2.850426e-17	0.000000e+00	1.974704e-26	0.000000e+00	8.575450e-36	0.000000e+00	-7.020825e-45	0.000000e+00	4.120218e-54	
-3.1	0.000000e+00	-2.850426e-17	0.000000e+00	1.974704e-26	0.000000e+00	8.575450e-36	0.000000e+00	-7.020825e-45	0.000000e+00	4.120218e-54	
-2.9	0.000000e+00	-1.499619e-16	0.000000e+00	2.215082e-25	0.000000e+00	-2.624255e-35	0.000000e+00	-6.217058e-45	0.000000e+00	2.287566e-53	
-2.6	0.000000e+00	-1.499619e-16	0.000000e+00	2.215082e-25	0.000000e+00	-2.624255e-35	0.000000e+00	-6.217058e-45	0.000000e+00	2.287566e-53	
-2.4	0.000000e+00	2.315751e-15	0.000000e+00	-1.218734e-24	0.000000e+00	-4.017455e-34	0.000000e+00	3.237042e-43	0.000000e+00	-1.889360e-52	
-2.1	0.000000e+00	2.315751e-15	0.000000e+00	-1.218734e-24	0.000000e+00	-4.017455e-34	0.000000e+00	3.237042e-43	0.000000e+00	-1.889360e-52	
-1.9	0.000000e+00	6.837027e-15	0.000000e+00	-1.057688e-23	0.000000e+00	1.365650e-33	0.000000e+00	1.911326e-43	0.000000e+00	-9.541806e-52	
-1.6	0.000000e+00	6.837027e-15	0.000000e+00	-1.057688e-23	0.000000e+00	1.365650e-33	0.000000e+00	1.911326e-43	0.000000e+00	-9.541806e-52	
-1.4	0.000000e+00	-1.420594e-13	0.000000e+00	6.333438e-23	0.000000e+00	1.767457e-32	0.000000e+00	-1.409612e-41	0.000000e+00	8.190943e-51	
-1.1	0.000000e+00	-1.420594e-13	0.000000e+00	6.333438e-23	0.000000e+00	1.767457e-32	0.000000e+00	-1.409612e-41	0.000000e+00	8.190943e-51	
-0.9	0.000000e+00	-2.727739e-13	0.000000e+00	4.648954e-22	0.000000e+00	-6.263849e-32	0.000000e+00	-6.050636e-42	0.000000e+00	3.877632e-50	
-0.6	0.000000e+00	-2.727739e-13	0.000000e+00	4.648954e-22	0.000000e+00	-6.263849e-32	0.000000e+00	-6.050636e-42	0.000000e+00	3.877632e-50	
-0.4	0.000000e+00	6.884833e-12	0.000000e+00	-2.829775e-21	0.000000e+00	-7.330118e-31	0.000000e+00	5.808276e-40	0.000000e+00	-3.363513e-49	
-0.1	0.000000e+00	6.884833e-12	0.000000e+00	-2.829775e-21	0.000000e+00	-7.330118e-31	0.000000e+00	5.808276e-40	0.000000e+00	-3.363513e-49	
0.1	0.000000e+00	1.097327e-11	0.000000e+00	-1.897300e-20	0.000000e+00	2.560475e-30	0.000000e+00	2.259888e-40	0.000000e+00	-1.538474e-48	
0.4	0.000000e+00	1.097327e-11	0.000000e+00	-1.897300e-20	0.000000e+00	2.560475e-30	0.000000e+00	2.259888e-40	0.000000e+00	-1.538474e-48	
0.6	0.000000e+00	-2.681965e-10	0.000000e+00	1.095298e-19	0.000000e+00	2.870720e-29	0.000000e+00	-2.266416e-38	0.000000e+00	1.309271e-47	
0.9	0.000000e+00	-2.681965e-10	0.000000e+00	1.095298e-19	0.000000e+00	2.870720e-29	0.000000e+00	-2.266416e-38	0.000000e+00	1.309271e-47	
1.1	0.000000e+00	-4.670463e-10	0.000000e+00	7.204053e-19	0.000000e+00	-9.346921e-29	0.000000e+00	-1.042495e-38	0.000000e+00	5.962078e-47	
1.4	0.000000e+00	-4.670463e-10	0.000000e+00	7.204053e-19	0.000000e+00	-9.346921e-29	0.000000e+00	-1.042495e-38	0.000000e+00	5.962078e-47	
1.6	0.000000e+00	8.367534e-09	0.000000e+00	-3.665026e-18	0.000000e+00	-1.061139e-27	0.000000e+00	8.372911e-37	0.000000e+00	-4.829936e-46	
1.9	0.000000e+00	8.367534e-09	0.000000e+00	-3.665026e-18	0.000000e+00	-1.061139e-27	0.000000e+00	8.372911e-37	0.000000e+00	-4.829936e-46	
2.1	0.000000e+00	1.883070e-08	0.000000e+00	-2.532171e-17	0.000000e+00	3.028982e-27	0.000000e+00	5.304928e-37	0.000000e+00	-2.253929e-45	
2.4	0.000000e+00	1.883070e-08	0.000000e+00	-2.532171e-17	0.000000e+00	3.028982e-27	0.000000e+00	5.304928e-37	0.000000e+00	-2.253929e-45	
2.6	0.000000e+00	-2.037284e-07	0.000000e+00	1.046768e-16	0.000000e+00	3.692246e-26	0.000000e+00	-2.924872e-35	0.000000e+00	1.686453e-44	
2.9	0.000000e+00	-2.037284e-07	0.000000e+00	1.046768e-16	0.000000e+00	3.692246e-26	0.000000e+00	-2.924872e-35	0.000000e+00	1.686453e-44	
3.1	0.000000e+00	-6.313192e-07	0.000000e+00	8.149756e-16	0.000000e+00	-8.565407e-26	0.000000e+00	-2.641907e-35	0.000000e+00	8.289292e-44	
3.4	0.000000e+00	-6.313192e-07	0.000000e+00	8.149756e-16	0.000000e+00	-8.565407e-26	0.000000e+00	-2.641907e-35	0.000000e+00	8.289292e-44	
3.6	0.000000e+00	3.637724e-06	0.000000e+00	-2.474931e-15	0.000000e+00	-1.203733e-24	0.000000e+00	9.638550e-34	0.000000e+00	-5.559748e-43	
3.9	0.000000e+00	3.637724e-06	0.000000e+00	-2.474931e-15	0.000000e+00	-1.203733e-24	0.000000e+00	9.638550e-34	0.000000e+00	-5.559748e-43	
4.1	0.000000e+00	1.621125e-05	0.000000e+00	-2.366079e-14	0.000000e+00	2.029299e-24	0.000000e+00	1.219372e-33	0.000000e+00	-2.954341e-42	
4.4	0.000000e+00	1.621125e-05	0.000000e+00	-2.366079e-14	0.000000e+00	2.029299e-24	0.000000e+00	1.219372e-33	0.000000e+00	-2.954341e-42	
4.6	0.000000e+00	-4.040082e-05	0.000000e+00	4.489839e-14	0.000000e+00	3.653707e-23	0.000000e+00	-2.985784e-32	0.000000e+00	1.723630e-41	
4.9	0.000000e+00	-4.040082e-05	0.000000e+00	4.489839e-14	0.000000e+00	3.653707e-23	0.000000e+00	-2.985784e-32	0.000000e+00	1.723630e-41	
5.1	0.000000e+00	-2.985439e-04	0.000000e+00	6.086487e-13	0.000000e+00	-3.585337e-23	0.000000e+00	-5.135754e-32	0.000000e+00	1.015862e-40	
5.4	0.000000e+00	-2.985439e-04	0.000000e+00	6.086487e-13	0.000000e+00	-3.585337e-23	0.000000e+00	-5.135754e-32	0.000000e+00	1.015862e-40	
5.6	0.000000e+00	8.422622e-05	0.000000e+00	-4.690480e-13	0.000000e+00	-1.024358e-21	0.000000e+00	8.651677e-31	0.000000e+00	-4.993822e-40	
5.9	0.000000e+00	8.422622e-05	0.000000e+00	-4.690480e-13	0.000000e+00	-1.024358e-21	0.000000e+00	8.651677e-31	0.000000e+00	-4.993822e-40	
6.1	0.000000e+00	3.564897e-03	0.000000e+00	-1.357812e-11	0.000000e+00	2.291793e-22	0.000000e+00	1.970470e-30	0.000000e+00	-3.354302e-39	
6.4	0.000000e+00	3.564897e-03	0.000000e+00	-1.357812e-11	0.000000e+00	2.291793e-22	0.000000e+00	1.970470e-30	0.000000e+00	-3.354302e-39	
6.6	0.000000e+00	5.190968e-03	0.000000e+00	-4.636484e-12	0.000000e+00	2.626863e-20	0.000000e+00	-2.328974e-29	0.000000e+00	1.338831e-38	
6.9	0.000000e+00	5.190968e-03	0.000000e+00	-4.636484e-12	0.000000e+00	2.626863e-20	0.000000e+00	-2.328974e-29	0.000000e+00	1.338831e-38	
7.1	0.000000e+00	-2.097634e-02	0.000000e+00	2.553558e-10	0.000000e+00	1.538910e-20	0.000000e+00	-6.898220e-29	0.000000e+00	1.058563e-37	
7.4	0.000000e+00	-2.097634e-02	0.000000e+00	2.553558e-10	0.000000e+00	1.538910e-20	0.000000e+00	-6.898220e-29	0.000000e+00	1.058563e-37	
7.6	0.000000e+00	-7.640164e-02	0.000000e+00	3.817523e-10	0.000000e+00	-6.085131e-19	0.000000e+00	5.767809e-28	0.000000e+00	-3.266090e-37	
7.9	0.000000e+00	-7.640164e-02	0.000000e+00	3.817523e-10	0.000000e+00	-6.085131e-19	0.000000e+00	5.767809e-28	0.000000e+00	-3.266090e-37	
8.1	0.000000e+00	-2.811527e-02	0.000000e+00	-3.872004e-09	0.000000e+00	-8.945828e-19	0.000000e+00	2.206720e-27	0.000000e+00	-3.177922e-36	
8.4	0.000000e+00	-2.811527e-02	0.000000e+00	-3.872004e-09	0.000000e+00	-8.945828e-19	0.000000e+00	2.206720e-27	0.000000e+00	-3.177922e-36	
8.6	0.000000e+00	3.001822e-01	0.000000e+00	-1.105462e-08	0.000000e+00	1.251517e-17	0.000000e+00	-1.294672e-26	0.000000e+00	7.019466e-36	
8.9	0.000000e+00	3.001822e-01	0.000000e+00	-1.105462e-08	0.000000e+00	1.251517e-17	0.000000e+00	-1.294672e-26	0.000000e+00	7.019466e-36	
9.1	1.000000e+00	7.667142e-01	0.000000e+00	4.317893e-08	0.000000e+00	3.119305e-17	0.000000e+00	-6.452037e-26	0.000000e+00	9.032546e-35	
9.4	1.000000e+00	7.667142e-01	0.000000e+00	4.317893e-08	0.000000e+00	3.119305e-17	0.000000e+00	-6.452037e-26	0.000000e+00	9.032546e-35	
9.6	1.000000e+00	1.000000e+00	0.000000e+00	2.147944e-07	0.000000e+00	-2.223767e-16	0.000000e+00	2.567471e-25	0.000000e+00	-1.229535e-34	
9.9	1.000000e+00	1.000000e+00	0.000000e+00	2.147944e-07	0.000000e+00	-2.223767e-16	0.000000e+00	2.567471e-25	0.000000e+00	-1.229535e-34	
10.2	1.000000e+00	1.000000e+00	0.000000e+00	-2.554583e-07	0.000000e+00	-8.468676e-16	0.000000e+00	1.721694e-24	0.000000e+00	-2.418282e-33	
10.4	1.000000e+00	1.000000e+00	0.000000e+00	-2.554583e-07	0.000000e+00	-8.468676e-16	0.000000e+00	1.721694e-24	0.000000e+00	-2.418282e-33	
10.7	1.000000e+00	1.000000e+00	0.000000e+00	-2.998462e-06	0.000000e+00	3.239594e-15	0.000000e+00	-4.266687e-24	0.000000e+00	1.287891e-33	
10.9	1.000000e+00	1.000000e+00	0.000000e+00	-2.998462e-06	0.000000e+00	3.239594e-15	0.000000e+00	-4.266687e-24	0.000000e+00	1.287891e-33	
11.2	1.000000e+00	1.000000e+00	0.000000e+00	-1.721713e-06	0.000000e+00	1.899797e-14	0.000000e+00	-4.178433e-23	0.000000e+00	6.063285e-32	
11.4	1.000000e+00	1.000000e+00	0.000000e+00	-1.721713e-06	0.000000e+00	1.899797e-14	0.000000e+00	-4.178433e-23	0.000000e+00	6.063285e-32	
11.7	1.000000e+00	1.000000e+00	0.000000e+00	2.872972e-05	0.000000e+00	-3.360020e-14	0.000000e+00	5.090206e-23	0.000000e+00	1.799401e-32	
11.9	1.000000e+00	1.000000e+00	0.000000e+00	2.872972e-05	0.000000e+00	-3.360020e-14	0.000000e+00	5.090206e-23	0.000000e+00	1.799401e-32	
12.2	1.000000e+00	1.000000e+00	0.000000e+00	6.361973e-05	0.000000e+00	-3.568964e-13	0.000000e+00	9.166532e-22	0.000000e+00	-1.413481e-30	
12.4	1.000000e+00	1.000000e+00	0.000000e+00	6.361973e-05	0.000000e+00	-3.568964e-13	0.000000e+00	9.166532e-22	0.000000e+00	-1.413481e-30	
12.7	1.000000e+00	1.000000e+00	0.000000e+00	-1.491268e-04	0.000000e+00	8.565090e-14	0.000000e+00	-8.404805e-23	0.000000e+00	-1.638157e-30	
12.9	1.000000e+00	1.000000e+00	0.000000e+00	-1.491268e-04	0.000000e+00	8.565090e-14	0.000000e+00	-8.404805e-23	0.000000e+00	-1.638157e-30	
13.2	1.000000e+00	1.000000e+00	0.000000e+00	-7.765103e-04	0.000000e+00	5.560362e-12	0.000000e+00	-1.799463e-20	0.000000e+00	3.034090e-29	
13.4	1.000000e+00	1.000000e+00	0.000000e+00	-7.765103e-04	0.000000e+00	5.560362e-12	0.000000e+00	-1.799463e-20	0.000000e+00	3.034090e-29	
13.7	1.000000e+00	1.000000e+00	0.000000e+00	-2.669975e-04	0.000000e+00	6.153954e-12	0.000000e+00	-1.798686e-20	0.000000e+00	6.395823e-29	
13.9	1.000000e+00	1.000000e+00	0.000000e+00	-2.669975e-04	0.000000e+00	6.153954e-12	0.000000e+00	-1.798686e-20	0.000000e+00	6.395823e-29	
14.2	1.000000e+00	1.000000e+00	0.000000e+00	4.742928e-03	0.000000e+00	-6.932400e-11	0.000000e+00	3.107606e-19	0.000000e+00	-5.909976e-28	
14.4	1.000000e+00	1.000000e+00	0.000000e+00	4.742928e-03	0.000000e+00	-6.932400e-11	0.000000e+00	3.107606e-19	0.000000e+00	-5.909976e-28	
14.7	1.000000e+00	1.000000e+00	0.000000e+00	1.045732e-02	0.000000e+00	-1.792932e-10	0.000000e+00	6.775018e-19	0.000000e+00	-1.917545e-27	
14.9	1.000000e+00	1.000000e+00	0.000000e+00	1.045732e-02	0.000000e+00	-1.792932e-10	0.000000e+00	6.775018e-19	0.000000e+00	-1.917545e-27	
15.2	1.000000e+00	1.000000e+00	0.000000e+00	-5.636965e-03	0.000000e+00	6.269470e-10	0.000000e+00	-4.574040e-18	0.000000e+00	1.018882e-26	
15.4	1.000000e+00	1.000000e+00	0.000000e+00	-5.636965e-03	0.000000e+00	6.269470e-10	0.000000e+00	-4.574040e-18	0.000000e+00	1.018882e-26	
15.7	1.000000e+00	1.000000e+00	0.000000e+00	-6.100716e-02	0.000000e+00	3.099381e-09	0.000000e+00	-1.686405e-17	0.000000e+00	4.881149e-26	
15.9	1.000000e+00	1.000000e+00	0.000000e+00	-6.100716e-02	0.000000e+00	3.099381e-09	0.000000e+00	-1.686405e-17	0.000000e+00	4.881149e-26	
16.2	1.000000e+00	1.000000e+00	0.000000e+00	-9.944870e-02	0.000000e+00	-2.615917e-09	0.000000e+00	5.340321e-17	0.000000e+00	-1.476432e-25	
16.4	1.000000e+00	1.000000e+00	0.000000e+00	-9.944870e-02	0.000000e+00	-2.615917e-09	0.000000e+00	5.340321e-17	0.000000e+00	-1.476432e-25	
16.7	1.000000e+00	1.000000e+00	0.000000e+00	1.351854e-02	0.000000e+00	-3.813986e-08	0.000000e+00	3.323092e-16	0.000000e+00	-1.089234e-24	
16.9	1.000000e+00	1.000000e+00	0.000000e+00	1.351854e-02	0.000000e+00	-3.813986e-08	0.000000e+00	3.323092e-16	0.000000e+00	-1.089234e-24	
17.2	1.000000e+00	1.000000e+00	0.000000e+00	3.346562e-01	0.000000e+00	-3.216861e-08	0.000000e+00	-3.836442e-16	0.000000e+00	1.547128e-24	
17.4	1.000000e+00	1.000000e+00	0.000000e+00	3.346562e-01	0.000000e+00	-3.216861e-08	0.000000e+00	-3.836442e-16	0.000000e+00	1.547128e-24	
17.7	1.000000e+00	1.000000e+00	1.000000e+00	7.124286e-01	0.000000e+00	3.271839e-07	0.000000e+00	-5.392263e-15	0.000000e+00	2.150586e-23	
17.9	1.000000e+00	1.000000e+00	1.000000e+00	7.124286e-01	0.000000e+00	3.271839e-07	0.000000e+00	-5.392263e-15	0.000000e+00	2.150586e-23	
18.2	1.000000e+00	1.000000e+00	1.000000e+00	9.412449e-01	0.000000e+00	8.327209e-07	0.000000e+00	-1.780244e-15	0.000000e+00	-2.683160e-24	
18.4	1.000000e+00	1.000000e+00	1.000000e+00	9.412449e-01	0.000000e+00	8.327209e-07	0.000000e+00	-1.780244e-15	0.000000e+00	-2.683160e-24	
18.7	1.000000e+00	1.000000e+00	1.000000e+00	1.000000e+00	0.000000e+00	-1.528797e-06	0.000000e+00	7.166621e-14	0.000000e+00	-3.743639e-22	
18.9	1.000000e+00	1.000000e+00	1.000000e+00	1.000000e+00	0.000000e+00	-1.528797e-06	0.000000e+00	7.166621e-14	0.000000e+00	-3.743639e-22	
19.2	1.000000e+00	1.000000e+00	1.000000e+00	1.000000e+00	0.000000e+00	-9.539999e-06	0.000000e+00	1.234756e-13	0.000000e+00	-4.022334e-22	
19.4	1.000000e+00	1.000000e+00	1.000000e+00	1.000000e+00	0.000000e+00	-9.539999e-06	0.000000e+00	1.234756e-13	0.000000e+00	-4.022334e-22	
19.7	1.000000e+00	1.000000e+00	1.000000e+00	1.000000e+00	0.000000e+00	-4.273840e-06	0.000000e+00	-7.429826e-13	0.000000e+00	5.651001e-21	
19.9	1.000000e+00	1.000000e+00	1.000000e+00	1.000000e+00	0.000000e+00	-4.273840e-06	0.000000e+00	-7.429826e-13	0.000000e+00	5.651001e-21	
20.2	1.000000e+00	1.000000e+00	1.000000e+00	1.000000e+00	0.000000e+00	6.309561e-05	0.000000e+00	-2.597988e-12	0.000000e+00	1.343775e-20	
20.4	1.000000e+00	1.000000e+00	1.000000e+00	1.000000e+00	0.000000e+00	6.309561e-05	0.000000e+00	-2.597988e-12	0.000000e+00	1.343775e-20	
20.7	1.000000e+00	1.000000e+00	1.000000e+00	1.000000e+00	0.000000e+00	1.411471e-04	0.000000e+00	5.038556e-12	0.000000e+00	-7.103149e-20	
20.9	1.000000e+00	1.000000e+00	1.000000e+00	1.000000e+00	0.000000e+00	1.411471e-04	0.000000e+00	5.038556e-12	0.000000e+00	-7.103149e-20	
21.2	1.000000e+00	1.000000e+00	1.000000e+00	1.000000e+00	0.000000e+00	-1.537993e-04	0.000000e+00	3.732553e-11	0.000000e+00	-2.949890e-19	
21.4	1.000000e+00	1.000000e+00	1.000000e+00	1.000000e+00	0.000000e+00	-1.537993e-04	0.000000e+00	3.732553e-11	0.000000e+00	-2.949890e-19	
21.7	1.000000e+00	1.000000e+00	1.000000e+00	1.000000e+00	0.000000e+00	-1.128736e-03	0.000000e+00	8.972879e-13	0.000000e+00	6.635912e-19	
21.9	1.000000e+00	1.000000e+00	1.000000e+00	1.000000e+00	0.000000e+00	-1.128736e-03	0.000000e+00	8.972879e-13	0.000000e+00	6.635912e-19	
22.2	1.000000e+00	1.000000e+00	1.000000e+00	1.000000e+00	0.000000e+00	-1.239212e-03	0.000000e+00	-3.951028e-10	0.000000e+00	5.119235e-18	
22.4	1.000000e+00	1.000000e+00	1.000000e+00	1.000000e+00	0.000000e+00	-1.239212e-03	0.000000e+00	-3.951028e-10	0.000000e+00	5.119235e-18	
22.7	1.000000e+00	1.000000e+00	1.000000e+00	1.000000e+00	0.000000e+00	3.457606e-03	0.000000e+00	-6.260656e-10	0.000000e+00	-2.378358e-18	
22.9	1.000000e+00	1.000000e+00	1.000000e+00	1.000000e+00	0.000000e+00	3.457606e-03	0.000000e+00	-6.260656e-10	0.000000e+00	-2.378358e-18	
23.2	1.000000e+00	1.000000e+00	1.000000e+00	1.000000e+00	0.000000e+00	1.247114e-02	0.000000e+00	2.879695e-09	0.000000e+00	-7.286194e-17	
23.4	1.000000e+00	1.000000e+00	1.000000e+00	1.000000e+00	0.000000e+00	1.247114e-02	0.000000e+00	2.879695e-09	0.000000e+00	-7.286194e-17	
23.7	1.000000e+00	1.000000e+00	1.000000e+00	1.000000e+00	0.000000e+00	9.432589e-03	0.000000e+00	1.051006e-08	0.000000e+00	-6.973973e-17	
23.9	1.000000e+00	1.000000e+00	1.000000e+00	1.000000e+00	0.000000e+00	9.432589e-03	0.000000e+00	1.051006e-08	0.000000e+00	-6.973973e-17	
24.2	1.000000e+00	1.000000e+00	1.000000e+00	1.000000e+00	0.000000e+00	-3.000826e-02	0.000000e+00	-8.804296e-09	0.000000e+00	8.378349e-16	
24.4	1.000000e+00	1.000000e+00	1.000000e+00	1.000000e+00	0.000000e+00	-3.000826e-02	0.000000e+00	-8.804296e-09	0.000000e+00	8.378349e-16	
24.7	1.000000e+00	1.000000e+00	1.000000e+00	1.000000e+00	0.000000e+00	-9.386814e-02	0.000000e+00	-1.050757e-07	0.000000e+00	2.067336e-15	
24.9	1.000000e+00	1.000000e+00	1.000000e+00	1.000000e+00	0.000000e+00	-9.386814e-02	0.000000e+00	-1.050757e-07	0.000000e+00	2.067336e-15	
25.2	1.000000e+00	1.000000e+00	1.000000e+00	1.000000e+00	0.000000e+00	-9.895612e-02	0.000000e+00	-1.032960e-07	0.000000e+00	-7.159451e-15	
25.4	1.000000e+00	1.000000e+00	1.000000e+00	1.000000e+00	0.000000e+00	-9.895612e-02	0.000000e+00	-1.032960e-07	0.000000e+00	-7.159451e-15	
25.7	1.000000e+00	1.000000e+00	1.000000e+00	1.000000e+00	0.000000e+00	5.422911e-02	0.000000e+00	6.506052e-07	0.000000e+00	-3.482350e-14	
25.9	1.000000e+00	1.000000e+00	1.000000e+00	1.000000e+00	0.000000e+00	5.422911e-02	0.000000e+00	6.506052e-07	0.000000e+00	-3.482350e-14	
26.2	1.000000e+00	1.000000e+00	1.000000e+00	1.000000e+00	0.000000e+00	3.622177e-01	0.000000e+00	1.890104e-06	0.000000e+00	2.991791e-14	
26.4	1.000000e+00	1.000000e+00	1.000000e+00	1.000000e+00	0.000000e+00	3.622177e-01	0.000000e+00	1.890104e-06	0.000000e+00	2.991791e-14	
26.7	1.000000e+00	1.000000e+00	1.000000e+00	1.000000e+00	1.000000e+00	6.913343e-01	0.000000e+00	-1.351672e-06	0.000000e+00	4.303250e-13	
26.9	1.000000e+00	1.000000e+00	1.000000e+00	1.000000e+00	1.000000e+00	6.913343e-01	0.000000e+00	-1.351672e-06	0.000000e+00	4.303250e-13	
27.2	1.000000e+00	1.000000e+00	1.000000e+00	1.000000e+00	1.000000e+00	9.055025e-01	0.000000e+00	-1.517135e-05	0.000000e+00	3.352224e-13	
27.4	1.000000e+00	1.000000e+00	1.000000e+00	1.000000e+00	1.000000e+00	9.055025e-01	0.000000e+00	-1.517135e-05	0.000000e+00	3.352224e-13	
27.7	1.000000e+00	1.000000e+00	1.000000e+00	1.000000e+00	1.000000e+00	9.862933e-01	0.000000e+00	-1.833696e-05	0.000000e+00	-3.951529e-12	
27.9	1.000000e+00	1.000000e+00	1.000000e+00	1.000000e+00	1.000000e+00	9.862933e-01	0.000000e+00	-1.833696e-05	0.000000e+00	-3.951529e-12	
28.2	1.000000e+00	1.000000e+00	1.000000e+00	1.000000e+00	1.000000e+00	1.000000e+00	0.000000e+00	5.908984e-05	0.000000e+00	-9.539011e-12	
28.4	1.000000e+00	1.000000e+00	1.000000e+00	1.000000e+00	1.000000e+00	1.000000e+00	0.000000e+00	5.908984e-05	0.000000e+00	-9.539011e-12	
28.7	1.000000e+00	1.000000e+00	1.000000e+00	1.000000e+00	1.000000e+00	1.000000e+00	0.000000e+00	2.128752e-04	0.000000e+00	2.335874e-11	
28.9	1.000000e+00	1.000000e+00	1.000000e+00	1.000000e+00	1.000000e+00	1.000000e+00	0.000000e+00	2.128752e-04	0.000000e+00	2.335874e-11	
29.2	1.000000e+00	1.000000e+00	1.000000e+00	1.000000e+00	1.000000e+00	1.000000e+00	0.000000e+00	7.369023e-05	0.000000e+00	1.269823e-10	
29.4	1.000000e+00	1.000000e+00	1.000000e+00	1.000000e+00	1.000000e+00	1.000000e+00	0.000000e+00	7.369023e-05	0.000000e+00	1.269823e-10	
29.7	1.000000e+00	1.000000e+00	1.000000e+00	1.000000e+00	1.000000e+00	1.000000e+00	0.000000e+00	-9.421649e-04	0.000000e+00	-7.030223e-12	
29.9	1.000000e+00	1.000000e+00	1.000000e+00	1.000000e+00	1.000000e+00	1.000000e+00	0.000000e+00	-9.421649e-04	0.000000e+00	-7.030223e-12	
30.2	1.000000e+00	1.000000e+00	1.000000e+00	1.000000e+00	1.000000e+00	1.000000e+00	0.000000e+00	-2.130162e-03	0.000000e+00	-1.124631e-09	
30.5	1.000000e+00	1.000000e+00	1.000000e+00	1.000000e+00	1.000000e+00	1.000000e+00	0.000000e+00	-2.130162e-03	0.000000e+00	-1.124631e-09	
30.7	1.000000e+00	1.000000e+00	1.000000e+00	1.000000e+00	1.000000e+00	1.000000e+00	0.000000e+00	1.046715e-04	0.000000e+00	-1.796486e-09	
31.0	1.000000e+00	1.000000e+00	1.000000e+00	1.000000e+00	1.000000e+00	1.000000e+00	0.000000e+00	1.046715e-04	0.000000e+00	-1.796486e-09	
31.2	1.000000e+00	1.000000e+00	1.000000e+00	1.000000e+00	1.000000e+00	1.000000e+00	0.000000e+00	8.989588e-03	0.000000e+00	6.168678e-09	
31.5	1.000000e+00	1.000000e+00	1.000000e+00	1.000000e+00	1.000000e+00	1.000000e+00	0.000000e+00	8.989588e-03	0.000000e+00	6.168678e-09	
31.7	1.000000e+00	1.000000e+00	1.000000e+00	1.000000e+00	1.000000e+00	1.000000e+00	0.000000e+00	1.722525e-02	0.000000e+00	2.448919e-08	
32.0	1.000000e+00	1.000000e+00	1.000000e+00	1.000000e+00	1.000000e+00	1.000000e+00	0.000000e+00	1.722525e-02	0.000000e+00	2.448919e-08	
32.2	1.000000e+00	1.000000e+00	1.000000e+00	1.000000e+00	1.000000e+00	1.000000e+00	0.000000e+00	2.526059e-03	0.000000e+00	-4.881075e-09	
32.5	1.000000e+00	1.000000e+00	1.000000e+00	1.000000e+00	1.000000e+00	1.000000e+00	0.000000e+00	2.526059e-03	0.000000e+00	-4.881075e-09	
32.7	1.000000e+00	1.000000e+00	1.000000e+00	1.000000e+00	1.000000e+00	1.000000e+00	0.000000e+00	-5.067827e-02	0.000000e+00	-1.860203e-07	
33.0	1.000000e+00	1.000000e+00	1.000000e+00	1.000000e+00	1.000000e+00	1.000000e+00	0.000000e+00	-5.067827e-02	0.000000e+00	-1.860203e-07	
33.2	1.000000e+00	1.000000e+00	1.000000e+00	1.000000e+00	1.000000e+00	1.000000e+00	0.000000e+00	-1.111352e-01	0.000000e+00	-2.889346e-07	
33.5	1.000000e+00	1.000000e+00	1.000000e+00	1.000000e+00	1.000000e+00	1.000000e+00	0.000000e+00	-1.111352e-01	0.000000e+00	-2.889346e-07	
33.7	1.000000e+00	1.000000e+00	1.000000e+00	1.000000e+00	1.000000e+00	1.000000e+00	0.000000e+00	-9.485384e-02	0.000000e+00	7.354116e-07	
34.0	1.000000e+00	1.000000e+00	1.000000e+00	1.000000e+00	1.000000e+00	1.000000e+00	0.000000e+00	-9.485384e-02	0.000000e+00	7.354116e-07	
34.2	1.000000e+00	1.000000e+00	1.000000e+00	1.000000e+00	1.000000e+00	1.000000e+00	0.000000e+00	6.952870e-02	0.000000e+00	3.148613e-06	
34.5	1.000000e+00	1.000000e+00	1.000000e+00	1.000000e+00	1.000000e+00	1.000000e+00	0.000000e+00	6.952870e-02	0.000000e+00	3.148613e-06	
34.7	1.000000e+00	1.000000e+00	1.000000e+00	1.000000e+00	1.000000e+00	1.000000e+00	0.000000e+00	3.593428e-01	0.000000e+00	1.129002e-06	
35.0	1.000000e+00	1.000000e+00	1.000000e+00	1.000000e+00	1.000000e+00	1.000000e+00	0.000000e+00	3.593428e-01	0.000000e+00	1.129002e-06	
35.2	1.000000e+00	1.000000e+00	1.000000e+00	1.000000e+00	1.000000e+00	1.000000e+00	0.000000e+00	6.622926e-01	0.000000e+00	-1.634646e-05	
35.5	1.000000e+00	1.000000e+00	1.000000e+00	1.000000e+00	1.000000e+00	1.000000e+00	1.000000e+00	6.622926e-01	0.000000e+00	-1.634646e-05	
35.7	1.000000e+00	1.000000e+00	1.000000e+00	1.000000e+00	1.000000e+00	1.000000e+00	1.000000e+00	8.729106e-01	0.000000e+00	-3.604058e-05	
36.0	1.000000e+00	1.000000e+00	1.000000e+00	1.000000e+00	1.000000e+00	1.000000e+00	1.000000e+00	8.729106e-01	0.000000e+00	-3.604058e-05	
36.2	1.000000e+00	1.000000e+00	1.000000e+00	1.000000e+00	1.000000e+00	1.000000e+00	1.000000e+00	9.696596e-01	0.000000e+00	2.039160e-05	
36.5	1.000000e+00	1.000000e+00	1.000000e+00	1.000000e+00	1.000000e+00	1.000000e+00	1.000000e+00	9.696596e-01	0.000000e+00	2.039160e-05	
36.7	1.000000e+00	1.000000e+00	1.000000e+00	1.000000e+00	1.000000e+00	1.000000e+00	1.000000e+00	9.965478e-01	0.000000e+00	2.192459e-04	
37.0	1.000000e+00	1.000000e+00	1.000000e+00	1.000000e+00	1.000000e+00	1.000000e+00	1.000000e+00	9.965478e-01	0.000000e+00	2.192459e-04	
37.2	1.000000e+00	1.000000e+00	1.000000e+00	1.000000e+00	1.000000e+00	1.000000e+00	1.000000e+00	1.000000e+00	0.000000e+00	3.130567e-04	
37.5	1.000000e+00	1.000000e+00	1.000000e+00	1.000000e+00	1.000000e+00	1.000000e+00	1.000000e+00	1.000000e+00	0.000000e+00	3.130567e-04	
37.7	1.000000e+00	1.000000e+00	1.000000e+00	1.000000e+00	1.000000e+00	1.000000e+00	1.000000e+00	1.000000e+00	0.000000e+00	-3.987068e-04	
38.0	1.000000e+00	1.000000e+00	1.000000e+00	1.000000e+00	1.000000e+00	1.000000e+00	1.000000e+00	1.000000e+00	0.000000e+00	-3.987068e-04	
38.2	1.000000e+00	1.000000e+00	1.000000e+00	1.000000e+00	1.000000e+00	1.000000e+00	1.000000e+00	1.000000e+00	0.000000e+00	-2.095186e-03	
38.5	1.000000e+00	1.000000e+00	1.000000e+00	1.000000e+00	1.000000e+00	1.000000e+00	1.000000e+00	1.000000e+00	0.000000e+00	-2.095186e-03	
38.7	1.000000e+00	1.000000e+00	1.000000e+00	1.000000e+00	1.000000e+00	1.000000e+00	1.000000e+00	1.000000e+00	0.000000e+00	-2.434606e-03	
39.0	1.000000e+00	1.000000e+00	1.000000e+00	1.000000e+00	1.000000e+00	1.000000e+00	1.000000e+00	1.000000e+00	0.000000e+00	-2.434606e-03	
39.2	1.000000e+00	1.000000e+00	1.000000e+00	1.000000e+00	1.000000e+00	1.000000e+00	1.000000e+00	1.000000e+00	0.000000e+00	3.161855e-03	
39.5	1.000000e+00	1.000000e+00	1.000000e+00	1.000000e+00	1.000000e+00	1.000000e+00	1.000000e+00	1.000000e+00	0.000000e+00	3.161855e-03	
39.7	1.000000e+00	1.000000e+00	1.000000e+00	1.000000e+00	1.000000e+00	1.000000e+00	1.000000e+00	1.000000e+00	0.000000e+00	1.480290e-02	
40.0	1.000000e+00	1.000000e+00	1.000000e+00	1.000000e+00	1.000000e+00	1.000000e+00	1.000000e+00	1.000000e+00	0.000000e+00	1.480290e-02	
40.2	1.000000e+00	1.000000e+00	1.000000e+00	1.000000e+00	1.000000e+00	1.000000e+00	1.000000e+00	1.000000e+00	0.000000e+00	1.898573e-02	
40.5	1.000000e+00	1.000000e+00	1.000000e+00	1.000000e+00	1.000000e+00	1.000000e+00	1.000000e+00	1.000000e+00	0.000000e+00	1.898573e-02	
40.7	1.000000e+00	1.000000e+00	1.000000e+00	1.000000e+00	1.000000e+00	1.000000e+00	1.000000e+00	1.000000e+00	0.000000e+00	-7.192158e-03	
41.0	1.000000e+00	1.000000e+00	1.000000e+00	1.000000e+00	1.000000e+00	1.000000e+00	1.000000e+00	1.000000e+00	0.000000e+00	-7.192158e-03	
41.2	1.000000e+00	1.000000e+00	1.000000e+00	1.000000e+00	1.000000e+00	1.000000e+00	1.000000e+00	1.000000e+00	0.000000e+00	-6.847113e-02	
41.5	1.000000e+00	1.000000e+00	1.000000e+00	1.000000e+00	1.000000e+00	1.000000e+00	1.000000e+00	1.000000e+00	0.000000e+00	-6.847113e-02	
41.7	1.000000e+00	1.000000e+00	1.000000e+00	1.000000e+00	1.000000e+00	1.000000e+00	1.000000e+00	1.000000e+00	0.000000e+00	-1.221691e-01	
42.0	1.000000e+00	1.000000e+00	1.000000e+00	1.000000e+00	1.000000e+00	1.000000e+00	1.000000e+00	1.000000e+00	0.000000e+00	-1.221691e-01	
42.2	1.000000e+00	1.000000e+00	1.000000e+00	1.000000e+00	1.000000e+00	1.000000e+00	1.000000e+00	1.000000e+00	0.000000e+00	-9.032861e-02	
42.5	1.000000e+00	1.000000e+00	1.000000e+00	1.000000e+00	1.000000e+00	1.000000e+00	1.000000e+00	1.000000e+00	0.000000e+00	-9.032861e-02	
42.7	1.000000e+00	1.000000e+00	1.000000e+00	1.000000e+00	1.000000e+00	1.000000e+00	1.000000e+00	1.000000e+00	0.000000e+00	7.819958e-02	
43.0	1.000000e+00	1.000000e+00	1.000000e+00	1.000000e+00	1.000000e+00	1.000000e+00	1.000000e+00	1.000000e+00	0.000000e+00	7.819958e-02	
43.2	1.000000e+00	1.000000e+00	1.000000e+00	1.000000e+00	1.000000e+00	1.000000e+00	1.000000e+00	1.000000e+00	0.000000e+00	3.527629e-01	
43.5	1.000000e+00	1.000000e+00	1.000000e+00	1.000000e+00	1.000000e+00	1.000000e+00	1.000000e+00	1.000000e+00	0.000000e+00	3.527629e-01	
43.7	1.000000e+00	1.000000e+00	1.000000e+00	1.000000e+00	1.000000e+00	1.000000e+00	1.000000e+00	1.000000e+00	0.000000e+00	6.372495e-01	
44.0	1.000000e+00	1.000000e+00	1.000000e+00	1.000000e+00	1.000000e+00	1.000000e+00	1.000000e+00	1.000000e+00	1.000000e+00	6.372495e-01	
44.2	1.000000e+00	1.000000e+00	1.000000e+00	1.000000e+00	1.000000e+00	1.000000e+00	1.000000e+00	1.000000e+00	1.000000e+00	8.447675e-01	
44.5	1.000000e+00	1.000000e+00	1.000000e+00	1.000000e+00	1.000000e+00	1.000000e+00	1.000000e+00	1.000000e+00	1.000000e+00	8.447675e-01	
44.7	1.000000e+00	1.000000e+00	1.000000e+00	1.000000e+00	1.000000e+00	1.000000e+00	1.000000e+00	1.000000e+00	1.000000e+00	9.524415e-01	
45.0	1.000000e+00	1.000000e+00	1.000000e+00	1.000000e+00	1.000000e+00	1.000000e+00	1.000000e+00	1.000000e+00	1.000000e+00	9.524415e-01	
45.2	1.000000e+00	1.000000e+00	1.000000e+00	1.000000e+00	1.000000e+00	1.000000e+00	1.000000e+00	1.000000e+00	1.000000e+00	9.907112e-01	
45.5	1.000000e+00	1.000000e+00	1.000000e+00	1.000000e+00	1.000000e+00	1.000000e+00	1.000000e+00	1.000000e+00	1.000000e+00	9.907112e-01	
45.7	1.000000e+00	1.000000e+00	1.000000e+00	1.000000e+00	1.000000e+00	1.000000e+00	1.000000e+00	1.000000e+00	1.000000e+00	9.991305e-01	
46.0	1.000000e+00	1.000000e+00	1.000000e+00	1.000000e+00	1.000000e+00	1.000000e+00	1.000000e+00	1.000000e+00	1.000000e+00	9.991305e-01	
46.2	1.000000e+00	1.000000e+00	1.000000e+00	1.000000e+00	1.000000e+00	1.000000e+00	1.000000e+00	1.000000e+00	1.000000e+00	1.000000e+00	
46.5	1.000000e+00	1.000000e+00	1.000000e+00	1.000000e+00	1.000000e+00	1.000000e+00	1.000000e+00	1.000000e+00	1.000000e+00	1.000000e+00	
46.7	1.000000e+00	1.000000e+00	1.000000e+00	1.000000e+00	1.000000e+00	1.000000e+00	1.000000e+00	1.000000e+00	1.000000e+00	1.000000e+00	
47.0	1.000000e+00	1.000000e+00	1.000000e+00	1.000000e+00	1.000000e+00	1.000000e+00	1.000000e+00	1.000000e+00	1.000000e+00	1.000000e+00	
47.2	1.000000e+00	1.000000e+00	1.000000e+00	1.000000e+00	1.000000e+00	1.000000e+00	1.000000e+00	1.000000e+00	1.000000e+00	1.000000e+00	
47.5	1.000000e+00	1.000000e+00	1.000000e+00	1.000000e+00	1.000000e+00	1.000000e+00	1.000000e+00	1.000000e+00	1.000000e+00	1.000000e+00	
47.7	1.000000e+00	1.000000e+00	1.000000e+00	1.000000e+00	1.000000e+00	1.000000e+00	1.000000e+00	1.000000e+00	1.000000e+00	1.000000e+00	
48.0	1.000000e+00	1.000000e+00	1.000000e+00	1.000000e+00	1.000000e+00	1.000000e+00	1.000000e+00	1.000000e+00	1.000000e+00	1.000000e+00	
48.2	1.000000e+00	1.000000e+00	1.000000e+00	1.000000e+00	1.000000e+00	1.000000e+00	1.000000e+00	1.000000e+00	1.000000e+00	1.000000e+00	
48.5	1.000000e+00	1.000000e+00	1.000000e+00	1.000000e+00	1.000000e+00	1.000000e+00	1.000000e+00	1.000000e+00	1.000000e+00	1.000000e+00	
48.7	1.000000e+00	1.000000e+00	1.000000e+00	1.000000e+00	1.000000e+00	1.000000e+00	1.000000e+00	1.000000e+00	1.000000e+00	1.000000e+00	
49.0	1.000000e+00	1.000000e+00	1.000000e+00	1.000000e+00	1.000000e+00	1.000000e+00	1.000000e+00	1.000000e+00	1.000000e+00	1.000000e+00	
49.2	1.000000e+00	1.000000e+00	1.000000e+00	1.000000e+00	1.000000e+00	1.000000e+00	1.000000e+00	1.000000e+00	1.000000e+00	1.000000e+00	
49.5	1.000000e+00	1.000000e+00	1.000000e+00	1.000000e+00	1.000000e+00	1.000000e+00	1.000000e+00	1.000000e+00	1.000000e+00	1.000000e+00	
49.7	1.000000e+00	1.000000e+00	1.000000e+00	1.000000e+00	1.000000e+00	1.000000e+00	1.000000e+00	1.000000e+00	1.000000e+00	1.000000e+00	
50.0	1.000000e+00	1.000000e+00	1.000000e+00	1.000000e+00	1.000000e+00	1.000000e+00	1.000000e+00	1.000000e+00	1.000000e+00	1.000000e+00	
